<svg xmlns="http://www.w3.org/2000/svg" xmlns:xlink="http://www.w3.org/1999/xlink" width="558" height="618.759" viewBox="0 0 558 618.759">
  <defs>
    <radialGradient id="radial-gradient" cx="0.393" cy="0.336" r="0.688" gradientTransform="translate(0)" gradientUnits="objectBoundingBox">
      <stop offset="0" stop-color="#ff5731"/>
      <stop offset="0.698" stop-color="#ba005e"/>
      <stop offset="0.948" stop-color="#5e1377"/>
      <stop offset="0.997" stop-color="#8160ff"/>
    </radialGradient>
    <filter id="Path_302" x="460.072" y="188.342" width="67.203" height="84.708" filterUnits="userSpaceOnUse">
      <feOffset dy="3" input="SourceAlpha"/>
      <feGaussianBlur stdDeviation="3" result="blur"/>
      <feFlood flood-opacity="0.161"/>
      <feComposite operator="in" in2="blur"/>
      <feComposite in="SourceGraphic"/>
    </filter>
    <filter id="Path_310" x="272.03" y="131.357" width="89.37" height="68.05" filterUnits="userSpaceOnUse">
      <feOffset dy="3" input="SourceAlpha"/>
      <feGaussianBlur stdDeviation="3" result="blur-2"/>
      <feFlood flood-opacity="0.161"/>
      <feComposite operator="in" in2="blur-2"/>
      <feComposite in="SourceGraphic"/>
    </filter>
    <filter id="Path_311" x="352.83" y="114.407" width="36.396" height="43.358" filterUnits="userSpaceOnUse">
      <feOffset dy="3" input="SourceAlpha"/>
      <feGaussianBlur stdDeviation="3" result="blur-3"/>
      <feFlood flood-opacity="0.161"/>
      <feComposite operator="in" in2="blur-3"/>
      <feComposite in="SourceGraphic"/>
    </filter>
    <filter id="Path_312" x="322.955" y="178.007" width="108.002" height="66.832" filterUnits="userSpaceOnUse">
      <feOffset dy="3" input="SourceAlpha"/>
      <feGaussianBlur stdDeviation="3" result="blur-4"/>
      <feFlood flood-opacity="0.161"/>
      <feComposite operator="in" in2="blur-4"/>
      <feComposite in="SourceGraphic"/>
    </filter>
    <filter id="Path_314" x="358.831" y="319.325" width="154.145" height="101.014" filterUnits="userSpaceOnUse">
      <feOffset dy="3" input="SourceAlpha"/>
      <feGaussianBlur stdDeviation="3" result="blur-5"/>
      <feFlood flood-opacity="0.161"/>
      <feComposite operator="in" in2="blur-5"/>
      <feComposite in="SourceGraphic"/>
    </filter>
    <filter id="Path_318" x="432.282" y="189.669" width="104.516" height="135.681" filterUnits="userSpaceOnUse">
      <feOffset dy="3" input="SourceAlpha"/>
      <feGaussianBlur stdDeviation="3" result="blur-6"/>
      <feFlood flood-opacity="0.161"/>
      <feComposite operator="in" in2="blur-6"/>
      <feComposite in="SourceGraphic"/>
    </filter>
    <filter id="Path_319" x="441.834" y="194.408" width="47.322" height="42.728" filterUnits="userSpaceOnUse">
      <feOffset dy="3" input="SourceAlpha"/>
      <feGaussianBlur stdDeviation="3" result="blur-7"/>
      <feFlood flood-opacity="0.161"/>
      <feComposite operator="in" in2="blur-7"/>
      <feComposite in="SourceGraphic"/>
    </filter>
    <filter id="Path_320" x="373.281" y="278.655" width="128.778" height="54.641" filterUnits="userSpaceOnUse">
      <feOffset dy="3" input="SourceAlpha"/>
      <feGaussianBlur stdDeviation="3" result="blur-8"/>
      <feFlood flood-opacity="0.161"/>
      <feComposite operator="in" in2="blur-8"/>
      <feComposite in="SourceGraphic"/>
    </filter>
    <filter id="Path_321" x="347.77" y="203.239" width="114.696" height="81.997" filterUnits="userSpaceOnUse">
      <feOffset dy="3" input="SourceAlpha"/>
      <feGaussianBlur stdDeviation="3" result="blur-9"/>
      <feFlood flood-opacity="0.161"/>
      <feComposite operator="in" in2="blur-9"/>
      <feComposite in="SourceGraphic"/>
    </filter>
    <filter id="Path_323" x="369.235" y="226.521" width="61.431" height="84.885" filterUnits="userSpaceOnUse">
      <feOffset dy="3" input="SourceAlpha"/>
      <feGaussianBlur stdDeviation="3" result="blur-10"/>
      <feFlood flood-opacity="0.161"/>
      <feComposite operator="in" in2="blur-10"/>
      <feComposite in="SourceGraphic"/>
    </filter>
    <filter id="Path_324" x="336.42" y="266.135" width="44.355" height="71.428" filterUnits="userSpaceOnUse">
      <feOffset dy="3" input="SourceAlpha"/>
      <feGaussianBlur stdDeviation="3" result="blur-11"/>
      <feFlood flood-opacity="0.161"/>
      <feComposite operator="in" in2="blur-11"/>
      <feComposite in="SourceGraphic"/>
    </filter>
    <filter id="Path_325" x="350.933" y="245.177" width="56.11" height="81.006" filterUnits="userSpaceOnUse">
      <feOffset dy="3" input="SourceAlpha"/>
      <feGaussianBlur stdDeviation="3" result="blur-12"/>
      <feFlood flood-opacity="0.161"/>
      <feComposite operator="in" in2="blur-12"/>
      <feComposite in="SourceGraphic"/>
    </filter>
    <filter id="Path_326" x="262.545" y="288.744" width="91.385" height="67.114" filterUnits="userSpaceOnUse">
      <feOffset dy="3" input="SourceAlpha"/>
      <feGaussianBlur stdDeviation="3" result="blur-13"/>
      <feFlood flood-opacity="0.161"/>
      <feComposite operator="in" in2="blur-13"/>
      <feComposite in="SourceGraphic"/>
    </filter>
    <filter id="Path_327" x="348.882" y="304.922" width="92.265" height="56.679" filterUnits="userSpaceOnUse">
      <feOffset dy="3" input="SourceAlpha"/>
      <feGaussianBlur stdDeviation="3" result="blur-14"/>
      <feFlood flood-opacity="0.161"/>
      <feComposite operator="in" in2="blur-14"/>
      <feComposite in="SourceGraphic"/>
    </filter>
    <filter id="Path_329" x="263.146" y="304.261" width="37.072" height="58.305" filterUnits="userSpaceOnUse">
      <feOffset dy="3" input="SourceAlpha"/>
      <feGaussianBlur stdDeviation="3" result="blur-15"/>
      <feFlood flood-opacity="0.161"/>
      <feComposite operator="in" in2="blur-15"/>
      <feComposite in="SourceGraphic"/>
    </filter>
    <filter id="Path_330" x="279.923" y="155.154" width="33.052" height="51.954" filterUnits="userSpaceOnUse">
      <feOffset dy="3" input="SourceAlpha"/>
      <feGaussianBlur stdDeviation="3" result="blur-16"/>
      <feFlood flood-opacity="0.761"/>
      <feComposite operator="in" in2="blur-16"/>
      <feComposite in="SourceGraphic"/>
    </filter>
    <filter id="Path_54" x="138.567" y="423.961" width="235.387" height="149.102" filterUnits="userSpaceOnUse">
      <feOffset input="SourceAlpha"/>
      <feGaussianBlur stdDeviation="4.5" result="blur-17"/>
      <feFlood flood-opacity="0.102"/>
      <feComposite operator="in" in2="blur-17"/>
      <feComposite in="SourceGraphic"/>
    </filter>
    <filter id="Path_54-2" x="0" y="446.469" width="259.09" height="162.99" filterUnits="userSpaceOnUse">
      <feOffset dy="-10" input="SourceAlpha"/>
      <feGaussianBlur stdDeviation="4.5" result="blur-18"/>
      <feFlood flood-opacity="0.102"/>
      <feComposite operator="in" in2="blur-18"/>
      <feComposite in="SourceGraphic"/>
    </filter>
    <filter id="Path_54-3" x="298.91" y="455.768" width="259.09" height="162.99" filterUnits="userSpaceOnUse">
      <feOffset dy="-10" input="SourceAlpha"/>
      <feGaussianBlur stdDeviation="4.5" result="blur-19"/>
      <feFlood flood-opacity="0.102"/>
      <feComposite operator="in" in2="blur-19"/>
      <feComposite in="SourceGraphic"/>
    </filter>
    <filter id="Path_54-4" x="126.716" y="452.061" width="259.09" height="162.99" filterUnits="userSpaceOnUse">
      <feOffset dy="-10" input="SourceAlpha"/>
      <feGaussianBlur stdDeviation="4.5" result="blur-20"/>
      <feFlood flood-opacity="0.102"/>
      <feComposite operator="in" in2="blur-20"/>
      <feComposite in="SourceGraphic"/>
    </filter>
  </defs>
  <g id="Group_2708" data-name="Group 2708" transform="translate(-771.5 -146.99)">
    <g id="_1Z_2011.w020.n001.801B.p15.801_Converted_" data-name="1Z_2011.w020.n001.801B.p15.801 [Converted]" transform="translate(391.647 112.375)">
      <g id="Group_127" data-name="Group 127" transform="translate(393.652 34.615)">
        <g id="Group_85" data-name="Group 85" transform="translate(0 0)">
          <path id="Path_441" data-name="Path 441" d="M915.744,334.062c-.658,4.548-1.435,9.091-2.335,13.6-1.312,6.715-2.91,13.351-4.8,19.864a255.666,255.666,0,0,1-19.493,49.4c-2.91,5.691-6.022,11.223-9.382,16.672v.04a267.046,267.046,0,0,1-78.679,81.92,251.713,251.713,0,0,1-28.509,16.464c-4.3,2.167-8.64,4.177-13.065,6.1a258.694,258.694,0,0,1-77.862,19.9,262.084,262.084,0,0,1-133.2-21.833c-1.352-.574-2.7-1.188-4.019-1.8Q534.4,529.66,524.876,524.15q-3.072-1.782-6.146-3.687a261.826,261.826,0,0,1-61.19-52.015,258.381,258.381,0,0,1-19.413-25.357c-.658-.985-1.312-1.965-1.964-2.989q-7.067-10.816-13.1-22.363c-2.168-4.177-4.256-8.437-6.186-12.738-.777-1.762-1.554-3.523-2.292-5.285a263.7,263.7,0,0,1-20.6-89.862c-.207-4.256-.326-8.556-.326-12.9a262.019,262.019,0,0,1,23.3-108.252c1.6-3.518,3.276-7.042,5.077-10.486a228.61,228.61,0,0,1,11.347-20.072,260.141,260.141,0,0,1,48-56.929l.039-.04c.861-.777,1.722-1.514,2.579-2.257a260.989,260.989,0,0,1,171.945-64.3A260.878,260.878,0,0,1,795.487,74.753h.045c4.588,2.9,9.091,5.938,13.435,9.091,3.682,2.623,7.25,5.364,10.773,8.19a260.454,260.454,0,0,1,45.834,47.185c3.766,5,7.369,10.16,10.773,15.44a238.989,238.989,0,0,1,13.965,24.372,257.807,257.807,0,0,1,26.376,88.838c.039.614.118,1.232.2,1.846.366,3.523.7,7.042.906,10.565A261.114,261.114,0,0,1,915.744,334.062Z" transform="translate(-393.648 -34.615)" fill-rule="evenodd" fill="url(#radial-gradient)"/>
          <g id="Group_81" data-name="Group 81" transform="translate(0 51.68)" opacity="0.5">
            <path id="Path_442" data-name="Path 442" d="M915.748,292.825l-.45-.574c-6.636-8.274-15.322-15.034-21.507-23.674-3.934-5.488-8.027-10.729-14.168-13.926a117.183,117.183,0,0,0-12.866-6.3c-3.929-1.475-8.146-1.677-12.119-2.949-5.37-1.678-9.343-4.3-15.074-4.751-5.285-.45-10.239-1.638-15.568-1.554-3.232.04-14.089-2.088-14.5,3.152-.084,1.475,3.152,5.736,4.34,6.552,5.245,3.81,12.7,6.557,18.6,8.932,11.021,4.464,22.368,7.7,33.176,12.777a159.524,159.524,0,0,1,30.963,19.824,118.123,118.123,0,0,1,16.835,16.1c-1.311,6.715-2.91,13.351-4.8,19.864a98.155,98.155,0,0,1-9.788-6.473c-3.568-2.91-6.76-6.146-10.16-9.259-9.71-8.927-18.964-17.82-30.147-24.946-4.261-2.746-8.725-5.325-13.188-7.784-4.632-2.539-9.749-3.89-14.376-6.473-8.19-4.587-16.8-8.68-25.268-12.738-10.485-5-23.348-7.5-34.61-10.2-18.35-4.385-37.639-8.6-56.395-10.526-20.28-2.088-40.549-5.488-60.126-11.308-9.828-2.9-19.5-6.062-29.494-8.522-8.437-2.049-16.628-5.325-25.189-7-17.444-3.484-35.793-3.771-53.41-2.172-21.664,2.009-43.251-3.36-64.916.7-19.047,3.6-36.249,10.729-53.613,19-8.645,4.137-13.762,12.614-19.5,19.864a218.2,218.2,0,0,0-14.455,20.151c-.208-4.256-.327-8.556-.327-12.9a261.5,261.5,0,0,1,23.3-108.252A254.953,254.953,0,0,1,433.379,116.9a260.158,260.158,0,0,1,48-56.929l.04-.04c.861-.777,1.722-1.514,2.578-2.257a191.723,191.723,0,0,1,30.473-3.355c10.16-.287,20.928,1.391,30.964-.247a97.772,97.772,0,0,1,14.257-1.188c4.3-.084,8.314-1.391,12.614-1.6,14.91-.7,29.449-6.349,44.315-6.225,6.923.084,13.846.084,20.724,0,8.972-.084,17.736,1.554,26.826,1.6,21.259,0,43,2.375,63.239,9.3,19.211,6.552,38.787,11.961,58.9,15.153,15.4,2.415,30.394,5.409,44.276,12.738,4.953,2.662,9.254,5.488,14,8.561,3.157,2.049,4.711,4.177,7.329,6.676,2.87,2.786,6.473,4.424,9.793,6.552a75.737,75.737,0,0,0,12.45,6.963c.738.287,1.436.574,2.173.822,2.663,1.024,5.365,2.009,7.943,3.073,2.5,1.024,2.91,2.291,4.543,4.711,1.316,1.965,3.365,3.523,4.345,5.735.861,2.009,1.064,4.508,1.841,6.636,1.108,2.87,1.722,8.725,4.138,11.184-1.8-1.514-3.93-2.578-5.691-4.221a40.369,40.369,0,0,0-3.152-2.747,20.253,20.253,0,0,0-3.934-2.5c-2.826-1.311-5.814-3.563-8.685-4.508-4.835-1.554-9.62-2.375-14.415-4.38-5.077-2.133-10.362-3.929-15.158-6.715-5.161-3.029-9.545-7.25-14.742-10.2-11.021-6.186-21.176-16.093-33.057-20.19-4.954-1.683-9.051-3.281-14.252-3.81-3.073-.287-5.938-1.475-9.012-1.678-3.642-.208-7.289.327-10.976-.04-7.66-.777-15.6-1.965-23.185-3.36-6.76-1.227-13.351-3.523-20.151-4.261-7.087-.822-13.965-3.236-20.928-4.667-7.943-1.678-16.053-2.415-24.041-3.89-16.216-2.989-34.323-.45-50.5,1.554-19.374,2.415-41.247,4.543-58.775,13.965-4.384,2.336-9.051,3.974-13.515,6.186-3.608,1.841-6.062,4.216-9.175,6.715-3.648,2.91-12.659,4.954-12.248,11.021,2.866.163,7.7-2.252,10.61-2.9,6.3-1.435,12.531-1.4,18.717-2.826,2.662-.614,5.245-.084,7.943-.45a40.124,40.124,0,0,0,9.382-2.949c8.393-3.316,17.444-7.126,26.173-9.422,6.884-1.8,13.887-3.36,20.889-4.464C633.948,83,641.48,83.9,648.28,83.9H671.34c9.09,0,18.636-1.024,27.4,1.885,5.82,1.885,11.347,6.428,15.445,10.852,4.953,5.28,5.938,12.49,10.891,17.573,1.8,1.881,3.4,4.627,5.365,6.265,2.543,2.128,6.512,3.85,9.3,5.775a46.016,46.016,0,0,0,21.1,7.329c2.336.208,4.795,1.638,6.963,1.638,2.663,0,2.049-.208,3.276-2.212,1.841-3.2,2-5.567-.613-8.353a26.284,26.284,0,0,0-8.932-6.27c-4.385-1.678-8.8-1.227-12.04-5-1.722-1.965-3.36-6.512-1.638-9.051,1.43-2.049,7.616-2.049,9.828-2.578,4.913-1.232,6.141-.124,10.773,1.6,4.706,1.762,9.586,3.236,14.415,4.954,7.047,2.578,13.846,5.775,20.641,9.011,2.376,1.143,5.735,1.762,7.457,3.766.658.777,1.554,3.523,2.167,4.587,3.479,6.1,8.522,10.729,12.125,16.875,2.949,5,5.894,13.762,4.5,19.785-1.188,5.156-4.092,11.426-9.585,12.817-6.1,1.6-9.545-2.088-15.157-3.563-5.2-1.391-9.794-3.81-14.786-.861-4.177,2.5-4.835,5.735-2.786,9.749,2.578,4.914,7.908,5.28,12.822,6.225,6.755,1.272,13.352,4.1,19.9,6.27,5.978,1.965,12.574,2,18.845,3.766,10.115,2.9,19.78,7.908,29.039,12.822,10.031,5.4,20.027,10.813,30.39,15.524a62.1,62.1,0,0,1,19.334,13.965A259.042,259.042,0,0,1,915.748,292.825Z" transform="translate(-393.652 -45.058)" fill="#c4b0b8" fill-rule="evenodd"/>
            <path id="Path_443" data-name="Path 443" d="M886.617,207.3c-2.91,5.691-6.022,11.224-9.382,16.672-2.663-3.523-5.735-6.225-9.5-9.749-3.81-3.484-6.513-7.576-9.709-11.634-2.786-3.563-6.3-5.978-9.794-8.725a84.28,84.28,0,0,0-20.844-12,197.25,197.25,0,0,1-28.019-13.718c-11.466-6.715-21.626-15.564-32.928-22.571-10.16-6.349-21.5-12.49-33.052-15.974-5.573-1.678-11.021-2.578-16.549-4.587-6.636-2.415-14.128-2.623-21.1-3.073-6.432-.411-12.7-1.6-19.086-2.375-7.206-.861-14.5-.9-21.749-1.841-13.762-1.8-27.564-3.236-41.365-4.711a428.061,428.061,0,0,0-44.642-1.925c-14.129,0-27.564,0-41.411,3.113-8.146,1.841-16.464,3.81-24.08,7.289-4.711,2.128-9.215,3.974-13.965,5.859-2.91,1.148-5.572,2.9-8.521,3.974-4.1,1.435-8.275,2.049-12.209,3.929-11.055,5.325-19.74,9.952-27.851,19.25-7.5,8.6-14.256,17.86-21.754,26.5-2.5,2.87-4.79,5.978-7.042,9.091a257.264,257.264,0,0,1-17.78-62.338,72.289,72.289,0,0,1,8.645-5.815c10.565-6.062,21.749-10.773,32.517-16.3,11.224-5.775,21.829-11.921,34.2-14.826a125.049,125.049,0,0,1,28.92-2.989c15.232.04,30.514-.737,45.671,1.188,4.627.614,9.215.163,13.841,1.064,4.261.822,8.319,1.965,12.659,2.336,5.364.45,10.362,2.291,15.687,3.028,6.349.861,12.619,1.391,19.008,1.638,4.221.124,8.146,1.475,12.327,1.638,4.3.163,8.477-.366,12.778.287,12.535,1.925,25.4,2.539,38.09,3.929,28.346,3.073,56.934,6.6,84.251,15.074,6.1,1.885,11.387,4.954,17.241,7.453,7,2.949,14.05,5.122,20.686,8.888,5.364,3.113,11.223,5.859,16.424,9.259,6.181,4.018,11.343,9.338,17.033,13.965,7.126,5.775,15.687,9.833,23.189,15.2,4.543,3.2,8.972,6.27,13.268,9.749,5.122,4.1,11.842,7.334,16.058,12.372C880.02,198.779,883.589,202.956,886.617,207.3Z" transform="translate(-391.144 123.331)" fill="#c4b0b8" fill-rule="evenodd"/>
            <path id="Path_444" data-name="Path 444" d="M824.369,216.382a262.972,262.972,0,0,1-46.775,39.936c-11.674-7.007-25.885-10.323-37.515-17.488-10.407-6.428-22.245-10.57-33.424-15.563-11.714-5.2-23.308-10.115-35.432-14.376a125.417,125.417,0,0,0-24.738-6.023c-4.013-.574-8.353-.163-12.49-.163-4.914,0-10.526-.737-15.361.124a185.275,185.275,0,0,1-34.769,2.989c-8.971,0-17.9-.084-26.831,0-7.413.079-14.415-1.554-21.913-1.554-8.234.04-15.731-.247-23.714,1.965a25.745,25.745,0,0,0-12.782,7.126c-3.81-.653-2.455-4.177-1.514-6.349,1.346-3.073,4.751-5.691,8.111-7.042,3.849-1.519,7.047-1.148,10.891-1.8,1.965-.371,3.439-1.475,5.454-1.722a68.2,68.2,0,0,0,8.6-1.148c9.051-2,17.449,2.826,26.337,2.786,4.137-.04,8.274.084,12.411-.04a24.988,24.988,0,0,0,6.226-.737c3.033-.737,3.608-.94,5.408-3.113,4.914-5.9,1.678-14.46-6.185-14.786-3.316-.119-7.7-.574-10.892.163-4.914,1.148-10.278,2.747-15.44,3.034-4.053.2-11.634,1.227-15.484-.163a11.637,11.637,0,0,1-3.608-2.91c-2.167-2.7-3.152-4.221-6.186-6.3a47.7,47.7,0,0,0-19.167-7.621c-6.185-1.064-13.8,1.638-19.824-.04-13.554-3.81,2.91-26.827,7.78-31.5,6.715-6.473,17.324-10.323,25.846-13.683,6.389-2.5,13.8-1.391,20.354-3.355-.98-5.7-16.667-2.257-20.151-1.6-7.042,1.311-14.208,2.291-21.215,3.766-9.175,2-17.2,5.978-25.268,10.565-8.521,4.875-17.612,9.625-25.476,15.484-10.936,8.111-18.671,19.374-27.564,29.489-1.8,2.049-3.6,4.1-5.364,6.146q-7.068-10.815-13.1-22.363c1.475-1.846,3.029-3.608,4.667-5.364,2.544-2.747,5-5.528,7.5-8.274,3.157-3.4,5.529-4.751,9.383-7.329,12.327-8.235,23.427-17.162,38.337-20.2,9.794-2,19.211-5.528,29.079-7.373,11.842-2.212,23.511-5.122,35.387-7.373a121.786,121.786,0,0,1,22.121-2.336c4.3,0,7.862.985,11.96,1.881,20.274,4.508,41.366,9.5,61.759,15.2,24.332,6.8,49.769,8.8,73.893,16.3,10.65,3.276,21.665,5.938,32.068,9.991,9.625,3.771,18.433,10.075,27.811,14.42a168.7,168.7,0,0,1,25.718,14.826c6.27,4.424,12.9,8.111,19.047,12.782,4.548,3.523,7.785,8.027,12.124,11.634a39.655,39.655,0,0,1,10.278,12.822C821.741,212.161,823.057,214.249,824.369,216.382Z" transform="translate(-370.178 172.941)" fill="#c4b0b8" fill-rule="evenodd"/>
            <path id="Path_445" data-name="Path 445" d="M672.754,164c-4.3,2.167-8.641,4.177-13.064,6.1-6.147-1.722-12.738-2.336-18.642-4.058-6.715-1.965-12.737-5.815-19.537-7.824-5.978-1.762-12.04-2.623-17.939-4.548-14.781-4.79-30.84-7.655-46.24-9.665-11.758-1.6-22.081-2.5-33.75-.613-10.159,1.638-19.661,3.152-29.533,6.062-10.853,3.2-21.462,4.508-31.414,10.075-4.1,2.3-7.576,5.161-11.55,7.413-.821.45-1.638.861-2.46,1.232-1.351-.574-2.7-1.188-4.018-1.8q-10.014-4.729-19.533-10.239-3.073-1.782-6.146-3.687c2.336-.94,4.755-1.8,7.255-2.623,7.779-2.538,15.316-5.978,23.263-7.908,8.681-2.088,17.939-3.073,26.782-4.587,21.957-3.766,43.87-5.122,65.946-7.577,12.659-1.391,25.926-2.578,38.7-1.554,14,1.148,28.876,2.539,42.227,7.25,3.4,1.188,7.086,2.415,10.362,3.85,3.484,1.514,6.147,4.34,9.625,5.938,3.029,1.391,6.433,2.375,9.546,3.6,4.385,1.762,5.567,2.91,9.091,5.691C665.622,157.612,669.557,160.19,672.754,164Z" transform="translate(-293.846 281.722)" fill="#c4b0b8" fill-rule="evenodd"/>
          </g>
          <g id="Group_82" data-name="Group 82" transform="translate(7.032 23.763)" opacity="0.65">
            <path id="Path_446" data-name="Path 446" d="M713.13,96.654c-.861,5.651-5.776,10.565-9.339,14.91-2.459,2.989-3.973,6.76-6.6,9.546a21.258,21.258,0,0,1-2.949,2.5c-1.554,1.188-1.272.821-3.068.366a24.921,24.921,0,0,1-6.23-2.336c-2.617-1.391-5.2-1.762-8.145-2.291-4.914-.94-9.749-1.8-14.624-2.949-5.528-1.267-10.976-2.578-16.588-3.642-7.907-1.475-14.989-4.835-21.709-9.091a60.828,60.828,0,0,0-6.23-3.974c-2.291-1.1-5-1.638-7.369-2.662a47.252,47.252,0,0,1-7.66-3.484c-2.376-1.475-3.236-3.771-4.751-6.022a44.075,44.075,0,0,0-3.483-4.711c-1.555-1.762-4.459-3.073-6.636-4.053-3.845-1.762-7.9-1.554-12.04-1.514-2.375.039-4.593.653-6.963.737a20.006,20.006,0,0,0-3.113.653c-1.638.327-3.073,0-4.71.124-2.415.2-4.424.821-6.964.821h-6.141c-3.771,0-7.536-.327-10.892,1.722-.658.411-2.662,1.554-2.954,2.336-.411,1.064.7,2.088,1.554,2.746,2.376,1.8,4.667,3.316,7.621,3.276,3.929,0,7.576-.777,11.55-.777,6.1,0,11.961-.084,17.939.856a24.672,24.672,0,0,1,7,2.049c1.435.737,1.6,1.8,2.167,3.113-.861,1.188-2.989,1.638-4.34,1.8-1.272.124-2.662-.124-3.974-.084a62.124,62.124,0,0,0-7.823.985c-4.628.737-9.254,1.232-13.847,1.965-3.354.574-6.878-.287-10.2.366a51.6,51.6,0,0,1-9.748.614c-3.935-.04-7.295-1.267-11.264-.242-7.288,1.925-13.514,6.265-20.764,8.19-10,2.623-20.072,4.954-30.063,7.9-6.265,1.885-11.224,4.835-16.712,8.234-4.5,2.826-8.927,6.062-13.638,8.522a63.132,63.132,0,0,0-6.473,3.687c-1.722,1.143-3.726,1.6-5.449,2.662-4.751,2.989-10.2,4.79-15.074,7.576-2.578,1.514-5.2,2.618-7.863,3.974-2.954,1.435-5.408,3.479-8.11,5.325-.456.327-.94.653-1.352.985a261.831,261.831,0,0,1,16.054-46.814c1.6-3.519,3.276-7.042,5.078-10.486,7.66-3.073,15.523-5.775,22.853-9.422,3.484-1.717,7.17-2.786,10.689-4.256a75.477,75.477,0,0,1,8.353-2.91c3.034-.861,5.82-2.5,8.888-3.2,2.093-.45,4.182-.53,6.31-.861,2.336-.371,4.385-1.272,6.636-1.762,3.361-.7,6.8-.411,10.2-.411h17.038a244.95,244.95,0,0,0,32.968-2.5c12.737-1.717,26.089-3.192,38.664-6.186,2.336-.574,4.874-2.009,7.126-2.949a38.274,38.274,0,0,1,7.943-2.336c6.27-1.267,12.619-1.554,18.844-2.865,6.344-1.311,11.877-4.671,18.389-5.533,9.545-1.188,19.784.084,29.2,1.643,5.859.94,12.247,1.267,17.82,3.316,2.252.861,4.836,1.6,7,2.662,2.167,1.024,4.711,1.886,6.225,3.895a24.43,24.43,0,0,1,3.816,7c.569,1.638,1.96,2.7,3.113,4.013a64.143,64.143,0,0,0,4.666,5.325c2.416,2.375,4.711,4.835,7,7.329C711.535,91.78,713.5,94.155,713.13,96.654Z" transform="translate(-394.911 19.788)" fill="#c4b0b8" fill-rule="evenodd"/>
            <path id="Path_447" data-name="Path 447" d="M399.959,123.6c1.925-2.821,4.3-5.063,6.487-7.685,3.31-3.964,7.294-6.567,11.268-9.783a166.577,166.577,0,0,1,26.931-17.459c8.185-4.34,16.864-7.67,25.149-11.822a77.023,77.023,0,0,1,17.875-6.582c4.681-1.069,9.012-3.113,13.935-3.355,8.561-.421,17.147,1.074,25.659,1.782,7.462.619,14.311,1.534,20.577,5.914,2.474,1.732,4.557,3.657,6.9,5.552,3.058,2.474,6.739,4.29,10.193,6.186,2.935,1.613,6.053,2.856,8.864,4.686,1.346.876,3.83,2.2,4.528,3.835,1.41,3.316-2.756,6.978-5.157,8.373-.935.549-1.548,1.257-2.4,1.752-1.322.757-3.321.6-4.8.91-7.477,1.549-14.895,2.989-22.462,3.919-7.517.925-15.058,1.489-22.561,2.524a173.237,173.237,0,0,1-20.542,1.91c-3.324.064-6.715.579-10.03.9-3.895.381-8.028.292-11.878.851a53.454,53.454,0,0,1-8.674.584c-4.216-.055-8.269.831-12.437,1.361-8.14,1.029-15.662,4.32-23.639,5.968-4.32.9-8.532,1.811-12.832,2.8-4.147.96-8.3,1.856-12.49,2.514a38.949,38.949,0,0,1-6.923.584c-2.168-.04-2.846-.52-3.875-2.346-.921-1.628-.792-1.8-.035-3.553a5.569,5.569,0,0,1,1.752-2.732C400.246,120.51,401.468,120.619,399.959,123.6Z" transform="translate(-387.537 68.88)" fill="#c4b0b8" fill-rule="evenodd"/>
            <path id="Path_448" data-name="Path 448" d="M430.9,72.026c-.084,1.485-.361,2.559.821,3.563a15.407,15.407,0,0,0,4.207,1.925,22.141,22.141,0,0,0,8.126.757c1.767-.079,3.281-.51,4.167-2.192.817-1.549.341-1.96-.985-3.276C444.9,70.5,442,68.369,438.669,68.131c-2-.143-6.1.549-6.21,3.123Z" transform="translate(-253.956 73.895)" fill="#c4b0b8" fill-rule="evenodd"/>
            <path id="Path_449" data-name="Path 449" d="M431.54,118.942c-4.5,2.5-8.4,5.409-11.223,9.892-1.336,2.123-1.916,4.756-.208,6.789,1.623,1.935,4.806,3.385,7.255,3.91,4.118.881,8.422,1.732,12.585,2.326a49.314,49.314,0,0,0,13.44.228c2.9-.361,5.661-.851,8.526-1.445a44.694,44.694,0,0,1,9.309-.49c3.192.01,6.413-.178,9.6.1,2.331.2,4.642.628,6.973.826A55.982,55.982,0,0,0,507,139.657c4.7-1.252,8.245-3.33,9.932-8.017,1.242-3.449,1.663-7.22-.069-10.63-2.851-5.631-9.269-8.789-14.911-10.9-7.314-2.742-15.623-4-23.363-4.538a77.518,77.518,0,0,0-27.752,2.885c-3.454,1.074-6.438,2.845-9.714,4.281a30.636,30.636,0,0,0-7.527,4.137c-.9.742-1.752,1.4-2.717,2.069C430.238,119.392,429.278,120.516,431.54,118.942Z" transform="translate(-300.386 220.99)" fill="#c4b0b8" fill-rule="evenodd"/>
            <path id="Path_450" data-name="Path 450" d="M430.419,104.7c1.638-.8,3.133-1.821,4.983-1.584a10.585,10.585,0,0,1,3.994,1.445,3.172,3.172,0,0,1,1.791,2.237c.118,1.024-.138,1.074-1.168,1.529a11.649,11.649,0,0,1-6.977.272A5.406,5.406,0,0,1,430.7,107.5c-.381-.47-.654-1.717.238-1.772Z" transform="translate(-255.806 211.958)" fill="#c4b0b8" fill-rule="evenodd"/>
            <path id="Path_451" data-name="Path 451" d="M441.44,112.723a7.2,7.2,0,0,0,1.579,2.613,5.729,5.729,0,0,1,.772.05,23.2,23.2,0,0,0,2.856.722c2.529.515,5.1.114,7.66.2,4.5.158,12.975,6.4,14.337-.93,1.212-6.522-7.586-8.591-12.233-9.793-2.291-.594-4.5-.95-6.774-.139a24.76,24.76,0,0,0-4.459,1.628C443.726,107.938,441.4,110.016,441.44,112.723Z" transform="translate(-211.986 219.45)" fill="#c4b0b8" fill-rule="evenodd"/>
            <path id="Path_452" data-name="Path 452" d="M475.578,125.2c2.6-.727,4.969-1.727,7.651-1.974a38.365,38.365,0,0,1,13.372.98c5.087,1.4,10.8,4.845,13.079,9.853.935,2.054,1.995,5.354.124,7.205-2.7,2.682-8.591,2.172-12,2.069a44.752,44.752,0,0,1-14.569-3.241c-3.039-1.138-6.122-2.182-9.145-3.365a13.622,13.622,0,0,1-5.7-3.662c-1.247-1.435-2.267-3.425-1.564-5.4.49-1.381,2.673-2.559,3.929-3.039A5.351,5.351,0,0,1,475.578,125.2Z" transform="translate(-112.639 290.786)" fill="#c4b0b8" fill-rule="evenodd"/>
            <path id="Path_453" data-name="Path 453" d="M456.607,128.813a48.451,48.451,0,0,1,5.948,1.2c-.485.722.391,1.089.193,1.885-.262,1.044-2.029,1.757-2.885,2.093-1.771.7-3.469.5-5.39.509-2.524,0-5.3.361-7.759-.366-2.252-.663-3.548-2.083-1.148-3.5,3.394-2,7.279-1.826,11.04-1.826Z" transform="translate(-200.767 313.561)" fill="#c4b0b8" fill-rule="evenodd"/>
            <path id="Path_454" data-name="Path 454" d="M476.582,111.432a5.882,5.882,0,0,0,.3,2.959,17.5,17.5,0,0,0,1.767,2.425,52.407,52.407,0,0,0,7.071,7.334,30.262,30.262,0,0,0,5.325,3.335,34.672,34.672,0,0,0,5.859,3.038,27.385,27.385,0,0,0,8.66,1.648c3.465-.094,5.063-2.633,5.132-6.013.049-2.553-2.069-4.7-3.564-6.587a54.208,54.208,0,0,0-6.838-6.557c-5.038-4.464-10.615-8.294-15.964-12.367-1.623-1.237-6.774-4.726-8.8-2.459-.857.955-1.207,3.246-1.43,4.449-.277,1.5-.367,3.132-.58,4.657C473.078,110.417,474.2,114.579,476.582,111.432Z" transform="translate(-85.703 189.699)" fill="#c4b0b8" fill-rule="evenodd"/>
            <path id="Path_455" data-name="Path 455" d="M571.772,103.3c-3.207-3.87-7.2-6-11.492-8.645C554.357,91,548.894,86.81,543.292,82.692c-3.019-2.222-6.221-4.474-9.932-5.33a64,64,0,0,0-7.517-1.4c-4.534-.475-9.111.114-13.624.44-8.53.614-17.246,1.01-25.688,2.563-5.172.95-20.116,5.171-13.347,12.926,1.549,1.772,3.915,2.207,6.042,3.093,2.727,1.133,5.38,2.425,8.165,3.4,6.725,2.37,13.48,4.87,20.3,6.943,5.612,1.707,11.3,2.954,16.865,4.825,4.929,1.658,9.882,3.3,14.875,4.746a66.961,66.961,0,0,0,15.4,2.38c2.553.1,5.072.5,7.62.554a25.394,25.394,0,0,0,8.269-.891C575.77,115.106,576.25,109.192,571.772,103.3Z" transform="translate(-93.461 104.184)" fill="#c4b0b8" fill-rule="evenodd"/>
            <path id="Path_456" data-name="Path 456" d="M493.5,83.679c.039.807-.124,2.014.445,2.7a7.374,7.374,0,0,0,2.143,1.178,7.725,7.725,0,0,0,3.588,1.321c2.187.079,3.063-1.287,2.643-3.41-.232-1.178-1.638-2.049-2.494-2.841-1.352-1.262-4.646-1.732-6.32-.5v1.554Z" transform="translate(-6.4 126.396)" fill="#c4b0b8" fill-rule="evenodd"/>
            <path id="Path_457" data-name="Path 457" d="M474.366,53.186c5.908-1.915,12.455-3.167,18.651-1.613a26.219,26.219,0,0,1,8.5,3.662c2.163,1.524,3.831,3.528,5.835,5.236,2.781,2.37,5.721,3.707,7.393,7.091,1.272,2.573-.554,4.177-3.038,4.676-2.4.485-4.939-.282-7.231-.93-2.919-.826-5.725-1.846-8.6-2.811-2.712-.911-5.345-1.648-7.977-2.776-1.925-.821-3.826-1.678-5.776-2.445a23.362,23.362,0,0,1-8.022-5.171c-.761-.762-1.307-1.222-1.307-2.331A2.726,2.726,0,0,1,474.366,53.186Z" transform="translate(-88.149 5.817)" fill="#c4b0b8" fill-rule="evenodd"/>
            <path id="Path_458" data-name="Path 458" d="M483.443,57.006c2.95-1.227,5.651-2.608,8.413-.524,1.44,1.079,2.647,2.989,1.91,4.944-.7,1.841-4.626,1.485-6.141,1.237-2.984-.485-4.7-2.064-6.77-4.1Z" transform="translate(-56.35 23.727)" fill="#c4b0b8" fill-rule="evenodd"/>
            <path id="Path_459" data-name="Path 459" d="M447.8,50.742c-5.825,2.034-11.283,5.171-16.573,8.373-6.24,3.776-12.243,8.334-15.984,14.688-4.291,7.269,1.316,15.029,9.358,15.257,5.048.144,9.863-.277,14.455-2.5,3.632-1.762,7.423-1.8,11.3-2.682,5.374-1.227,10.615-2.87,15.97-4.147,2.974-.713,5.755-1.88,8.744-2.578a44.69,44.69,0,0,0,8.19-3.128c5.251-2.36,10.229-5.048,15.267-7.824,3.419-1.885,8.759-4.523,10.055-8.477.926-2.811,1.133-5.557-1.787-7.245-1.558-.9-3.751-1-5.508-1.188a66.7,66.7,0,0,0-7.576-.084c-2.415.015-4.75-.485-7.161-.569-2.924-.1-5.79.143-8.709-.223a82.257,82.257,0,0,0-15.044-.752c-2.2.129-4.266.871-6.477,1.01a23.506,23.506,0,0,0-5.622,1.287C447.921,50.826,443.679,51.692,447.8,50.742Z" transform="translate(-321.295 -7.258)" fill="#c4b0b8" fill-rule="evenodd"/>
            <path id="Path_460" data-name="Path 460" d="M433.182,52.119a16.826,16.826,0,0,0,8.383,2.623c3.236.1,6.646.183,9.689-1.064,2.227-.911,5.909-3.6,2.9-5.934-2.692-2.088-6.874-1.3-10.011-1.326C440.263,46.384,435.215,47.472,433.182,52.119Z" transform="translate(-244.594 -12.258)" fill="#c4b0b8" fill-rule="evenodd"/>
            <path id="Path_461" data-name="Path 461" d="M440.865,115.6c3.306.3,7.947,1.757,11.011.055a10.951,10.951,0,0,0,3.033-2.38c1.594-2.083.589-3.875-1.8-4.5-3.805-.995-12.425,1.643-11.461,6.824Z" transform="translate(-214.256 233.644)" fill="#c4b0b8" fill-rule="evenodd"/>
            <path id="Path_462" data-name="Path 462" d="M437.572,128.905a28.122,28.122,0,0,1,26.407-10.8c4.948.8,9.724,2.959,14.311,4.924a9.924,9.924,0,0,1,3.622,2.014c.515.559.718,1.247,1.341,1.732-.985,2.642-5.646,5.265-8.358,5.879a27.929,27.929,0,0,1-9.318.079c-1.88-.336-3.533-1.371-5.463-1.529a59.791,59.791,0,0,0-11.753.1c-2.083.262-3.86,1.138-5.978.549-1.539-.426-2.628-1.623-4.019-2.346C438.72,128.539,439.888,127.955,437.572,128.905Z" transform="translate(-227.259 270.01)" fill="#c4b0b8" fill-rule="evenodd"/>
            <path id="Path_463" data-name="Path 463" d="M448.55,121.272c.312,4.419,1.2,4.122,5.394,3.914,2.073-.1,3.93-1.6,3.177-3.954-.455-1.43-1.871-1.811-3.142-2.286-2.177-.822-3.5-1.029-5.428.772Z" transform="translate(-183.911 272.21)" fill="#c4b0b8" fill-rule="evenodd"/>
            <path id="Path_464" data-name="Path 464" d="M402.6,117.087c.361-4.538,3.092-6.29,6.512-9.3a71.5,71.5,0,0,1,16.732-10.932c11.6-5.458,25.9-7.794,38.644-7.725,5.394.03,10.743-.139,16.1.4,3.6.356,8.685-.045,11.932,1.91a4.4,4.4,0,0,1,2.419,4.7c-.614,2.994-5.23,3.786-7.734,4.672-3.845,1.361-7.879,1.979-11.813,3.048a115.211,115.211,0,0,0-16.914,6.032c-9.289,4.2-18.637,8.126-28.113,11.852-4.048,1.593-8.027,2.257-12.263,3.123-3.6.732-6.963,1.3-10.5.03-2.469-.891-3.617-2.667-4.092-5.265C403.145,117.592,403.719,112.554,402.6,117.087Z" transform="translate(-365.348 156.88)" fill="#c4b0b8" fill-rule="evenodd"/>
            <path id="Path_465" data-name="Path 465" d="M423.145,91.775c2.341,2.425,3.019,3.019,6.127,3.875,2.024.554,5.172,1.846,7.314,1.653,2.964-.267,5.043-2.821,2.509-5.077-4.261-3.8-10.893-2.88-15.95-2Z" transform="translate(-284.227 158.137)" fill="#c4b0b8" fill-rule="evenodd"/>
            <path id="Path_466" data-name="Path 466" d="M395.073,101.8c8.1-2.87,15.934-6.418,24.773-6.235,4.256.089,5.483,2.153,5.508,6.23.029,5.087-3.073,10.145-6.27,13.98-1.668,2-3.811,3.553-5.4,5.617a23.108,23.108,0,0,1-3.5,4.018c-1.108.93-3.488,3.152-4.845,2.638-.7-.267-1.658-2-2.118-2.573a25.117,25.117,0,0,1-2.543-3.459c-1.494-2.732-2.212-6.666-2.5-9.719-.317-3.365-1.926-7.121-1.554-10.5h-1.544Z" transform="translate(-395.073 182.259)" fill="#c4b0b8" fill-rule="evenodd"/>
            <path id="Path_467" data-name="Path 467" d="M473.92,82.69a5.044,5.044,0,0,0-1.529,3.029c2.1,1.47,3.226,3.028,5.844,4.028a25.463,25.463,0,0,0,6.2,1.44,12.089,12.089,0,0,0,4.266-.718c1.366-.485,1.331-.812.97-1.767-.3-.792-1.633-1.831-2.168-2.514-1.074-1.356-1.608-2.6-3.261-3.345-3.419-1.549-6.625-1.712-10.318-1.707V82.69Z" transform="translate(-89.772 125.317)" fill="#c4b0b8" fill-rule="evenodd"/>
            <path id="Path_468" data-name="Path 468" d="M469.407,60.352c5.78,8.2,9.22,18.033,14,26.846a22.951,22.951,0,0,0,11.51,10.357c2.806,1.084,5.83,1.267,8.63,2.4,2.316.93,4.484.762,6.929.757,1.6,0,4.453.515,5.849-.391,3.543-2.3,2.1-10.308.857-13.366a45.863,45.863,0,0,0-9.695-14.935,65.335,65.335,0,0,0-7.755-6.438c-2.707-1.979-5.918-2.692-8.937-4.063A27.866,27.866,0,0,0,478.676,58.8c-1.034,0-2.732-.341-3.682.153s-1.02,1.435-2.336,1.549C472.613,60.713,472.559,60.921,469.407,60.352Z" transform="translate(-101.554 36.677)" fill="#c4b0b8" fill-rule="evenodd"/>
            <path id="Path_469" data-name="Path 469" d="M473.463,65.487c-1.925,2.979-2.44,4-.039,6.245,1.529,1.425,3.628.6,3.2-1.628-.391-2.024-3.2-5.048-5.489-4.617Z" transform="translate(-94.743 63.361)" fill="#c4b0b8" fill-rule="evenodd"/>
            <path id="Path_470" data-name="Path 470" d="M462.656,53.511c4.839,4.37,11.06,7.675,17.731,7.819,1.89.039,3.707-1.094,3.083-3.177-.331-1.118-1.44-1.92-2.162-2.756A18.7,18.7,0,0,0,470,48.919c-3.108-.421-7.621-.975-8.121,3.043Z" transform="translate(-131.28 -3.045)" fill="#c4b0b8" fill-rule="evenodd"/>
            <path id="Path_471" data-name="Path 471" d="M458.272,72.461c.837-2.925,1.178-4.023,3.915-5.147,2.593-1.069,3.83-1.435,6.151.44,3.034,2.45,3.746,5.31,1.213,8.2-1.43,1.638-5.151,3.944-7.438,2.593-.708-.416-1.826-2.3-2.325-2.989-.966-1.331-.723-2.291-.738-3.88Z" transform="translate(-145.522 67.249)" fill="#c4b0b8" fill-rule="evenodd"/>
            <path id="Path_472" data-name="Path 472" d="M450.588,70.2c2.761,2.36,5.736,5,9.67,3.533,1.771-.658,3.558-1.841,1.791-3.36-1.148-.99-3.138-.782-4.5-1.123-2.1-.525-2.623-.807-4.637.168Z" transform="translate(-175.864 76.496)" fill="#c4b0b8" fill-rule="evenodd"/>
            <path id="Path_473" data-name="Path 473" d="M446.164,46.424a105.739,105.739,0,0,0,10.763-.95c.118-1.143,1.084-2.207.88-3.326-.322-1.806-3.255-2.41-4.725-2.657-2.594-.431-9.982.995-10.021,4.6Z" transform="translate(-205.585 -39.417)" fill="#c4b0b8" fill-rule="evenodd"/>
            <path id="Path_474" data-name="Path 474" d="M452.178,121.752c.742-1.717,1.871-2.311,3.731-2.648a16.312,16.312,0,0,1,5.171.381c3.137.48,6.23,1.965,9.194,3.024,3.672,1.316,7.319,2.855,11.071,3.929a91.418,91.418,0,0,0,12.337,2.291c6.453.93,12.921,1.5,19.339,2.623a32.688,32.688,0,0,1,5.533,1.475c1.331.475,2.637.475,3.979.841,1.549.431,3.059.817,4.063,2.069a3.073,3.073,0,0,1,.767,2.994c-.317,1.074-1.366,1.95-1.752,3.088a11.659,11.659,0,0,0-.9,5.142,7.258,7.258,0,0,0,2.424,4.355,32.2,32.2,0,0,1,4.3,4.6c.742,1.113.915,1.88-.8,1.445a27.952,27.952,0,0,1-5.5-2.514c-3.43-1.772-6.682-3.806-10.2-5.454-1.96-.915-3.97-1.578-5.944-2.425-1.856-.8-3.707-1.668-5.617-2.341-3.815-1.336-7.517-3.152-11.238-4.731-6.077-2.573-12.129-5.26-18.271-7.67a50.825,50.825,0,0,1-8.358-4.078c-1.41-.891-2.657-2.088-4.092-2.925a15.677,15.677,0,0,0-3.984-1.193,6.74,6.74,0,0,1-1.959-1.123,13.128,13.128,0,0,0-4.4-2.4C451.059,120.411,451.034,120.307,452.178,121.752Z" transform="translate(-173.959 274.833)" fill="#c4b0b8" fill-rule="evenodd"/>
            <path id="Path_475" data-name="Path 475" d="M443.081,118.689c-.505.237-2.846.906-3.123,1.915-.218.792.366,1.163.995,1.4a18.951,18.951,0,0,0,3.5.564c2.078.327,4.078.737,6.136,1.163,1.693.351,3.336.846,5.038,1.173,2.1.406,4.305.614,6.375,1.138,1.88.475,3.607.975,5.522,1.272,2.311.356,4.434,1.227,6.78,1.484,4.859.535,9.793.9,14.678,1.148a51.289,51.289,0,0,1,14.638,3c2.143.767,4.305,1.49,6.424,2.326,1.841.733,3.434,1.866,5.211,2.737,3.88,1.905,7.586,4.449,11.609,6.022a88.043,88.043,0,0,0,13.7,3.761c6.616,1.44,13.267,2.692,19.879,4.152,7.605,1.677,15.217,3.578,22.749,5.582a50.356,50.356,0,0,1,10.125,3.543c2.475,1.312,5.078,2.564,7.482,3.989,1.886,1.118,3.766,2.217,5.671,3.3,1.87,1.059,3.563,2.415,5.418,3.513,1.47.866,3.123,1.425,4.311,2.7a48.887,48.887,0,0,0,3.652,3.6c.911.792,1.653,1.707,2.5,2.534a8.35,8.35,0,0,1,1.95,2.009,15.736,15.736,0,0,1,1.222,2.7c.48,1.4,1.658,2.563,2.282,3.91.183.391.248.9.436,1.262a11.567,11.567,0,0,0,1.519,1.757c.485.584.811,1.247,1.281,1.836a32.4,32.4,0,0,0,2.474,2.217c1.049,1.064,2.188,1.905,3.207,3.019a7.307,7.307,0,0,1,1.609,3.806c.312.01.614.356.806.376.525.055.322-.01.767-.208a8.65,8.65,0,0,0,2.326-1.638,30.785,30.785,0,0,0,6.037-7.388c.915-1.722,1.925-3.909,1.658-5.928a2.94,2.94,0,0,0-2.029-2.524c-1.935-.851-4.113-1.079-6.023-1.994-2.2-1.054-4.419-2.143-6.621-3.212-1.371-.668-2.544-1.569-3.964-2.158a18.572,18.572,0,0,1-4.182-2.311,67.132,67.132,0,0,1-6.493-4.954c-2.984-2.806-6.31-5.409-9.516-7.963a88.2,88.2,0,0,0-7.76-5.849,29.178,29.178,0,0,0-7.131-3c-1.639-.48-3.3-.525-4.974-.841-1.831-.346-3.593-.7-5.453-.9-3.029-.307-6-.529-9.031-.648a27.266,27.266,0,0,1-6.8-1.173,19.532,19.532,0,0,1-5.132-1.95c-1.257-.836-2.573-1.539-3.86-2.321-1.811-1.1-3.489-2.494-5.345-3.509a34.692,34.692,0,0,1-7.091-4.548c-1.054-.99-5.547-5.142-3.013-6.418,1.747-.881,4.71-.322,6.522.2a12.751,12.751,0,0,1,2.474,1.435c.817.455,1.549,1.019,2.341,1.495a18.548,18.548,0,0,0,4.657,1.643c3.1.841,6.127,1.885,9.229,2.7,3.405.9,6.651,2.346,10.081,3.138,6.818,1.569,13.94,2.489,20.215,5.716,2.988,1.539,6.191,2.6,9.214,4.063,2.806,1.361,5.444,3.024,8.2,4.464,4.083,2.128,8.234,3.84,12.06,6.384A14.646,14.646,0,0,1,634,167.29a46.739,46.739,0,0,1,2.7,4.162,11.128,11.128,0,0,0,3.4,3.91,12.136,12.136,0,0,0,3.578,1.791,2.016,2.016,0,0,0-.525-1c-.673-.856-1.47-1.633-2.143-2.509a7.43,7.43,0,0,1-1.964-4.315,8.7,8.7,0,0,0-1.594-4.513,44.691,44.691,0,0,0-7.67-8.64,21.563,21.563,0,0,0-5.231-3.736c-2-.911-4.073-1.648-6.091-2.514-4.063-1.747-8.21-3.291-12.357-4.84-4.484-1.678-9.2-2.623-13.817-3.895-2.168-.6-4.409-.91-6.572-1.534-2.786-.8-5.582-1.574-8.373-2.365a58.463,58.463,0,0,1-12.887-5.879c-1.806-1.039-3.588-2.133-5.418-3.122-2.326-1.262-4.775-2.257-7.067-3.578a104.442,104.442,0,0,0-12.352-6.042c-4.112-1.7-8.754-2.212-13.094-3.078-4.4-.881-8.8-1.771-13.228-2.519-5.117-.861-10.085-2.039-15.272-2.539-4.136-.4-8.249-1.019-12.4-1.207-2.415-.109-4.676-.515-7.076,0a19.947,19.947,0,0,0-5,1.994c-5.651,2.9-12.213,5.384-18.632,5.419-1.875.01-3.721.351-5.6.4a21.851,21.851,0,0,0-4.246.485C443.328,118.011,442.378,118.635,443.081,118.689Z" transform="translate(-218.021 235.604)" fill="#c4b0b8" fill-rule="evenodd"/>
            <path id="Path_476" data-name="Path 476" d="M452.957,105.843c-.663.856-1.8,1.989-1.97,3.182-.208,1.489,1.524,2.761,2.687,3.355,2.431,1.242,5.671,1.361,8.289,2.073,3.459.94,6.874,2.073,10.293,3.123a69.493,69.493,0,0,0,9.65,2.415c1.38.213,3.488.727,4.641-.346,2.381-2.227-.515-4.3-2.315-5.656-3.291-2.489-7.6-3.4-11.54-4.375-2.811-.693-5.528-1.3-8.4-1.737-2.083-.317-3.969-.846-5.993-1.356-.821-.208-1.593-.153-2.39-.322C455.392,106.091,454,105.259,452.957,105.843Z" transform="translate(-174.353 222.064)" fill="#c4b0b8" fill-rule="evenodd"/>
            <path id="Path_477" data-name="Path 477" d="M520.228,146.29a17.389,17.389,0,0,0-4.805-3.875c-3.677-2.395-7.987-3.8-11.793-5.978a43.076,43.076,0,0,0-11.946-4.731c-3.3-.708-6.612-.861-9.937-1.242-1.96-.223-3.934-.05-5.9-.277a56.734,56.734,0,0,0-6.423-.2c-2.1-.005-4.142.124-6.235.3-2.514.208-5.033.124-7.528.564-1.261.223-4.434.614-4.523,2.242-.084,1.554,1.583,2.331,2.736,2.954a32.451,32.451,0,0,0,8.962,3.118c4.365.891,8.739,1.885,13.089,2.86,3.692.827,7.383,1.722,11.035,2.707,1.688.455,3.172,1.108,4.8,1.722,1.673.629,3.375,1,5,1.777,2.786,1.326,5.8,1.875,8.695,2.91,1.311.465,2.613.905,3.934,1.346,1.436.485,2.578,1.361,3.954,1.969a44.127,44.127,0,0,0,7.383,2.994c2.208.52,4.38,1.009,6.577,1.549,1.767.431,5.166,1.846,6.73.322,1.861-1.8-.544-5.488-1.806-6.987-1.836-2.187-4.484-3.533-6.967-4.85C523.762,146.691,522.311,145.869,520.228,146.29Z" transform="translate(-173.715 318.2)" fill="#c4b0b8" fill-rule="evenodd"/>
          </g>
          <g id="Group_83" data-name="Group 83" transform="translate(32.638 22.583)">
            <path id="Path_478" data-name="Path 478" d="M434.341,79.255c-.93,1.311-1.925,2.464-.277,3.815,1.752,1.445,4.83,1.46,6.884.891,2.5-.693,6.429-3.454,5.849-6.557s-5.636-2.91-7.823-2.316a6.649,6.649,0,0,0-5.018,5.721Z" transform="translate(-270.202 101.215)" fill="#ff8142" fill-rule="evenodd"/>
            <path id="Path_479" data-name="Path 479" d="M401.408,81.607c-.931,1.311-1.926,2.459-.282,3.815,1.757,1.445,4.835,1.455,6.888.886,2.5-.693,6.428-3.454,5.849-6.557s-5.636-2.91-7.823-2.316a6.649,6.649,0,0,0-5.018,5.721Z" transform="translate(-400.247 110.482)" fill="#ff8142" fill-rule="evenodd"/>
            <path id="Path_480" data-name="Path 480" d="M463.392,48.529c-.881,1.782-.891,1.549.029,3.053a9,9,0,0,0,4.494,3.514c1.574.6,3.127.3,4.755.51a14.856,14.856,0,0,0,4.682.02c2.524-.391,5.849-.915,7.334-3.291,1.846-2.935.094-6.433-1.826-8.838-3.944-4.944-11.63-5.325-17.068-2.747C462.639,42.244,461.293,46.114,463.392,48.529Z" transform="translate(-154.905 -39.178)" fill="#ff8142" fill-rule="evenodd"/>
            <path id="Path_481" data-name="Path 481" d="M469.912,44.815a2.551,2.551,0,0,1-.356-1.529c1.994-.955,4.31.376,5.137,2.326a3.694,3.694,0,0,1,.292,2.242,4.042,4.042,0,0,1-1.8,1.638,3.646,3.646,0,0,1-4.539-1.173c-.579-.767-1.376-2.771.1-3.113Z" transform="translate(-133.094 -24.211)" fill="#ff8142" fill-rule="evenodd"/>
            <path id="Path_482" data-name="Path 482" d="M451.285,80.726a2.562,2.562,0,0,1-.356-1.534c1.994-.955,4.311.376,5.137,2.326a3.7,3.7,0,0,1,.292,2.242,4.044,4.044,0,0,1-1.8,1.638,3.646,3.646,0,0,1-4.538-1.173c-.579-.767-1.376-2.771.1-3.113Z" transform="translate(-206.645 117.569)" fill="#ff8142" fill-rule="evenodd"/>
            <path id="Path_483" data-name="Path 483" d="M492.457,86.293c.9,1.989,2.429,4.454,5.047,3.835,3.162-.752,5.082-4.414,5.632-7.319.786-4.231-.52-9.937-3.509-13.1A34.538,34.538,0,0,0,495,65.3c-1.1-.822-1.945-1.663-3.4-1.549-2.974.228-4.192,4.538-4.978,6.864-.866,2.563-1.371,5.9-.312,8.5a24.624,24.624,0,0,0,3.638,6.616C490.7,86.62,491.606,87.664,492.457,86.293Z" transform="translate(-62.793 57.814)" fill="#ff8142" fill-rule="evenodd"/>
            <path id="Path_484" data-name="Path 484" d="M463.317,62.29c.9,1.989,2.43,4.459,5.048,3.835,3.162-.752,5.088-4.414,5.631-7.324.787-4.231-.519-9.937-3.509-13.1a35.092,35.092,0,0,0-4.627-4.409c-1.108-.817-1.95-1.663-3.4-1.549-2.969.228-4.192,4.538-4.974,6.864-.871,2.563-1.376,5.9-.312,8.5a24.652,24.652,0,0,0,3.642,6.616C461.551,62.622,462.466,63.661,463.317,62.29Z" transform="translate(-177.847 -36.985)" fill="#ff8142" fill-rule="evenodd"/>
            <path id="Path_485" data-name="Path 485" d="M490.9,74.706a14.25,14.25,0,0,1,4.87,1.193,5.821,5.821,0,0,0,.164,1.524c.074.312.46.767.336,1.089-.351.945-2.064.945-2.8.826a8.8,8.8,0,0,1-3.118-1.539,2.59,2.59,0,0,1-1.336-1.44c.307-.257.643-.46.718-.871Z" transform="translate(-49.716 101.107)" fill="#ff8142" fill-rule="evenodd"/>
            <path id="Path_486" data-name="Path 486" d="M490.17,98.256a14.13,14.13,0,0,1,4.869,1.193,6.054,6.054,0,0,0,.159,1.524c.079.312.465.767.341,1.089-.351.945-2.069.945-2.8.827a8.8,8.8,0,0,1-3.118-1.539,2.591,2.591,0,0,1-1.336-1.44c.306-.257.638-.46.718-.871Z" transform="translate(-52.618 194.098)" fill="#ff8142" fill-rule="evenodd"/>
            <path id="Path_487" data-name="Path 487" d="M497.29,75.473c.509.455,1.257,1.465,1.984,1.6.821.148,2.138-.8,2.792-1.212a3.624,3.624,0,0,0,1.82-3.578,5.673,5.673,0,0,0-2-3.786,36.649,36.649,0,0,0-6.923-4.1c-1.212-.579-3.627-1.108-4.864-.208-1.723,1.247-.624,3.4.015,4.894a20.944,20.944,0,0,0,3.928,5.424c1.153,1.326,2.475,2.717,4.415,2.519Z" transform="translate(-49.113 57.658)" fill="#ff8142" fill-rule="evenodd"/>
            <path id="Path_488" data-name="Path 488" d="M479.451,116.866a5.726,5.726,0,0,0-.46,2.578,9.178,9.178,0,0,0,4.968,2.544c2.584.356,5.924.094,7.869-1.875.767-.782,2.147-2.583,2.182-3.756.039-1.123-1.3-2.474-2.133-3.128-1.618-1.277-4.7-1.371-6.681-.965a11.368,11.368,0,0,0-2.91.965c-1.341.733-1.866,2.019-2.84,3.128v.51Z" transform="translate(-89.351 248.564)" fill="#ff8142" fill-rule="evenodd"/>
            <path id="Path_489" data-name="Path 489" d="M485.26,115.637a9.778,9.778,0,0,1,5,1.589c-.515.787-.5,1.935-1.486,2.444a6.07,6.07,0,0,1-3.216.065,6.64,6.64,0,0,1-1.746-1.613,1.347,1.347,0,0,1,1.445-1.969Z" transform="translate(-70.843 262.729)" fill="#ff8142" fill-rule="evenodd"/>
            <path id="Path_490" data-name="Path 490" d="M436.862,126.784a9.875,9.875,0,0,1,5,1.588c-.515.787-.5,1.935-1.485,2.45a6.173,6.173,0,0,1-3.216.064,6.558,6.558,0,0,1-1.747-1.613,1.344,1.344,0,0,1,1.445-1.965Z" transform="translate(-261.949 306.745)" fill="#ff8142" fill-rule="evenodd"/>
            <path id="Path_491" data-name="Path 491" d="M492.451,112.471c1.49,1.623,2.791,3.464,5.058,4.063,2.45.643,3.632-.851,4.7-2.89,1.178-2.247.847-6.1.51-8.536-.322-2.341-1.47-6-3.523-7.423-3.929-2.722-7.1,1.262-7.725,4.944-.168,1.024-.445,2.073-.554,3.1a10.49,10.49,0,0,0,.692,3.84,16.176,16.176,0,0,0,1.065,3.865,12.1,12.1,0,0,0,2.365,2.667Z" transform="translate(-42.333 188.29)" fill="#ff8142" fill-rule="evenodd"/>
            <path id="Path_492" data-name="Path 492" d="M442.884,140.6c3.1,1.153,4.731,1.876,7.913,1.465,2.326-.3,4.711-.965,7-1.47,2.375-.524,7.754-.93,8.323-4.078.693-3.84-4.641-6.606-7.1-8.373a20.792,20.792,0,0,0-8.338-3.87c-2.722-.451-4.7-1.113-7.181.391-1.91,1.153-4.1,2.469-4.909,4.652-.9,2.435-.2,4.607,1.307,6.621C441.28,137.784,442.835,138.962,442.884,140.6Z" transform="translate(-250.413 294.68)" fill="#ff8142" fill-rule="evenodd"/>
            <path id="Path_493" data-name="Path 493" d="M444.1,129.37c.1-1.569-.174-2.138,1.122-2.6a3.869,3.869,0,0,1,2,.094,3.224,3.224,0,0,1,1.539,2.771c0,.985-.312,2.064-1.574,1.846-.7-.119-2.643-1.415-2.579-2.1H444.1Z" transform="translate(-227.073 306.316)" fill="#ff8142" fill-rule="evenodd"/>
            <path id="Path_494" data-name="Path 494" d="M451.488,41.942c.1-1.569-.174-2.138,1.123-2.6a3.866,3.866,0,0,1,2,.094,3.23,3.23,0,0,1,1.539,2.771c0,.985-.312,2.064-1.574,1.851-.7-.119-2.643-1.415-2.573-2.108h-.519Z" transform="translate(-197.916 -38.906)" fill="#ff8142" fill-rule="evenodd"/>
            <path id="Path_495" data-name="Path 495" d="M401.378,85.126c.11-1.564-.168-2.133,1.128-2.6a3.853,3.853,0,0,1,2,.094,3.224,3.224,0,0,1,1.539,2.766c.005.985-.312,2.064-1.574,1.851-.7-.119-2.642-1.415-2.573-2.108Z" transform="translate(-395.782 131.612)" fill="#ff8142" fill-rule="evenodd"/>
            <path id="Path_496" data-name="Path 496" d="M481.549,113.886c.1-1.564-.168-2.133,1.123-2.6a3.869,3.869,0,0,1,2,.094,3.231,3.231,0,0,1,1.539,2.771c0,.985-.311,2.064-1.574,1.851-.7-.119-2.643-1.415-2.573-2.108h-.52Z" transform="translate(-79.216 245.175)" fill="#ff8142" fill-rule="evenodd"/>
            <path id="Path_497" data-name="Path 497" d="M451.9,142.406c1.91.638,4,1.682,6.017,1.584a27.736,27.736,0,0,0,3.43-.51,9.618,9.618,0,0,0,5.612-2.757c2.024-2.4.564-4.018-2.118-4.468-2.846-.48-6.018-1.188-8.809-.079-1.44.574-5.7,2.553-3.1,4.676Z" transform="translate(-196.305 341.5)" fill="#ff8142" fill-rule="evenodd"/>
            <path id="Path_498" data-name="Path 498" d="M443.307,92.657c-.574,1.851-1,3.2.693,4.553,2.168,1.742,6.083,1.311,8.685,1.653,2.153.287,7.848,1.608,5.869-2.578-1.47-3.1-3.8-4.394-6.963-5.176-2.608-.648-6.166-1.207-8.279,1.029v.52Z" transform="translate(-232.215 163.606)" fill="#ff8142" fill-rule="evenodd"/>
            <path id="Path_499" data-name="Path 499" d="M418.222,95.74a3.107,3.107,0,0,1,1.01-1.257,10.068,10.068,0,0,1,2.5-1.257,14.115,14.115,0,0,1,3.86-.831c.277-.01,1.411,0,1.153.564-.049.114-.3.233-.386.3a4.068,4.068,0,0,1-1.039.663,7.813,7.813,0,0,0-1.014.366,5.564,5.564,0,0,1-1.268.554,2.979,2.979,0,0,0-1.014.351,8.361,8.361,0,0,1-1.455.7,5.185,5.185,0,0,1-2.073.43c-.2,0-.416.069-.55-.134C417.851,96.032,417.881,95.765,418.222,95.74Z" transform="translate(-330.539 170.949)" fill="#ff8142" fill-rule="evenodd"/>
            <path id="Path_500" data-name="Path 500" d="M424.074,91.8a25.867,25.867,0,0,1,6.23.92c.158,1.5-1.92,2.059-3.113,2.2a4.544,4.544,0,0,1-2.36-.252c-.678-.317-1.084-1.163-1.792-1.311Z" transform="translate(-310.247 168.605)" fill="#ff8142" fill-rule="evenodd"/>
            <path id="Path_501" data-name="Path 501" d="M450.638,72.8c-4.117-2.177-8.388-4.325-13.055-5.092a25.327,25.327,0,0,0-16.934,2.534c-1.688.906-5.156,2.088-5.122,4.657.039,3.009,6.468,2.509,8.18,2.544A78.694,78.694,0,0,1,438.687,79c3.692.817,8,1.91,11.733.683a4.6,4.6,0,0,0,2.86-3.885C453.364,74.286,450.984,72.351,450.638,72.8Z" transform="translate(-339.914 71.711)" fill="#ff8142" fill-rule="evenodd"/>
            <path id="Path_502" data-name="Path 502" d="M424.186,71.592c1.252.663,4.236,3.558,5.068,1.044.415-1.262-.272-1.93-.871-2.92s-.634-1.163-1.865-1.494c-1.515-.406-1.9-.47-2.851.782Z" transform="translate(-307.775 74.474)" fill="#ff8142" fill-rule="evenodd"/>
            <path id="Path_503" data-name="Path 503" d="M491.778,85.05c1.183-.094,5.929-.891,8.026-.45.985.208,1.995.658,2.974.945a12.772,12.772,0,0,1,5.864,3.39,5.3,5.3,0,0,1,1.227,2.583c.05,1.1-1.094,2.158-2.024,2.742-1.381.866-3.083.619-4.632.628a15.832,15.832,0,0,1-7.6-1.539c-1.41-.727-6.4-4.731-3.831-6.75V85.05Z" transform="translate(-41.661 139.655)" fill="#ff8142" fill-rule="evenodd"/>
            <path id="Path_504" data-name="Path 504" d="M482.021,104.436c-1.208,2.514-1.312,2.7.058,5.008,1.495,2.519,3.925,3.845,6.588,4.884,1.9.738,5.987.832,5.705-2.321-.218-2.489-3.845-5.528-5.647-7.091-2.143-1.871-4.493-2.039-7.225-2.034Z" transform="translate(-81.053 212.364)" fill="#ff8142" fill-rule="evenodd"/>
            <path id="Path_505" data-name="Path 505" d="M444,98.978c2.212,2.742,3.449,4.078,6.983,4.538a7.489,7.489,0,0,0,5.879-2.192c2.281-2.454.03-4.632-2.366-5.859-2.044-1.054-4.27-1.742-6.329-.47a3.4,3.4,0,0,0-1.777,2.118c-.248,1.41,1.1,2.163.717,3.415Z" transform="translate(-227.476 178.5)" fill="#ffce42" fill-rule="evenodd"/>
            <path id="Path_506" data-name="Path 506" d="M459.1,87.856c-1.767-2.539-4.909-5.844-1.43-8.378,1.386-1.014,3.88-.97,5.464-.95,2.237.025,4.657-.277,6.869.173,2.776.564,6.255,1.42,7.7,3.86,1.416,2.4,2.9,5.216,3.157,8.042.469,5.067-4.142,8.719-9.125,7.982a22.625,22.625,0,0,1-5.1-1.569c-1.618-.742-2.311-1.95-3.642-2.989-1.747-1.356-3.919-2.341-4.657-4.617Z" transform="translate(-179.712 115.897)" fill="#ffce42" fill-rule="evenodd"/>
            <path id="Path_507" data-name="Path 507" d="M463.272,83.638a12.054,12.054,0,0,0,5.879-3.261c-1.173-1.227-2.9-3.311-4.731-2.984-2.533.45-2.662,2.514-2.7,4.691Z" transform="translate(-157.502 111.579)" fill="#ffce42" fill-rule="evenodd"/>
            <path id="Path_508" data-name="Path 508" d="M451.769,65.352a12.108,12.108,0,0,0,5.879-3.256c-1.173-1.227-2.9-3.311-4.731-2.989-2.538.45-2.667,2.514-2.7,4.691Z" transform="translate(-202.923 39.379)" fill="#ffce42" fill-rule="evenodd"/>
            <path id="Path_509" data-name="Path 509" d="M422.36,74c1.821-1.4,3.6-3.553,5.854-3.915a8.934,8.934,0,0,1,5.048.579c.732.391,2.088,1.371,2.271,2.247.337,1.6-.985,1.648-2.138,2.054a22.02,22.02,0,0,1-5.215,1.366c-1.292.124-5.117,1.692-4.266-1.554Z" transform="translate(-312.932 82.409)" fill="#ffce42" fill-rule="evenodd"/>
            <path id="Path_510" data-name="Path 510" d="M438.177,57.354a16.868,16.868,0,0,0,7.561-3.261c-1.751-1.841-4.518-3.152-6.784-2.558-2.806.732-3.063,1.232-3.108,4.266Z" transform="translate(-259.681 9.04)" fill="#ffce42" fill-rule="evenodd"/>
            <path id="Path_511" data-name="Path 511" d="M440.5,124.131a7.316,7.316,0,0,1-1.509-3.885c1.237-.648,1.835-2.138,3.028-2.989,1.638-1.168,3.558-1.094,5.5-.925,1.97.173,4.919,1.475,4.7,3.9-.207,2.267-2.717,4.2-4.562,4.86a16,16,0,0,1-5.6.589Z" transform="translate(-247.259 265.097)" fill="#ffce42" fill-rule="evenodd"/>
            <path id="Path_512" data-name="Path 512" d="M453.825,68.073a7.328,7.328,0,0,1-1.509-3.885c1.237-.648,1.836-2.133,3.029-2.984,1.638-1.168,3.557-1.1,5.5-.925,1.97.173,4.919,1.475,4.7,3.9-.208,2.266-2.717,4.2-4.563,4.86a15.988,15.988,0,0,1-5.6.589Z" transform="translate(-194.647 43.754)" fill="#ffce42" fill-rule="evenodd"/>
            <path id="Path_513" data-name="Path 513" d="M456.861,131.113c1.515-1.079,4.454-3.766,6.439-1.782,1.114,1.118.529,2.41-.044,3.519a3.571,3.571,0,0,1-2.47,2.177c-1.682.4-2.306-.871-3.776-.965-.05-.208-.1-.416-.149-.624Z" transform="translate(-176.7 313.996)" fill="#ffce42" fill-rule="evenodd"/>
            <path id="Path_514" data-name="Path 514" d="M433.273,111c2.232,2.885,5.211,5.81,7.086,1.188.732-1.816.475-1.88-.881-3.122-1.242-1.138-1.905-1.559-3.746-1.029-.044.213-.093.426-.133.643Z" transform="translate(-269.841 231.812)" fill="#ffce42" fill-rule="evenodd"/>
          </g>
          <g id="Group_84" data-name="Group 84" transform="translate(36.491 56.806)">
            <path id="Path_516" data-name="Path 516" d="M445.237,60.841a44.072,44.072,0,0,1,4.879-2.385c3.108-1.272,6.77-2.712,10.169-2.024a28.352,28.352,0,0,0,9.739.173c3.994-.564,7.977-.9,12-1.158a35.439,35.439,0,0,1,7.216.718,28.018,28.018,0,0,1,6.661,1.87c1.974.826,3.841,2.059,5.731,3.058,2.578,1.356,5.132,2.737,7.71,4.088,1.9.995,3.964,1.757,5.78,2.885a16.025,16.025,0,0,1,3.716,3.434c2.242,2.623,4.731,5.255,6.429,8.284a27.389,27.389,0,0,1,2.974,9.783c.3,2.558.144,6.092-2.994,6.681a9.744,9.744,0,0,1-3.053-.168c-.93-.119-1.856-.153-2.786-.277-1.47-.193-3.1.411-4.518.737-1.608.376-3.187.807-4.82,1.044a15.38,15.38,0,0,1-7.2-.317,35.869,35.869,0,0,1-3.805-1.489c-1.737-.836-3.4-1.846-5.2-2.553a24.155,24.155,0,0,0-4.053-1.371,23.858,23.858,0,0,0-4.716-.233,75.861,75.861,0,0,1-13.6-1.019,82.348,82.348,0,0,1-20.191-6.28,24.817,24.817,0,0,1-7.239-4.607,23.186,23.186,0,0,1-4.093-5.166c-1.569-2.707-2.741-6.394-.441-9.021a20.3,20.3,0,0,1,3.148-2.583A8.406,8.406,0,0,0,445.237,60.841Z" transform="translate(-254.036 -9.272)" fill="#fffe90" fill-rule="evenodd"/>
            <path id="Path_517" data-name="Path 517" d="M451.392,57.449a11.987,11.987,0,0,0-3.732-.777,15.924,15.924,0,0,0-3.321.242c-1.108.228-2.212.495-3.31.777a19.36,19.36,0,0,0-3.885,1.841c-.906.455-2.925,1.247-2.806,2.5.069.752,1.237,1.559,1.766,1.905a9.45,9.45,0,0,0,2.361,1.024,27.815,27.815,0,0,0,5.042,1.44,4.85,4.85,0,0,0,4.534-2.009,11.567,11.567,0,0,0,2.276-4.29C450.625,58.686,449.4,57.681,451.392,57.449Z" transform="translate(-269.504 -4.326)" fill="#fffe90" fill-rule="evenodd"/>
            <path id="Path_518" data-name="Path 518" d="M430.832,63.111a21.691,21.691,0,0,0-3.36.747c-.569.2-1.752.44-2.143,1.029-.3.436.123.831.475,1.1a5.278,5.278,0,0,0,2.8.643c2.237.183,4.389-.381,6.6-.411.955-.01,1.964-.153,2.92-.257a8.041,8.041,0,0,0,2.544-.693c.742-.346,1.321-1.079.757-1.87-.674-.96-2.252-1.059-3.286-1.178a13.217,13.217,0,0,0-5.726.233C431.455,62.79,430.421,63.329,430.832,63.111Z" transform="translate(-305.458 16.803)" fill="#fffe90" fill-rule="evenodd"/>
            <path id="Path_519" data-name="Path 519" d="M435.52,74.06c-2.637.752-4.508,1.064-6.681,2.588-1.133.8-2.6,1.534-3.2,2.86-1.134,2.539,2.237,3.271,4.053,3.588,2.633.46,5.126-.059,7.759-.411a33.975,33.975,0,0,1,3.4-.059,11.793,11.793,0,0,0,4.1-1.2c1.712-.717,3.681-1.821,3.77-3.875.079-1.757-.074-2.86-1.47-3.89a6.15,6.15,0,0,0-4.162-1.153,31.964,31.964,0,0,0-7.972.772Z" transform="translate(-304.722 58.216)" fill="#fffe90" fill-rule="evenodd"/>
            <path id="Path_520" data-name="Path 520" d="M428.219,74.706a3.094,3.094,0,0,1,2,1.618c-1.336,1.717-4.429,1.861-6.438,1.455-1.01-.2-1.807-.846-1.015-1.732.545-.614,1.593-.554,2.346-.569Z" transform="translate(-316.433 66.884)" fill="#fffe90" fill-rule="evenodd"/>
            <path id="Path_521" data-name="Path 521" d="M417.485,93.341c-.792.366-2.322.777-2.806,1.455-.173.247-.331.757-.49,1.039A3.168,3.168,0,0,0,414,99.269c1.118,1.846,3.87,2.1,5.809,2.212a33.216,33.216,0,0,0,9.645-1.252c2.653-.648,5.181-1.628,7.795-2.37a30.335,30.335,0,0,0,3.434-.93c1.821-.747,1.594-3,.3-4.182-4.3-3.895-12.04-3.593-17.172-1.984a30.8,30.8,0,0,0-4.593,2.138c-.459.228-.876.44-1.341.718C417.266,93.984,416.648,94.865,417.485,93.341Z" transform="translate(-351.488 125.858)" fill="#fffe90" fill-rule="evenodd"/>
            <path id="Path_522" data-name="Path 522" d="M476.909,98.878c-.3.237-2.187,1.425-2.381,2.2a8.479,8.479,0,0,0,.025,1.722,7.054,7.054,0,0,0,2.906,5.513,20.094,20.094,0,0,0,5.211,2.613,3.318,3.318,0,0,0,3.078.039c3.691-2.177-.842-6.8-2.6-8.586-1.024-1.034-2.44-3.86-4.285-3.5h-1.95Z" transform="translate(-110.966 162.226)" fill="#fffe90" fill-rule="evenodd"/>
            <path id="Path_523" data-name="Path 523" d="M524.844,109.115c-3.662-2.781-7.978-4.434-12.055-6.537-4.014-2.073-7.8-4.355-12.1-5.825a69.413,69.413,0,0,0-13.257-3.39,79.367,79.367,0,0,0-20.666.069c-2.786.361-5.522,1.029-8.319,1.331-1.321.143-2.514.619-3.806.841-.381.99,1.094,1.643,1.751,2.049,1.346.826,3.3,1.113,4.8,1.658,1.733.633,3.494,1.158,5.246,1.742a125.147,125.147,0,0,0,12.3,3.716c4.944,1.1,10.06,1.692,15.054,2.583,4.667.836,9.165,2.405,13.812,3.321,3.182.628,6.181,1.593,9.447,1.549,1.287-.02,2.836.262,4.033-.282C521.677,111.683,522.74,110.659,524.844,109.115Z" transform="translate(-189.558 138.019)" fill="#fffe90" fill-rule="evenodd"/>
            <path id="Path_524" data-name="Path 524" d="M474.29,95.465a23.612,23.612,0,0,0-5.151,1.549,10.267,10.267,0,0,1-2.974,1.094,20.542,20.542,0,0,1-7.774.084c-.772-.129-11.777-1.242-8.165-4.256,2.068-1.727,5.448-2.351,8.051-2.371a45.924,45.924,0,0,1,9.036.564,13.265,13.265,0,0,1,3.88,1.113c.386.2.708.213.806.668C472.083,94.267,472.014,94.673,474.29,95.465Z" transform="translate(-209.622 133.434)" fill="#fffe90" fill-rule="evenodd"/>
            <path id="Path_525" data-name="Path 525" d="M454.788,93.6c-.752.45-1.529.866-2.316,1.257.569,0,.688-.386,1.123-.594a7.847,7.847,0,0,1,2.079-.589c.737-.094,2.7.322,2.647,1.47-.1,2.163-4.627.906-5.468.391Z" transform="translate(-197.883 141.505)" fill="#fffe90" fill-rule="evenodd"/>
            <path id="Path_526" data-name="Path 526" d="M461.323,92.305c-1.979-.386-3.939-.688-5.884-1.158a28.837,28.837,0,0,0-8.229-.322,31.892,31.892,0,0,0-9.576,1.569c-.925.336-2.286.7-2.682,1.752-.97,2.623,2.939,3.865,4.7,4.375a57.278,57.278,0,0,0,12.55,1.9c1.92.119,3.825-.094,5.741.119a24.267,24.267,0,0,0,5.839.223,17.208,17.208,0,0,0,4.256-1.074c.975-.391,1.925-.51,2.212-1.574.658-2.44-1.658-4.147-3.588-5.048C464.3,91.959,461.6,90.7,461.323,92.305Z" transform="translate(-267.663 129.997)" fill="#fffe90" fill-rule="evenodd"/>
            <path id="Path_527" data-name="Path 527" d="M424.381,116.1c-.039-1.455-.207-1.321.406-2.187a15.172,15.172,0,0,1,3.113-2.954c2.336-1.772,5.592-3.924,8.715-3.415,3.266.534,4.256,4.592,2.078,6.918a19.9,19.9,0,0,1-5.191,3.627,17.737,17.737,0,0,1-5.235,2.207,4.371,4.371,0,0,1-3.9-1.143,2.568,2.568,0,0,1-.653-2.37C424,115.922,424.96,115.437,424.381,116.1Z" transform="translate(-311.824 196.228)" fill="#fffe90" fill-rule="evenodd"/>
            <path id="Path_528" data-name="Path 528" d="M493.791,91c-3.564-3.345-8.032-4.414-12.763-5.26-1.341-.243-9.18-1.658-8.175,1.589.584,1.89,3.44,2.984,4.989,3.771,2.469,1.252,4.958,2.326,7.517,3.395,5.048,2.113,10.041,4.285,15,6.6a49.08,49.08,0,0,0,5.834,2.722c.881.277,1.733.648,2.38-.178,1.277-1.608-.673-3.627-1.667-4.869a19.565,19.565,0,0,0-6.967-5.335,35.188,35.188,0,0,1-5-2.445C493.835,90.241,492.781,89.984,493.791,91Z" transform="translate(-117.757 108.411)" fill="#fffe90" fill-rule="evenodd"/>
            <path id="Path_529" data-name="Path 529" d="M481.561,91.446l.312-.074c.025-1.336,2.756-2.2,3.805-2.267a16.8,16.8,0,0,1,3.271.03,4.416,4.416,0,0,1,2.86,2.3c1.267,1.91,1.826,5.211-1.395,4.592-2.945-.564-5.978-1.658-7.691-4.187Z" transform="translate(-83.021 123.483)" fill="#fffe90" fill-rule="evenodd"/>
            <path id="Path_530" data-name="Path 530" d="M486.743,96.56a17.136,17.136,0,0,0,6.7,5.087c1.54.624,4.419.841,5.721-.317,2.3-2.044,1.054-6.037-.618-8.071-2.618-3.177-7.873-3.914-11.584-2.7-.9.3-2.114.633-2.534,1.574a3.647,3.647,0,0,0,.757,3.266Z" transform="translate(-72.297 127.296)" fill="#fffe90" fill-rule="evenodd"/>
            <path id="Path_531" data-name="Path 531" d="M490.419,95.439c-.371-.391-3.1-3.019-1.192-3.519,1.375-.361,2.444,1.02,3.33,1.742.574.47,1.876,1.039,1.079,1.9-.549.589-2.064.272-2.826.272Z" transform="translate(-55.404 134.623)" fill="#fffe90" fill-rule="evenodd"/>
            <path id="Path_532" data-name="Path 532" d="M462.258,114.682c-.342.7-.391.619-.263,1.148a4.784,4.784,0,0,0,.619,1.371,7.448,7.448,0,0,0,3.345,2.509c1.252.584,2.583,1.059,3.869,1.564,1.317.515,2.51,1.316,3.787,1.925a33.294,33.294,0,0,0,5.28,1.915,13.519,13.519,0,0,0,5.607.792c.668-.089,1.945-.361,2.187-1.118.3-.921-.569-2.049-1.277-2.509a11.177,11.177,0,0,0-1.519-.7c-.693-.312-1.351-.693-2.059-.975a38.791,38.791,0,0,0-4.355-1.658c-2.326-.624-4.929-.861-7.076-2.019-1.307-.707-2.282-1.692-3.726-2.1C465.4,114.469,463.441,114.048,462.258,114.682Z" transform="translate(-160.534 223.443)" fill="#fffe90" fill-rule="evenodd"/>
            <path id="Path_533" data-name="Path 533" d="M466.149,118.287c-.223-.48-.45-.638-.134-.931.3-.272.906-.218,1.272-.237a14.592,14.592,0,0,1,2.218-.173,5.941,5.941,0,0,1,1.326.366,10.1,10.1,0,0,1,1.935.821.742.742,0,0,1,.287,1.029c-.475.95-2.514.737-3.311.559a14.386,14.386,0,0,1-2.212-.589c-.411-.168-1.272-.322-1.564-.658Z" transform="translate(-145.021 233.615)" fill="#fffe90" fill-rule="evenodd"/>
            <path id="Path_534" data-name="Path 534" d="M470.084,117.694c-.094.366-.312.822-.154,1.183.144.337.663.718.906.98a13.018,13.018,0,0,0,3.686,2.885,16.277,16.277,0,0,0,1.762.935c.6.232,1.257.331,1.876.529s1.227.48,1.861.668a16.63,16.63,0,0,1,2.43.757,43,43,0,0,0,9.368,3.33c1.212.243,2.959.619,4.152.193.722-.252,1.43-.53,1.188-1.381a4.777,4.777,0,0,0-2.128-2.425,24.9,24.9,0,0,0-4.019-2.029c-1.761-.836-3.557-1.6-5.364-2.326-1.688-.683-3.395-1.267-5.082-1.93a40.668,40.668,0,0,0-7.978-2.4C471.139,116.417,469.98,116.432,470.084,117.694Z" transform="translate(-129.166 232.075)" fill="#fffe90" fill-rule="evenodd"/>
            <path id="Path_535" data-name="Path 535" d="M472.5,115.714c1.385-.8,2.894-1.247,4.245-.044.515.46.926.955.223,1.4-1.227.782-4.137.633-4.854-.777Z" transform="translate(-120.332 225.712)" fill="#fffe90" fill-rule="evenodd"/>
            <path id="Path_536" data-name="Path 536" d="M484.772,105.732c-.821,0-3.226-.292-4.057.619a1.381,1.381,0,0,0,.038,1.9c1.114,1.178,2.955,1.569,4.4,2.138,2.2.861,4.508,1.45,6.661,2.42,2.38,1.074,4.805,2.014,7.131,3.207,2,1.029,3.979,2.078,5.864,3.3.861.559,1.761,1.034,2.672,1.509a11.292,11.292,0,0,0,2.607,1.133c1.307.307,3.158.52,4.311-.356,2.079-1.583-.772-5.325-2-6.512a19.789,19.789,0,0,0-5.112-3.751,44.311,44.311,0,0,0-6.359-2.262c-1.791-.529-3.529-1.133-5.291-1.747a30.792,30.792,0,0,0-4.355-1.306c-1.642-.322-3.272-.569-4.933-.782C484.821,105.039,483.653,105.316,484.772,105.732Z" transform="translate(-87.786 187.192)" fill="#fffe90" fill-rule="evenodd"/>
            <path id="Path_537" data-name="Path 537" d="M485.76,105.012c.742.188,1.484.411,2.211.658.08.2.263.248.461.436a1.9,1.9,0,0,1,.49,1c.148.559.1.93-.525,1.118a3.547,3.547,0,0,1-2.855-.881c-.446-.3-1.782-1.351-.941-1.945Z" transform="translate(-72.088 186.551)" fill="#fffe90" fill-rule="evenodd"/>
            <path id="Path_538" data-name="Path 538" d="M474.925,48.817a25.673,25.673,0,0,0-4.107-1.252,19.676,19.676,0,0,1-2.227.094c-1.658.01-3.34-.114-5,.054-2.425.247-4.79,1-7.2,1.386-1.8.287-3.479.831-5.251,1.282-3.587.911-7.334,1.4-10.708,2.989-1.416.663-4.84,2.257-5.043,4.013-.148,1.277,1.188,1.341,2.247,1.48a60.4,60.4,0,0,0,8.828.45c5.067-.064,10.105-1.113,15.153-1.494,2.945-.223,5.944-.317,8.892-.411,2.876-.094,5.637-.426,8.487-.742,2.232-.247,4.478-.322,6.71-.549,2.518-.257,4.968-.95,7.463-1.366a29.147,29.147,0,0,0,9.071-2.984c1.257-.693,2.3-1.489,1.316-2.949-1.024-1.519-3.291-1.569-4.938-1.554-6.275.054-12.49.4-18.771.4C478.652,47.654,471.159,47.214,474.925,48.817Z" transform="translate(-265.355 -41.484)" fill="#fffe90" fill-rule="evenodd"/>
            <path id="Path_539" data-name="Path 539" d="M446.59,48c2.93-1.41,6.448-2.469,9.7-1.574.911.247,3.148,1.2,1.876,2.252a3.569,3.569,0,0,1-2.227.495c-1.163.015-2.38.094-3.543.01-1.974-.143-3.87-.945-5.81-1.183Z" transform="translate(-221.109 -46.094)" fill="#fffe90" fill-rule="evenodd"/>
            <path id="Path_540" data-name="Path 540" d="M450.555,48.8c1.286-.257,3.34-.92,4.785-.713a9.672,9.672,0,0,1,1.811.549,8.606,8.606,0,0,1,3.113,1.7c1.509,1.514.509,2.133-1.01,2.727a11.522,11.522,0,0,1-5.685.3,7.83,7.83,0,0,1-2.341-.767c-.351-.208-1.866-1.836-.673-1.861Z" transform="translate(-207.23 -38.364)" fill="#fffe90" fill-rule="evenodd"/>
            <path id="Path_541" data-name="Path 541" d="M490.035,51.247c-2.974.525-5.676.95-8.561,1.747a32.2,32.2,0,0,1-3.865.916c-1.45.208-2.92-.035-4.375.144a27.686,27.686,0,0,1-3.79.312,14.044,14.044,0,0,0-2.5.02c-.827.139-2.039.426-1.733,1.5.426,1.455,3.845,2.351,5.033,2.751,2.108.723,4.3,1.47,6.433,2.083a40.817,40.817,0,0,0,6.676.916c1,.109,1.994.04,2.995.119,1.252.1,2.478.411,3.731.559,3.667.44,18.216,2.227,14.337-5.533a9.511,9.511,0,0,0-3.043-3.627,15.566,15.566,0,0,0-10.244-2.242C488.111,51.311,485.483,52.593,490.035,51.247Z" transform="translate(-147.762 -27.613)" fill="#fffe90" fill-rule="evenodd"/>
            <path id="Path_542" data-name="Path 542" d="M484.464,58.578c-.044,2.954,1.638,4.939,3.593,7.091,2.36,2.6,4.3,4.627,7.69,5.825,1.5.53,3.751,1.376,4.949-.287,1.093-1.519-.03-4.246-1.079-5.473-1.168-1.366-3.459-2.291-5.058-3.083-1.836-.911-3.34-2.083-5.092-3.1a23.118,23.118,0,0,0-4.43-2.341C483.6,56.732,483.361,57.6,484.464,58.578Z" transform="translate(-74.285 -2.743)" fill="#fffe90" fill-rule="evenodd"/>
            <path id="Path_543" data-name="Path 543" d="M421.435,54.87c-2.875,1.584-6.215,4.117-6.581,7.7-.3,2.885,2.376,3.934,4.81,4.266,1.855.252,3.706-.208,5.557-.317a36.469,36.469,0,0,0,4.305-.693c2.969-.53,5.681-1.584,7.433-4.2,1.252-1.871,1.816-4.637.341-6.582a9.96,9.96,0,0,0-6.814-3.306,17.258,17.258,0,0,0-6.829,1.193,7.109,7.109,0,0,0-2.682,1.524C420.411,54.94,418.61,55.855,421.435,54.87Z" transform="translate(-346.513 -23.868)" fill="#fffe90" fill-rule="evenodd"/>
            <path id="Path_544" data-name="Path 544" d="M418.7,51.078c-.425.9-1.257,2.014-.534,2.925.7.9,2.262.559,3.242.574,1.568.02,5.518-.663,5.478-2.92-.059-3.088-8.616-2.029-8.571.2Z" transform="translate(-334.465 -31.715)" fill="#fffe90" fill-rule="evenodd"/>
            <path id="Path_545" data-name="Path 545" d="M407.615,68.912a31.125,31.125,0,0,1,7.373-5.424A64.645,64.645,0,0,1,429.9,57.3c3.563-.93,8.428-1.613,11.872-.02,1.331.614,3.419,1.678,3.113,3.429-.263,1.5-1.96,2.717-3.088,3.553a26.231,26.231,0,0,1-5.671,2.969c-1.7.708-3.459,1.41-5.211,1.969a59.157,59.157,0,0,0-5.745,2.529c-2.331,1.029-4.553,2.162-6.78,3.395a86.766,86.766,0,0,0-7.621,4.191c-1.44,1-3.078,2.489-4.721,3.123a8.9,8.9,0,0,1-2.692.8,2.855,2.855,0,0,1-1.975-2.346,9.28,9.28,0,0,1,1.362-5.726C404.982,71.173,408.516,66.081,407.615,68.912Z" transform="translate(-399.82 -5.704)" fill="#fffe90" fill-rule="evenodd"/>
            <path id="Path_546" data-name="Path 546" d="M406.326,63.9a13.509,13.509,0,0,0-4.207,3.489c-.52.747-1.371,2.519-.713,3.444.921,1.282,3.821.158,4.955-.094a22.216,22.216,0,0,0,3.008-.614c.95-.356,1.8-.851,2.781-1.188,1.267-.435,2.578-.9,3.034-2.326.445-1.4-.431-2.138-1.376-3.024a5.7,5.7,0,0,0-3.5-1.267c-1.4-.079-4.345.346-4.76,1.965Z" transform="translate(-400.47 17.937)" fill="#fffe90" fill-rule="evenodd"/>
            <path id="Path_547" data-name="Path 547" d="M418.66,64.906c.673.906,1.094,1.574,2.292,1.589a12.247,12.247,0,0,0,2.671-.5c.966-.247,3.153-1.282,2.49-2.643-.347-.727-1.628-.777-2.316-.787-1.04-.02-1.91-.317-2.92-.4-1.128-.089-3.627.633-3.77,1.97Z" transform="translate(-337.527 17.314)" fill="#fffe90" fill-rule="evenodd"/>
            <path id="Path_548" data-name="Path 548" d="M411.461,79.27c2.578-1.96,5.77-4.058,9.145-3.3.618.139,1.43.134,1.7.812.3.757-.243,1.024-.747,1.326a9.28,9.28,0,0,1-3.192.861c-.836.168-1.612.47-2.42.658-.925.218-1.663-.49-2.539-.356Z" transform="translate(-359.821 71.247)" fill="#fffe90" fill-rule="evenodd"/>
            <path id="Path_549" data-name="Path 549" d="M402.615,121.493c3.127-4.567,8.165-9.333,13.268-11.619,2.613-1.173,8.254-1.861,10.08.9,1.593,2.4.252,5.963-.787,8.393-.985,2.311-2.7,4.117-3.979,6.245a14.721,14.721,0,0,1-2.42,3.662c-3.622,3.276-9.7,6.487-14.643,4.285-2.514-1.118-3.093-3.662-3.107-6.221-.025-3.588,1.42-5.513,3.914-7.972Z" transform="translate(-401.026 201.696)" fill="#fffe90" fill-rule="evenodd"/>
            <path id="Path_550" data-name="Path 550" d="M409.45,111.617a4.707,4.707,0,0,0-1.509,3.063c3.627,3.1,10.184.836,10.837-3.815.3-2.128-.782-2.9-2.351-3.9-1.88-1.193-3.2-.242-4.652,1.549Z" transform="translate(-373.721 192.17)" fill="#fffe90" fill-rule="evenodd"/>
          </g>
        </g>
      </g>
    </g>
    <g id="_6290" data-name="6290" transform="translate(-1399.541 -878.183)">
      <g id="Group_54" data-name="Group 54" transform="translate(2197.836 1115.183)">
        <path id="Path_297" data-name="Path 297" d="M2323.842,1483c-30.08-9.985-67.644-3.627-85.782,28.594-10.594,18.818-9,38.6.854,57.4,4.14,7.9,22.192,22.193,45.239,18.565l16.431-3.082c6.283-.921,12.66-.7,18.564-3.106,13.323-5.441,33.006-19.758,37.344-34.142C2364.6,1520.34,2348.126,1491.061,2323.842,1483Z" transform="translate(-2212.702 -1279.145)" fill="#cceaff" opacity="0.3"/>
        <path id="Path_298" data-name="Path 298" d="M2450.663,1629.73c-5.754-1.147-13.481,9.1-18.481,8.883-.842-.036-2.795.16-1.837-1.517,7.556-4.973,6.548-14.132,17.759-14.614,1.724.241,2.841-1.994,0-2.352-4.632-.045-8.231.741-11.584,4.225-3.026,3.145-4.453,9.344-8.674,10.319-.481-3.4.63-8.049-.615-9.874-1.2-1.757-2.67-1.965-4,4.2-1.594,7.408-.3,8.693-7.7,12.644a89.645,89.645,0,0,1-32.629,10.4l-7.041,15.363c8.094-8.948,26.814-17.244,39.084-20.449,6.635-1.733,14.392-1.757,20.666-4.908,4.853-2.437,9.949-10.157,15.05-10.583C2452.54,1631.025,2452.062,1629.669,2450.663,1629.73Z" transform="translate(-2278.143 -1342.958)" fill="#4ed86c"/>
        <path id="Path_299" data-name="Path 299" d="M2257.529,1744.037c.182-5.864,8.327-12.026,12.825-16,.632-.558.786-2.687-1.063-2.132-7.845,4.111-15.246,3.189-18.246,14-.153,1.733-2.583,2.318-2.292-.531,1-4.523,2.58-7.851,6.732-10.332a62.838,62.838,0,0,1,12.01-6.12c-3.2-1.234-7.983-1.2-9.48-2.827-1.441-1.563.16-2.979,6.275-1.46,5.981,1.485,7.825,1.423,11.381-1.992,8.36-8.026,15.206-22.882,18.885-33.58l16.556-3.392c-10.543,5.866-21.441,22.756-27.333,33.985a87.153,87.153,0,0,1-10.954,16.075c-3.47,4.178-12.042,9.823-13.609,14.7C2258.368,1746.161,2257.15,1745.387,2257.529,1744.037Z" transform="translate(-2220.793 -1369.818)" fill="#4ed86c"/>
        <path id="Path_300" data-name="Path 300" d="M2357.212,1766.436c-1.5-5.3-.9-12.842-.606-18.6.517-10.235,4.249-48.076,3.841-55.694-.522-9.75-.325-19.289-1.295-28.771-.951-9.3-1.708-18.159-2.546-27.559-.543-6.093.8-24.025-1.921-27.526l-31.367,15.363c2.763,28.256-7.736,56.218-7.157,84.945-.259,12.925,1.406,25.378,2.9,38.46.9,7.868.393,15.954,1.891,23.685,1.464,7.558,7.531,10.094,15.313,9.508,2.813-1.773-6.857-6.987-8.29-12.035-1.5-5.3-.9-12.842-.607-18.6a159.6,159.6,0,0,1,2.643-19.282,26.143,26.143,0,0,0,16.675.817c.491,4.661,1.061,9.352,1.607,14.126.9,7.867.393,15.953,1.89,23.685,1.465,7.557,7.532,10.094,15.313,9.507C2369.81,1777.195,2358.64,1771.486,2357.212,1766.436Z" transform="translate(-2251.199 -1337.617)" fill="#4ed86c"/>
        <path id="Path_301" data-name="Path 301" d="M2314.03,1517.9c-22.008,3.176-45.709,25.179-44.895,46.429.794,20.717,10.858,32.936,30.065,32.789,8.1,1.574,17.163.667,25.768-2.21,19.811-6.623,38.683-21.486,36.823-43.528C2359.864,1528.58,2341.629,1513.919,2314.03,1517.9Z" transform="translate(-2229.989 -1296.552)" fill="#4ed86c"/>
        <g transform="matrix(1, 0, 0, 1, -26.8, -90.01)" filter="url(#Path_302)">
          <path id="Path_302-2" data-name="Path 302" d="M3003.57,1314.479s12.182-10.279,17.892-9.136,33.119,51.011,31.216,54.056-20.177,12.563-20.177,12.563Z" transform="translate(-2534.5 -1110.91)" fill="#1b2b3e"/>
        </g>
        <path id="Path_303" data-name="Path 303" d="M2908.58,1673.35c5.187,18.182,23.033,29.245,38.817,36.332,17.564,7.886,38.646,19.386,57.1,23.222-.57-9.7,6.486-24.551,6.2-34.331-15.33-5.627-28.444-19.876-37.614-32.648-4.822-6.717-9.906-13.289-16.545-18.24a42.372,42.372,0,0,0-14.877-7.608c-5.861-1.611-12.874-.117-18.254-2.2-.685.3-.569.719-1.129,1.212Z" transform="translate(-2518.444 -1350.965)" fill="#223246"/>
        <path id="Path_304" data-name="Path 304" d="M2927.085,1681.851c-9.583-7.915-18.377-11.746-25.759-22.275-4.323-6.165-13.511-11.561-20.478-9.026-2.747,15.286,2.065,27.877,12.114,42.182,4.06,5.78,18.6,14.191,36.254,19.711C2938.146,1703.346,2938,1690.869,2927.085,1681.851Z" transform="translate(-2505.59 -1356.392)" fill="#19283a"/>
        <path id="Path_305" data-name="Path 305" d="M2836.4,1291.61c0,1.587,33.869,21.22,51.3,46.012,73.238,104.159,33.839,158.4,33.839,158.4s-28.551-9.787-76.679-10.845-40.945-6.285-40.945-6.285-13.132-9.543-27.281-62.469c-14.279-53.417-12.693-101.017-12.693-101.017Z" transform="translate(-2453.177 -1194.767)" fill="#19283a"/>
        <path id="Path_306" data-name="Path 306" d="M2396.34,1463.033l14.634-35.465,2.13-.148-11.565,36.535Z" transform="translate(-2287.378 -1256.03)" fill="#51535e"/>
        <circle id="Ellipse_122" data-name="Ellipse 122" cx="2.774" cy="2.774" r="2.774" transform="translate(121.326 169.923)" fill="#51535e"/>
        <path id="Path_307" data-name="Path 307" d="M2230.57,1511.035l-29.971-23.949.456-2.086,31.853,21.3Z" transform="translate(-2199.082 -1282.003)" fill="#51535e"/>
        <circle id="Ellipse_123" data-name="Ellipse 123" cx="2.774" cy="2.774" r="2.774" transform="translate(0 202.144)" fill="#51535e"/>
        <path id="Path_308" data-name="Path 308" d="M2720.032,1248.8s-32.263,3.1-50.752-34.921c-19.3-39.691-1.91-67.94,40.14-89.048,39.922-20.04,70.748-7.25,86.3,23.6,18.5,36.7-2.315,64.7-2.315,64.7Z" transform="translate(-2406.958 -1115.183)" fill="#223246"/>
        <path id="Path_309" data-name="Path 309" d="M2731.152,1252.407c6.717-5.253-16-46.522-25.275-50.62-6.029-2.664-28.1,10.584-44.874,21.553.238,8.9,2.771,18.513,7.826,28.909,6.252,12.859,13.47,21.025,21.092,26.188a81.66,81.66,0,0,1,8.517-6.15C2712.928,1262.594,2724.433,1257.66,2731.152,1252.407Z" transform="translate(-2406.765 -1154.093)" fill="#19283a"/>
        <g transform="matrix(1, 0, 0, 1, -26.8, -90.01)" filter="url(#Path_310)">
          <path id="Path_310-2" data-name="Path 310" d="M2705.872,1201.785c-6.029-2.664-28.1,10.584-44.874,21.553.038,1.442.144,2.9.3,4.384,16.695-10.885,38.3-23.777,44.252-21.146,7.647,3.378,24.424,32.015,26.32,44.913C2735.859,1243.536,2714.738,1205.7,2705.872,1201.785Z" transform="translate(-2379.97 -1064.08)" fill="#1b2b3e"/>
        </g>
        <ellipse id="Ellipse_124" data-name="Ellipse 124" cx="23.524" cy="26.799" rx="23.524" ry="26.799" transform="matrix(0.899, -0.437, 0.437, 0.899, 318.127, 35.748)" fill="#1b2b3e"/>
        <g transform="matrix(1, 0, 0, 1, -26.8, -90.01)" filter="url(#Path_311)">
          <path id="Path_311-2" data-name="Path 311" d="M2817.294,1171.317s-4.4,2.874-6.083,5.766c-2.106,3.254-3.57,7.177-2.812,9.823a9.771,9.771,0,0,0,2.164,6.19c2.367,2.814,6.674,3.989,9.233,1.323,3.059-3.187.438-7.878,1.6-11.421.984-3,5.509-5.552,5.178-8.448C2826.043,1169.879,2820.653,1170.071,2817.294,1171.317Z" transform="translate(-2446.37 -1050.15)" fill="#19283a" opacity="0.3"/>
        </g>
        <g transform="matrix(1, 0, 0, 1, -26.8, -90.01)" filter="url(#Path_312)">
          <path id="Path_312-2" data-name="Path 312" d="M2754.973,1332.6c-2.806-4.248.187-6.508.187-6.508s7.191-7.136,38.4-21.639,44.451-18.031,44.451-18.031,5.659.872,5.763,5.494c.125,5.526-3.942,5.335-3.942,5.335a210.626,210.626,0,0,0-39.6,14.025c-20.052,9.611-39.391,23.268-39.391,23.268S2757.921,1337.07,2754.973,1332.6Z" transform="translate(-2421.82 -1102.42)" fill="#1b2b3e"/>
        </g>
        <path id="Path_313" data-name="Path 313" d="M3070.24,1748.449c5.571,2.236,25.032,5.034,25.444,16.044.068,1.831-13.225,24.916-25.555,38.462-17.617,19.355-25.506,20.176-25.506,20.176-8.376-9.137-1.2-46.388-1.2-46.388Z" transform="translate(-2577.979 -1400.842)" fill="#19283a"/>
        <g transform="matrix(1, 0, 0, 1, -26.8, -90.01)" filter="url(#Path_314)">
          <path id="Path_314-2" data-name="Path 314" d="M2918.483,1544.158c-20.852-1.455-37.686,2.713-59.955,12.562-19.2,8.489-35.8,21.286-39.4,37.686l6.851,6.28c11.368,15.765,28.563,22.326,47.4,24.536,18.264,2.144,38.881,3.174,56.556-2.966,13.082-4.545,21.668-13.005,24.65-30.833C2958.844,1565.928,2943.03,1545.871,2918.483,1544.158Z" transform="translate(-2451.3 -1218.55)" fill="#19283a"/>
        </g>
        <path id="Path_315" data-name="Path 315" d="M2908.343,1577.478c-7.959-15.477-42.448-16.494-57.67-11.42-89.074,29.692-105.316,48.03-101.637,88.5,1.713,18.843,69.569,80.918,78.226,80.51,8.573-.4,23.982-1.713,33.118-11.42-13.7-13.7-40.541-40.54-42.254-56.528-1.9-17.706,9.186-16.806,25.7-21.7,15.417-4.568,25.876-5.969,40.54-9.707C2913.486,1628.3,2917.6,1595.477,2908.343,1577.478Z" transform="translate(-2446.262 -1317.334)" fill="#223246"/>
        <path id="Path_316" data-name="Path 316" d="M2781.854,1702.1c-4.364-11.638-10.079-19.343-11.231-32.149-.675-7.5-5.952-16.756-13.254-18.031-10,11.883-17.58,25.01-11.489,43.664,3.41,10.444,11.466,19.038,24.021,32.623C2782.172,1724.772,2786.822,1715.358,2781.854,1702.1Z" transform="translate(-2444.068 -1357.3)" fill="#19283a"/>
        <path id="Path_317" data-name="Path 317" d="M2887.931,1855.41c1.342,4.9,12.562,25.7.572,30.263-1.712.652-23.49,1.127-45.734,2.329-27.42,1.482-32.006-1.871-32.006-1.871-7.823-3.615,27.873-29.241,27.873-29.241Z" transform="translate(-2473.815 -1449.091)" fill="#19283a"/>
        <g transform="matrix(1, 0, 0, 1, -26.8, -90.01)" filter="url(#Path_318)">
          <path id="Path_318-2" data-name="Path 318" d="M2959.034,1312.144c-5.475,3.79-6.091,14.846-6.091,14.846L3007,1421.018s8.356,7.192,17.511,3.046c20.176-9.137,14.084-21.7,14.084-21.7l-49.488-89.84S2973.882,1301.863,2959.034,1312.144Z" transform="translate(-2511.66 -1112)" fill="#1b2b3e"/>
        </g>
        <g transform="matrix(1, 0, 0, 1, -26.8, -90.01)" filter="url(#Path_319)">
          <path id="Path_319-2" data-name="Path 319" d="M2999.626,1333.933c-1.012-10.81-11.807-22.391-22.288-15.606-3.4,1.538-6.483,4.331-6.938,7.231-.625,3.984,4.2,13.153,7.451,15.474,1.674-2.515.576-5.674,2.733-8.242a7.4,7.4,0,0,1,9.061-1.437c2.387,1.5,2.535,4.657,4.633,6.386C2997.749,1340.6,3000,1337.929,2999.626,1333.933Z" transform="translate(-2519.51 -1115.9)" fill="#0a1825" opacity="0.3"/>
        </g>
        <g transform="matrix(1, 0, 0, 1, -26.8, -90.01)" filter="url(#Path_320)">
          <path id="Path_320-2" data-name="Path 320" d="M2850.4,1488.818s39.21,8.375,43.778,7.233,55.2-26.267,55.2-26.267l6.852,11.04-59.386,25.125c-10.279,3.046-51.392-9.518-51.392-9.518Z" transform="translate(-2463.17 -1185.13)" fill="#1b2b3e"/>
        </g>
        <g transform="matrix(1, 0, 0, 1, -26.8, -90.01)" filter="url(#Path_321)">
          <path id="Path_321-2" data-name="Path 321" d="M2885.015,1334.718s-32.357-5.71-49.869.762c-37.159,13.733-36.165,60.909-36.165,60.909l11.421-6.091s-2.334-34.786,24.745-44.159c29.693-10.278,60.529,3.046,60.529,3.046l-10.66-14.466Z" transform="translate(-2442.21 -1123.15)" fill="#1b2b3e"/>
        </g>
        <g id="Group_53" data-name="Group 53" transform="translate(244.749 140.783)">
          <path id="Path_322" data-name="Path 322" d="M2771.838,1371.66c-13.717.028-27.991,4.025-49.535,40.7-6.909,11.761-17.752,21.158-28.747,29a75.076,75.076,0,0,1-45.066,14.263c-8.7,0-.974,29.179,6.852,28.52,11.1-.935,22.115-1.159,33.134-3.256,25.824-4.912,50.306-15.183,74.228-25.835,20.007-8.909,38.787-24.227,40.97-47.395C2805.623,1386.942,2792.273,1371.616,2771.838,1371.66Z" transform="translate(-2644.137 -1371.66)" fill="#223246"/>
          <g transform="matrix(1, 0, 0, 1, -271.54, -230.79)" filter="url(#Path_323)">
            <path id="Path_323-2" data-name="Path 323" d="M2865.253,1387.066a43.461,43.461,0,0,0-18.4-12.259,35.413,35.413,0,0,0-8.773,4.317,29.906,29.906,0,0,1,6.706,1.755c13.776,5.508,22.15,13.08,28.646,26.649,3.026,6.321,4.771,15.585,3.342,22.46-1.158,5.567-.809,6.4-3.336,11.7a43.388,43.388,0,0,0,7.382-7.838C2884.13,1415.033,2875.024,1398.077,2865.253,1387.066Z" transform="translate(-2459.85 -1142.29)" fill="#1b2b3e"/>
          </g>
          <g transform="matrix(1, 0, 0, 1, -271.54, -230.79)" filter="url(#Path_324)">
            <path id="Path_324-2" data-name="Path 324" d="M2796.256,1500.4q3.786-1.5,7.544-3.068a66.7,66.7,0,0,0,.7-7.388c.3-6.146.3-12.635-1.121-18.292-2.443-9.722-6.957-21.46-18.293-24.257a22.969,22.969,0,0,0-2.884-.422,66.419,66.419,0,0,1-3.9,5.74,17.308,17.308,0,0,1,7.925,2.971c6.361,4.233,9.337,11.075,11.124,18.272a44.075,44.075,0,0,1,.667,19.034C2797.821,1494.036,2796.848,1497.258,2796.256,1500.4Z" transform="translate(-2432.88 -1174.84)" fill="#1b2b3e"/>
          </g>
          <g transform="matrix(1, 0, 0, 1, -271.54, -230.79)" filter="url(#Path_325)">
            <path id="Path_325-2" data-name="Path 325" d="M2841.776,1468.459a12.226,12.226,0,0,0,.542-2.207c1.109-6.081.363-12.68-1.059-18.357-2.724-10.877-6.819-22.659-16.168-30.275-4.2-3.424-7.928-6.884-13.145-8.172-1-.246-2.342-.433-3.824-.653-1.07,1.432-2.272,2.923-3.38,4.532,11.791,2.083,21.533,11.65,26.26,22.47a59.208,59.208,0,0,1,4.842,17.512c.675,6.079-.318,12.868-.921,18.491A66.6,66.6,0,0,0,2841.776,1468.459Z" transform="translate(-2444.81 -1157.62)" fill="#1b2b3e"/>
          </g>
          <g transform="matrix(1, 0, 0, 1, -271.54, -230.79)" filter="url(#Path_326)">
            <path id="Path_326-2" data-name="Path 326" d="M2707.864,1528.633a63.592,63.592,0,0,0,7.153-15.19c2.932-8.917,4.14-18.268-5.852-23.109a25.648,25.648,0,0,0-8.416-2.17c-18.553,15.107-35.014,19.761-53.174,19.763-8.7,0-1.052,30,6.774,29.34,11.1-.935,22.115-1.159,33.134-3.256C2694.284,1532.717,2701.239,1530.577,2707.864,1528.633Z" transform="translate(-2372.17 -1193.42)" fill="#19283a"/>
          </g>
        </g>
        <g transform="matrix(1, 0, 0, 1, -26.8, -90.01)" filter="url(#Path_327)">
          <path id="Path_327-2" data-name="Path 327" d="M2875.27,1527.536l-1.142-9.9-73.123,25.763s1.71,4.943,2.351,6.6c.606,1.573,2.612,6.313,2.612,6.313Z" transform="translate(-2443.12 -1206.72)" fill="#1b2b3e"/>
        </g>
        <ellipse id="Ellipse_125" data-name="Ellipse 125" cx="7.233" cy="11.611" rx="7.233" ry="11.611" transform="translate(379.606 401.009) rotate(-24.405)" fill="#0a1825"/>
        <ellipse id="Ellipse_126" data-name="Ellipse 126" cx="7.788" cy="11.61" rx="7.788" ry="11.61" transform="matrix(0.656, -0.754, 0.754, 0.656, 464.564, 357.748)" fill="#0a1825"/>
        <path id="Path_328" data-name="Path 328" d="M2580.192,1538.905a22.794,22.794,0,0,1,3.564-.176c-1.9,2.833-7.366,2.258-10.131,4.275a4.839,4.839,0,0,0,.788,8.407c5.793,2.733,16.208,2.253,21.606.7,8.073-2.319,16.179-4.724,24.25-6.684-.238-.452-.036-.907-.168-1.3l-7.439-29.286c-4.14-.149-7.2-1.5-11.071-3.879-2.827-1.733-4.7-5.03-7.223-7.112-3.251-2.685-6.794-.341-6.369,3.481.4,3.6,3.168,6.309,3.934,9.658-3.626-.742-7.3-.846-10.97-1.572-3.4-.672-7.443-1.685-10.487-.015-3.463,1.9-3.691,6.278-.488,8.79,2.342,1.837,6.228,1.574,9,1.982a30.653,30.653,0,0,1,3.744.861c-1.5,2.184-7.6.787-10.017.409-3.042-.475-7.885-.649-9.064,2.857C2560.207,1540.546,2575.032,1539.388,2580.192,1538.905Z" transform="translate(-2362.618 -1289.987)" fill="#223246"/>
        <g transform="matrix(1, 0, 0, 1, -26.8, -90.01)" filter="url(#Path_329)">
          <path id="Path_329-2" data-name="Path 329" d="M2663.605,1551.38l-8.583-31.684s-2.2-4.185-5.934-3.076-4.277,3.9-4.277,3.9l8.212,32.451s.981,4.906,5.647,3.519C2665.647,1554.422,2663.605,1551.38,2663.605,1551.38Z" transform="translate(-2372.67 -1206.17)" fill="#1b2b3e"/>
        </g>
        <g transform="matrix(1, 0, 0, 1, -26.8, -90.01)" filter="url(#Path_330)">
          <path id="Path_330-2" data-name="Path 330" d="M2689.622,1270.326c-1.719-4.59-3.671-8.042-3.425-12.943.165-3.281,1.483-9.515-1.714-11.934-3.5-2.648-8.257,3.364-8.833,6.351a17.7,17.7,0,0,0,.292,7.506c.266,3.24,1.755,6.68,2.881,9.5,1.3,3.247,2.876,9.463,6.922,9.9C2691.253,1279.3,2690.934,1273.839,2689.622,1270.326Z" transform="translate(-2386.45 -1083.64)" fill="#142333" opacity="0.3"/>
        </g>
        <path id="Path_331" data-name="Path 331" d="M2346.345,1578.391s-3.414-9.389-16.5-10.243c-13.029-.85-28.167,7.113-24.469,14.511s15.3,7.858,25.323,5.69C2341.224,1586.07,2346.345,1582.942,2346.345,1578.391Z" transform="translate(-2246.09 -1319.482)" fill="#5e73dd"/>
        <path id="Path_332" data-name="Path 332" d="M2408.908,1541.043c-1.669-3.741-5.986-7.349-10.027-6.188-5.016,1.439-4.691,6.469-5.131,10.8-.228,2.239-.617,7.214.551,10.278.316,2.376,1.533,4.076,4.571,3.949,3.781-.158,6.092-4.182,7.611-7.184C2408.129,1549.452,2410.445,1544.49,2408.908,1541.043Z" transform="translate(-2286.098 -1304.392)" fill="#5e73dd"/>
        <path id="Path_333" data-name="Path 333" d="M2330.513,1573.372a12.25,12.25,0,0,0-5.2,1.2c-3.313.959-7.174,3.7-7.033,6.764a4.193,4.193,0,0,0,4.551,3.7c2.563-.257,3.435-3.125,5.122-4.773C2329.964,1578.3,2338.264,1573.86,2330.513,1573.372Z" transform="translate(-2252.165 -1321.862)" fill="#e3f3fe" opacity="0.3"/>
        <path id="Path_334" data-name="Path 334" d="M2401.935,1539.781a2.75,2.75,0,0,0-.867,1.558c-1.946,2.809-2.132,10.17-.042,11.486,2.057-1.144,1.793-3.513,2.338-5.433.5-1.752,2.245-3.924,2.22-5.683C2405.558,1539.688,2403.906,1538.162,2401.935,1539.781Z" transform="translate(-2288.819 -1306.408)" fill="#e3f3fe" opacity="0.3"/>
        <path id="Path_335" data-name="Path 335" d="M2359.344,1609.5s17.839-.757,28.207-9.913c7.946-7.017,11.519-17.488,11.519-17.488l.994-.058s-4.282,12.078-11.87,18.791c-11.187,9.9-29.075,9.678-29.075,9.678Z" transform="translate(-2270.588 -1325.779)" fill="#263346"/>
        <path id="Path_336" data-name="Path 336" d="M2325.1,1671.964s-4.268,2.134-3.414,4.481a4.345,4.345,0,0,0,2.987,2.775l36.063-7.042s2.987-3.2,2.347-4.7-2.988-1.707-2.988-1.707Z" transform="translate(-2253.653 -1363.549)" fill="#1b2b3e"/>
        <path id="Path_337" data-name="Path 337" d="M2289.738,1516.488c-7.483-6.536-19.437,1.755-24.325,8.725-5.863,5.587-9.841,13.515-9.356,21.091.337,5.267,2.956,12.012,9.021,13.342,7.133,1.564,10.945-7.04,12.7-12.007,1.149-3.253,1.559-6.805,2.879-9.978a48.369,48.369,0,0,1,5.691-9.434C2288.624,1525.089,2293.9,1520.127,2289.738,1516.488Z" transform="translate(-2224.08 -1295.135)" fill="#e3f3fe" opacity="0.3"/>
        <path id="Path_338" data-name="Path 338" d="M2402.764,1480.509c-.443-1.124-3.61-2.4-4.88-1.855-2.508-.725-3.648,1.452-4.548,3.672-.965,2.38.067,4.144,2.312,5.193,1.79.835,4.547,1.044,5.833-.747C2402.292,1485.646,2403.319,1481.914,2402.764,1480.509Z" transform="translate(-2285.861 -1279.076)" fill="#51535e"/>
        <path id="Path_339" data-name="Path 339" d="M2247.768,1515.4c-1.2.18-3.143,2.984-2.9,4.342-1.267,2.283.6,3.88,2.564,5.253,2.1,1.472,4.055.861,5.577-1.093,1.215-1.558,2.034-4.2.575-5.852C2252.669,1517.013,2249.261,1515.179,2247.768,1515.4Z" transform="translate(-2218.865 -1295.71)" fill="#51535e"/>
        <path id="Path_340" data-name="Path 340" d="M2251.657,1525.583c-.388-.864-3.119-3.02-4.107-3.015-1.237.007-1.417.473-1.162,1.065C2244.687,1525.983,2253.414,1529.491,2251.657,1525.583Z" transform="translate(-2219.637 -1298.95)" fill="#e3f3fe" opacity="0.3"/>
        <path id="Path_341" data-name="Path 341" d="M2399.353,1482.085a1.315,1.315,0,0,0-1.73-.6c-1.083.2-1.332,2.208-1.537,3.168-.182.851-.58,1.517.246,2.158,1.054.819,1.452.01,1.911-.6C2398.991,1485.214,2400.116,1483.336,2399.353,1482.085Z" transform="translate(-2287.148 -1280.362)" fill="#e3f3fe" opacity="0.3"/>
      </g>
    </g>
    <g id="cloud_1_" data-name="cloud (1)" transform="translate(923.567 584.451)">
      <g transform="matrix(1, 0, 0, 1, -152.07, -437.46)" filter="url(#Path_54)">
        <path id="Path_54-5" data-name="Path 54" d="M31.368,155.276a36.624,36.624,0,0,1,55.4-25.511,48.8,48.8,0,0,1,90.682,25.076c0,.167,0,.34-.006.507,17.308,2.915,30.939,18.005,30.939,36.124,0,20.2-16.838,36.631-37.038,36.631H37.038C16.838,228.1,0,211.671,0,191.471,0,173.2,13.851,158.013,31.368,155.276Z" transform="translate(152.07 331.46)" fill="#fff"/>
      </g>
    </g>
    <g id="cloud_1_2" data-name="cloud (1)" transform="translate(785 616.959)">
      <g transform="matrix(1, 0, 0, 1, -13.5, -469.97)" filter="url(#Path_54-2)">
        <path id="Path_54-6" data-name="Path 54" d="M34.935,160.881a40.79,40.79,0,0,1,61.707-28.413,54.346,54.346,0,0,1,101,27.928c0,.186,0,.379-.007.564,19.277,3.247,34.458,20.053,34.458,40.233,0,22.5-18.754,40.8-41.25,40.8H41.25c-22.5,0-41.25-18.3-41.25-40.8C0,180.841,15.427,163.929,34.935,160.881Z" transform="translate(13.5 363.97)" fill="#fff"/>
      </g>
    </g>
    <g id="cloud_1_3" data-name="cloud (1)" transform="translate(1083.91 626.258)">
      <g transform="matrix(1, 0, 0, 1, -312.41, -479.27)" filter="url(#Path_54-3)">
        <path id="Path_54-7" data-name="Path 54" d="M34.935,160.881a40.79,40.79,0,0,1,61.707-28.413,54.346,54.346,0,0,1,101,27.928c0,.186,0,.379-.007.564,19.277,3.247,34.458,20.053,34.458,40.233,0,22.5-18.754,40.8-41.25,40.8H41.25c-22.5,0-41.25-18.3-41.25-40.8C0,180.841,15.427,163.929,34.935,160.881Z" transform="translate(312.41 373.27)" fill="#fff"/>
      </g>
    </g>
    <g id="cloud_1_4" data-name="cloud (1)" transform="translate(911.716 622.551)">
      <g transform="matrix(1, 0, 0, 1, -140.22, -475.56)" filter="url(#Path_54-4)">
        <path id="Path_54-8" data-name="Path 54" d="M34.935,160.881a40.79,40.79,0,0,1,61.707-28.413,54.346,54.346,0,0,1,101,27.928c0,.186,0,.379-.007.564,19.277,3.247,34.458,20.053,34.458,40.233,0,22.5-18.754,40.8-41.25,40.8H41.25c-22.5,0-41.25-18.3-41.25-40.8C0,180.841,15.427,163.929,34.935,160.881Z" transform="translate(140.22 369.56)" fill="#fff"/>
      </g>
    </g>
  </g>
</svg>
