<svg xmlns="http://www.w3.org/2000/svg" xmlns:xlink="http://www.w3.org/1999/xlink" width="364.556" height="457.726" viewBox="0 0 364.556 457.726">
  <defs>
    <filter id="Path_254" x="139.928" y="96.859" width="34.435" height="37.668" filterUnits="userSpaceOnUse">
      <feOffset dy="3" input="SourceAlpha"/>
      <feGaussianBlur stdDeviation="3" result="blur"/>
      <feFlood flood-opacity="0.161"/>
      <feComposite operator="in" in2="blur"/>
      <feComposite in="SourceGraphic"/>
    </filter>
    <filter id="Path_255" x="151.525" y="109.228" width="44.047" height="50.91" filterUnits="userSpaceOnUse">
      <feOffset dy="3" input="SourceAlpha"/>
      <feGaussianBlur stdDeviation="3" result="blur-2"/>
      <feFlood flood-opacity="0.161"/>
      <feComposite operator="in" in2="blur-2"/>
      <feComposite in="SourceGraphic"/>
    </filter>
    <filter id="Path_256" x="164.498" y="125.425" width="52.267" height="63.083" filterUnits="userSpaceOnUse">
      <feOffset dy="3" input="SourceAlpha"/>
      <feGaussianBlur stdDeviation="3" result="blur-3"/>
      <feFlood flood-opacity="0.161"/>
      <feComposite operator="in" in2="blur-3"/>
      <feComposite in="SourceGraphic"/>
    </filter>
    <filter id="Path_260" x="223.591" y="246.853" width="63.043" height="65.99" filterUnits="userSpaceOnUse">
      <feOffset dy="3" input="SourceAlpha"/>
      <feGaussianBlur stdDeviation="3" result="blur-4"/>
      <feFlood flood-opacity="0.161"/>
      <feComposite operator="in" in2="blur-4"/>
      <feComposite in="SourceGraphic"/>
    </filter>
    <filter id="Path_266" x="121.37" y="316.374" width="63.741" height="66.614" filterUnits="userSpaceOnUse">
      <feOffset dy="3" input="SourceAlpha"/>
      <feGaussianBlur stdDeviation="3" result="blur-5"/>
      <feFlood flood-opacity="0.161"/>
      <feComposite operator="in" in2="blur-5"/>
      <feComposite in="SourceGraphic"/>
    </filter>
    <filter id="Path_275" x="218.439" y="151.026" width="53.595" height="55.81" filterUnits="userSpaceOnUse">
      <feOffset dy="3" input="SourceAlpha"/>
      <feGaussianBlur stdDeviation="3" result="blur-6"/>
      <feFlood flood-opacity="0.161"/>
      <feComposite operator="in" in2="blur-6"/>
      <feComposite in="SourceGraphic"/>
    </filter>
    <filter id="Path_278" x="33.527" y="18.828" width="114.032" height="100.066" filterUnits="userSpaceOnUse">
      <feOffset dy="3" input="SourceAlpha"/>
      <feGaussianBlur stdDeviation="3" result="blur-7"/>
      <feFlood flood-opacity="0.161"/>
      <feComposite operator="in" in2="blur-7"/>
      <feComposite in="SourceGraphic"/>
    </filter>
    <filter id="Path_279" x="47.899" y="85.566" width="102.624" height="63.343" filterUnits="userSpaceOnUse">
      <feOffset dy="3" input="SourceAlpha"/>
      <feGaussianBlur stdDeviation="3" result="blur-8"/>
      <feFlood flood-opacity="0.161"/>
      <feComposite operator="in" in2="blur-8"/>
      <feComposite in="SourceGraphic"/>
    </filter>
    <filter id="Path_280" x="78.031" y="27.981" width="60.568" height="58.105" filterUnits="userSpaceOnUse">
      <feOffset dy="3" input="SourceAlpha"/>
      <feGaussianBlur stdDeviation="3" result="blur-9"/>
      <feFlood flood-opacity="0.631"/>
      <feComposite operator="in" in2="blur-9"/>
      <feComposite in="SourceGraphic"/>
    </filter>
    <filter id="Path_282" x="63.276" y="87.253" width="132.666" height="143.952" filterUnits="userSpaceOnUse">
      <feOffset dy="3" input="SourceAlpha"/>
      <feGaussianBlur stdDeviation="3" result="blur-10"/>
      <feFlood flood-opacity="0.161"/>
      <feComposite operator="in" in2="blur-10"/>
      <feComposite in="SourceGraphic"/>
    </filter>
    <filter id="Path_285" x="84.16" y="238.704" width="106.596" height="86.885" filterUnits="userSpaceOnUse">
      <feOffset dy="3" input="SourceAlpha"/>
      <feGaussianBlur stdDeviation="3" result="blur-11"/>
      <feFlood flood-opacity="0.161"/>
      <feComposite operator="in" in2="blur-11"/>
      <feComposite in="SourceGraphic"/>
    </filter>
    <filter id="Path_286" x="154.858" y="209.495" width="96.243" height="83.648" filterUnits="userSpaceOnUse">
      <feOffset dy="3" input="SourceAlpha"/>
      <feGaussianBlur stdDeviation="3" result="blur-12"/>
      <feFlood flood-opacity="0.161"/>
      <feComposite operator="in" in2="blur-12"/>
      <feComposite in="SourceGraphic"/>
    </filter>
    <filter id="Path_287" x="38.493" y="122.902" width="72.829" height="75.265" filterUnits="userSpaceOnUse">
      <feOffset dy="3" input="SourceAlpha"/>
      <feGaussianBlur stdDeviation="3" result="blur-13"/>
      <feFlood flood-opacity="0.161"/>
      <feComposite operator="in" in2="blur-13"/>
      <feComposite in="SourceGraphic"/>
    </filter>
    <filter id="Path_288" x="28.255" y="147.473" width="76.391" height="75.291" filterUnits="userSpaceOnUse">
      <feOffset dy="3" input="SourceAlpha"/>
      <feGaussianBlur stdDeviation="3" result="blur-14"/>
      <feFlood flood-opacity="0.161"/>
      <feComposite operator="in" in2="blur-14"/>
      <feComposite in="SourceGraphic"/>
    </filter>
    <filter id="Path_289" x="26.654" y="177.646" width="66.042" height="64.351" filterUnits="userSpaceOnUse">
      <feOffset dy="3" input="SourceAlpha"/>
      <feGaussianBlur stdDeviation="3" result="blur-15"/>
      <feFlood flood-opacity="0.161"/>
      <feComposite operator="in" in2="blur-15"/>
      <feComposite in="SourceGraphic"/>
    </filter>
    <filter id="Path_295" x="30.838" y="249.173" width="56.331" height="48.161" filterUnits="userSpaceOnUse">
      <feOffset dy="3" input="SourceAlpha"/>
      <feGaussianBlur stdDeviation="3" result="blur-16"/>
      <feFlood flood-opacity="0.161"/>
      <feComposite operator="in" in2="blur-16"/>
      <feComposite in="SourceGraphic"/>
    </filter>
  </defs>
  <g id="_6290" data-name="6290" transform="matrix(0.914, -0.407, 0.407, 0.914, -99.278, 94.538)">
    <g id="Group_52" data-name="Group 52" transform="translate(0 0)">
      <path id="Path_250" data-name="Path 250" d="M1593.021,667.839c-1.7,1.9-1.9,6.38-2.4,8.856-.209,1.034-.333,3.27-1.329,3.9-1.067.679-3.111-.134-4.135-.563-3.761-1.571-3.149-4.8-1.945-8.078.875-2.38,2.037-4.635,3.108-6.933.623-1.339,1.345-3.831,2.858-4.494,2.8-1.227,3.945,5.887,3.014,6.832Z" transform="translate(-1539.69 -412.734)" fill="#0c1c2b"/>
      <path id="Path_251" data-name="Path 251" d="M1515.046,673.217c-.083-.455-2.316-7.724.176-6.106l-.3.267a28.015,28.015,0,0,1,6.853,2.108c2.646,1.257,2.917,3.459,2.9,6.175a59.942,59.942,0,0,1-1.164,10.035c-.531,3.043-1.145,7.786-4.627,8.764-8.039,2.257-5.553-7.121-4.565-11.432C1515,680.059,1515.6,676.261,1515.046,673.217Z" transform="translate(-1435.78 -415.882)" fill="#0c1c2b"/>
      <path id="Path_252" data-name="Path 252" d="M1120.41,379.626c24.283,1.5,31.57,35.389,39.515,53.518,8.371,19.1,13.989,31.112,36.655,44.813,2.378,1.438,12.054,5.283,14.559,6.4.46,5.648-4.781,14.036-5.847,19.713-7.642-.06-20.037-3.909-27.311-5.45-9.744-2.065-24.346-8.667-34.1-16.919-22.918-19.38-41.208-31.552-43.8-61.01-1.044-11.839.7-28.72,11.385-35.56a8.574,8.574,0,0,0,.448,1.253Z" transform="translate(-909.557 -276.449)" fill="#223246"/>
      <path id="Path_253" data-name="Path 253" d="M1099.838,550.517c-1.465-8.309.57-17.625,1.053-26.009.288-5,1.385-16.53,4.26-23.061,6.676,14.175,13.876,24.222,32.785,35.652,2.379,1.437,12.055,5.282,14.56,6.4.46,5.648-4.781,14.036-5.847,19.713-7.641-.06-20.089-3.814-27.363-5.355A81.641,81.641,0,0,1,1099.838,550.517Z" transform="translate(-850.657 -335.582)" fill="#223246"/>
      <g transform="matrix(0.91, 0.41, -0.41, 0.91, 129.15, -45.98)" filter="url(#Path_254)">
        <path id="Path_254-2" data-name="Path 254" d="M1245.353,401.431l-8.493,13.079-1.989-2.463,7.411-14.4A38.042,38.042,0,0,1,1245.353,401.431Z" transform="matrix(0.91, -0.41, 0.41, 0.91, -1140.92, 246.12)" fill="#1b2b3e"/>
      </g>
      <g transform="matrix(0.91, 0.41, -0.41, 0.91, 129.15, -45.98)" filter="url(#Path_255)">
        <path id="Path_255-2" data-name="Path 255" d="M1231.386,436.984l-13.654,24.553-1.9-3.952,13.622-25.147C1230.732,435.15,1231.386,436.984,1231.386,436.984Z" transform="matrix(0.91, -0.41, 0.41, 0.91, -1126.08, 221.03)" fill="#1b2b3e"/>
      </g>
      <g transform="matrix(0.91, 0.41, -0.41, 0.91, 129.15, -45.98)" filter="url(#Path_256)">
        <path id="Path_256-2" data-name="Path 256" d="M1218.78,479.054l-17.651,35.875L1199.4,508l17.393-33.793Z" transform="matrix(0.91, -0.41, 0.41, 0.91, -1115.09, 193.94)" fill="#1b2b3e"/>
      </g>
      <path id="Path_257" data-name="Path 257" d="M1171.2,643.357s8.876,33.3,22.38,62.327c13.266,28.511,38.114,63.248,38.114,63.248l-27.264,15.045s-32.1-21.966-50.561-41.362c-24.52-25.756-52.773-67.946-52.773-67.946l30.774-29.774Z" transform="translate(-930.738 -404.466)" fill="#223246"/>
      <path id="Path_258" data-name="Path 258" d="M1450.783,674.07c-4.356,22.879-27.66,53.756-41.951,74.305-24.992,35.937-59.59,59.908-59.59,59.908l-22.891-20.2s18.689-16.651,30.252-58.176a604.579,604.579,0,0,0,16.082-77.476l41.189-4.17Z" transform="translate(-1265.746 -406.846)" fill="#223246"/>
      <path id="Path_259" data-name="Path 259" d="M1325.291,364.812s15.36,34.779,19.2,50.957,7.74,96.274,7.74,96.274-11.694,2.545-24.275,6.085c-18.739,5.273-37.465,28.749-37.465,28.749s-7.683-21.839-23.448-27.9c-18.487-7.1-51.117-1.986-51.117-1.986s4.1-54.787,8.033-84.148c4.661-34.793,18.268-67.57,18.268-67.57l46.421-11.36Z" transform="translate(-1110.377 -263.97)" fill="#19283a"/>
      <g id="Group_43" data-name="Group 43" transform="translate(233.438 291.622)">
        <g transform="matrix(0.91, 0.41, -0.41, 0.91, -104.29, -337.61)" filter="url(#Path_260)">
          <path id="Path_260-2" data-name="Path 260" d="M1172.9,748.94c3.271-2.243,8.219-3.924,11.987-2.7,5.229,1.7,8.672,5.8,11.469,10.046,4.4,6.668,9.128,18.815,1.083,25.312a12.111,12.111,0,0,1-10.831,1.865c-4.3-1.165-6.962-5.153-9.463-8.435C1172.994,769.573,1164.843,754.47,1172.9,748.94Z" transform="matrix(0.91, -0.41, 0.41, 0.91, -1139.14, 60.32)" fill="#19283a"/>
        </g>
        <path id="Path_261" data-name="Path 261" d="M1182.927,781.493a1.862,1.862,0,0,0,2.568.6l15.767-8.593a1.9,1.9,0,0,0,.91-2.5h0a1.862,1.862,0,0,0-2.568-.6L1183.837,779a1.891,1.891,0,0,0-.91,2.5Z" transform="translate(-1176.859 -757.627)" fill="#223246"/>
        <path id="Path_262" data-name="Path 262" d="M1190.755,770.266a1.738,1.738,0,0,0,2.366.711l13.933-7.594a1.769,1.769,0,0,0,.707-2.386h0a1.737,1.737,0,0,0-2.365-.711l-13.933,7.594a1.766,1.766,0,0,0-.708,2.386Z" transform="translate(-1186.487 -752.743)" fill="#223246"/>
        <path id="Path_263" data-name="Path 263" d="M1201.064,759.057a1.577,1.577,0,0,0,2,.91l10.631-5.794a1.6,1.6,0,0,0,.344-2.188h0a1.577,1.577,0,0,0-2-.91l-10.631,5.8a1.6,1.6,0,0,0-.343,2.187Z" transform="translate(-1198.099 -748.313)" fill="#223246"/>
        <path id="Path_264" data-name="Path 264" d="M1179.326,794.26a1.7,1.7,0,0,0,2.305.744l13.386-7.3a1.736,1.736,0,0,0,.648-2.353h0a1.705,1.705,0,0,0-2.306-.744l-13.385,7.3a1.735,1.735,0,0,0-.647,2.354Z" transform="translate(-1168.513 -764.558)" fill="#223246"/>
        <path id="Path_265" data-name="Path 265" d="M1176.673,805.608c.458.855,1.3,1.295,1.87.981l9.446-5.148c.575-.313.67-1.261.213-2.117h0c-.458-.855-1.3-1.295-1.871-.981l-9.445,5.148c-.579.314-.671,1.261-.213,2.117Z" transform="translate(-1159.721 -771.27)" fill="#223246"/>
      </g>
      <g id="Group_44" data-name="Group 44" transform="translate(111.683 313.769)">
        <g transform="matrix(0.91, 0.41, -0.41, 0.91, 17.46, -359.75)" filter="url(#Path_266)">
          <path id="Path_266-2" data-name="Path 266" d="M1429.915,789.827c3.468,1.924,7.183,5.6,7.771,9.518.817,5.436-1.319,10.351-3.864,14.748-4,6.914-12.756,16.572-22.161,12.276a12.108,12.108,0,0,1-6.507-8.857c-.882-4.371,1.5-8.531,3.318-12.235C1411.492,799.124,1421.362,785.084,1429.915,789.827Z" transform="matrix(0.91, -0.41, 0.41, 0.91, -1473.99, 186.54)" fill="#19283a"/>
        </g>
        <path id="Path_267" data-name="Path 267" d="M1418.982,812.687a1.862,1.862,0,0,0,.61,2.566l14.732,10.267a1.9,1.9,0,0,0,2.64-.3h0a1.863,1.863,0,0,0-.61-2.566l-14.732-10.267a1.9,1.9,0,0,0-2.64.3Z" transform="translate(-1411.419 -800.091)" fill="#223246"/>
        <path id="Path_268" data-name="Path 268" d="M1413.558,804a1.737,1.737,0,0,0,.42,2.434L1427,815.506a1.769,1.769,0,0,0,2.451-.433h0a1.737,1.737,0,0,0-.42-2.434l-13.018-9.072a1.769,1.769,0,0,0-2.451.433Z" transform="translate(-1401.127 -795.849)" fill="#223246"/>
        <path id="Path_269" data-name="Path 269" d="M1410.141,795.746a1.575,1.575,0,0,0,.081,2.2l9.934,6.923a1.605,1.605,0,0,0,2.111-.67h0a1.576,1.576,0,0,0-.08-2.2l-9.934-6.923a1.605,1.605,0,0,0-2.112.67Z" transform="translate(-1392.225 -791.788)" fill="#223246"/>
        <path id="Path_270" data-name="Path 270" d="M1430.249,825.937a1.705,1.705,0,0,0,.365,2.395l12.507,8.716a1.736,1.736,0,0,0,2.394-.472h0a1.7,1.7,0,0,0-.365-2.395l-12.507-8.716a1.736,1.736,0,0,0-2.4.473Z" transform="translate(-1425.79 -806.489)" fill="#223246"/>
        <path id="Path_271" data-name="Path 271" d="M1441.617,840.5c-.561.792-.58,1.737-.042,2.112l8.826,6.151c.538.375,1.428.036,1.989-.755h0c.561-.792.579-1.737.042-2.112l-8.826-6.151c-.538-.375-1.428-.037-1.989.755Z" transform="translate(-1438.563 -813.488)" fill="#223246"/>
      </g>
      <path id="Path_272" data-name="Path 272" d="M1042.855,885.211c1.057,4.337,4.716,21.733,13.931,23.385,1.533.275,19.036-7.98,31.91-17.179,18.392-13.142,20.092-18.417,20.092-18.417-7.688-10.955-37.793-9.037-37.793-9.037Z" transform="translate(-777.866 -511.486)" fill="#19283a"/>
      <path id="Path_273" data-name="Path 273" d="M1480.222,898.989c-3.265,3.045-16.645,14.748-13.577,23.592.511,1.471,16.275,12.7,30.6,19.422,20.46,9.609,25.894,8.509,25.894,8.509,5.791-12.066-10.614-37.381-10.614-37.381Z" transform="translate(-1411.299 -528.551)" fill="#19283a"/>
      <g id="Group_45" data-name="Group 45" transform="translate(143.875 205.244)">
        <ellipse id="Ellipse_117" data-name="Ellipse 117" cx="9.522" cy="13.269" rx="9.522" ry="13.269" transform="translate(21.762 26.489) rotate(173.886)" fill="#0a1825"/>
        <path id="Path_2090" data-name="Path 2090" d="M9.522,0c5.259,0,9.522,5.941,9.522,13.269S14.781,26.537,9.522,26.537,0,20.6,0,13.269,4.263,0,9.522,0Z" transform="translate(25.78 26.386) rotate(173.886)" fill="#223246"/>
      </g>
      <path id="Path_274" data-name="Path 274" d="M1088.9,601.722a19.35,19.35,0,0,0-2.743-1.306c.566,2.849,5.05,4.188,6.561,6.678a4.12,4.12,0,0,1-3.373,6.349c-5.448.25-13.476-3.538-17.21-6.525-5.585-4.467-11.167-9.013-16.867-13.2.335-.277.326-.7.558-.967l15.439-20.578c3.3,1.239,6.15,1.176,9.971.579,2.79-.436,5.344-2.412,8.006-3.223,3.435-1.045,5.451,1.957,3.865,4.821-1.495,2.7-4.557,3.92-6.255,6.3,3.093.605,6.014,1.726,9.136,2.358,2.89.585,6.4,1.114,8.246,3.424,2.1,2.627.844,6.143-2.5,7.067-2.442.676-5.41-.8-7.72-1.39a26.108,26.108,0,0,0-3.224-.55c.465,2.209,5.717,3.109,7.737,3.6,2.546.623,6.409,2.073,6.187,5.214C1104.066,609.558,1092.8,603.792,1088.9,601.722Z" transform="translate(-780.721 -368.527)" fill="#223246"/>
      <g transform="matrix(0.91, 0.41, -0.41, 0.91, 129.15, -45.98)" filter="url(#Path_275)">
        <path id="Path_275-2" data-name="Path 275" d="M1114.465,590.177l17.123-22.088s3.1-2.569,5.671-.473a4.854,4.854,0,0,1,2.084,4.467l-17.084,22.812s-2.378,3.535-5.591.916C1111.871,591.9,1114.465,590.177,1114.465,590.177Z" transform="matrix(0.91, -0.41, 0.41, 0.91, -1020.57, 102.66)" fill="#1b2b3e"/>
      </g>
      <path id="Path_276" data-name="Path 276" d="M1254.954,276.8s-15.481-12.3-19.267-33.515c-5.146-28.83,1.584-61.7,53.077-63.984,55.579-2.471,67.254,21.011,68.046,53.931.7,29.064-20.729,44.767-20.729,44.767Z" transform="translate(-1124.397 -179.126)" fill="#223246"/>
      <g id="Group_46" data-name="Group 46" transform="translate(144.452 24.176)">
        <path id="Path_277" data-name="Path 277" d="M1322.251,236.713c-3.34-4.593-7.065-8.844-34.387-9.905-29.611-1.151-42.333,6.107-45.249,11.705-3.7,7.1-2.161,36.713,4.328,41.317,3.976,2.821,16.985-.28,42.833.2,20.039.374,25.769,4.664,28.734,1.433s6.607-11.53,6.8-21.985S1324.238,239.439,1322.251,236.713Z" transform="translate(-1240.643 -226.387)" fill="#19283a"/>
        <g transform="matrix(0.91, 0.41, -0.41, 0.91, -15.3, -70.16)" filter="url(#Path_278)">
          <path id="Path_278-2" data-name="Path 278" d="M1252.554,241.28c2.916-5.6,15.638-12.856,45.249-11.7,19.337.751,26.853,3.1,30.779,6.037-3.274-4.39-7.718-8.363-34-9.384-29.611-1.151-42.333,6.107-45.249,11.7-3.7,7.1-2.16,36.713,4.327,41.317a4.516,4.516,0,0,0,1.016.525C1250.089,270.913,1249.317,247.49,1252.554,241.28Z" transform="matrix(0.91, -0.41, 0.41, 0.91, -1188.96, 358.65)" fill="#1b2b3e"/>
        </g>
      </g>
      <g transform="matrix(0.91, 0.41, -0.41, 0.91, 129.15, -45.98)" filter="url(#Path_279)">
        <path id="Path_279-2" data-name="Path 279" d="M1263.648,369.684c-.119,4.43,8.817-1.7,49.225-2.231,31.567-.418,38.243,2.966,38.243,2.966,2.126-6.343-1.158-10.252-35.891-9.514C1278.885,361.677,1263.859,361.788,1263.648,369.684Z" transform="matrix(0.91, -0.41, 0.41, 0.91, -1244.26, 311.7)" fill="#1b2b3e"/>
      </g>
      <g id="Group_47" data-name="Group 47" transform="translate(189.251 32.994)">
        <g transform="matrix(0.91, 0.41, -0.41, 0.91, -60.1, -78.98)" filter="url(#Path_280)">
          <path id="Path_280-2" data-name="Path 280" d="M1282.87,248.065c-3.845-5.467-12.188-4.7-18.547-4.817-12.646-.226-16.433,6.325-4.507,7.778.937.114,1.882.238,2.815.386,0,0,8.983-1.474,12.777,5.576.043.081,2.034,21.49,8.477,13.245C1287.912,265.075,1286.549,253.3,1282.87,248.065Z" transform="matrix(0.91, -0.41, 0.41, 0.91, -1156.21, 334.97)" fill="#162435" opacity="0.3"/>
        </g>
      </g>
      <path id="Path_281" data-name="Path 281" d="M1460.6,236.639s-9.575,5.5-9.625,25.081c-.057,22.417,12.295,24.824,12.295,24.824s3.718-3.054,4.721-22.928C1469.093,241.858,1460.6,236.639,1460.6,236.639Z" transform="translate(-1347.187 -207.043)" fill="#1b2b3e"/>
      <g transform="matrix(0.91, 0.41, -0.41, 0.91, 129.15, -45.98)" filter="url(#Path_282)">
        <path id="Path_282-2" data-name="Path 282" d="M1321.531,372.716s8.433,21.9,9.027,33.823c.981,19.685-10.187,64.688-10.187,64.688l-15.433,1.23s-22.011-46.882-28.083-59.674c-12.915-27.211-26.226-40.364-26.226-40.364l7.279-.428s16.039,17.58,25.6,36.487c7.464,14.762,25.43,53.972,25.43,53.972l8.129-.378s7.569-34.546,7.062-55.057c-.309-12.531-9.366-36.817-9.366-36.817Z" transform="matrix(0.91, -0.41, 0.41, 0.91, -1220.8, 296.27)" fill="#1b2b3e"/>
      </g>
      <path id="Path_283" data-name="Path 283" d="M1411.695,409.749c10.057-13.714,20.042-27.345,37.283-29.666a33.632,33.632,0,0,1,17.244,3.048c15.563,5.188,8.653,32.105,4.172,42.472-5.988,13.851-42.246,34.76-48.65,42.936-7.121,9.093-12.219,29.518-16,40.23-1.071,3.036-1.384,7.991-3.063,10.748-2.106,3.457-17.175-.3-19.124-2.648-2.156-2.592-.939-8.712-1-12.008-.258-13.138,3.952-27.316,7.173-40.037C1392.341,454.507,1405.674,417.962,1411.695,409.749Z" transform="translate(-1319.599 -276.587)" fill="#223246"/>
      <path id="Path_284" data-name="Path 284" d="M1499.831,530.115c.852-3.365,2.754-9.519,5.26-16.569,11.481.668,21.881,12.143,24.272,23.7-5.871,10.119-9.781,25.715-13.114,35.165-1.071,3.036-20.638,12.09-22.588,9.747-2.156-2.591-.938-8.711-1-12.008C1492.4,557.013,1496.609,542.835,1499.831,530.115Z" transform="translate(-1429.76 -341.454)" fill="#223246"/>
      <g transform="matrix(0.91, 0.41, -0.41, 0.91, 129.15, -45.98)" filter="url(#Path_285)">
        <path id="Path_285-2" data-name="Path 285" d="M1413.815,695.112s-5.777-22.811-25.582-31.935c-25.5-11.75-48.2-7.515-48.2-7.515a9.442,9.442,0,0,0-5.151,7.805c-.873,7.629,2.37,8.1,2.37,8.1s26.4-3.86,48.377,4.538C1407.886,684.615,1413.815,695.112,1413.815,695.112Z" transform="matrix(0.91, -0.41, 0.41, 0.91, -1392.56, 221.46)" fill="#1b2b3e"/>
      </g>
      <g transform="matrix(0.91, 0.41, -0.41, 0.91, 129.15, -45.98)" filter="url(#Path_286)">
        <path id="Path_286-2" data-name="Path 286" d="M1268.108,650.611s-13.233-3.548-34.892,9.265c-18.729,11.081-27.352,30.8-27.352,30.8l.5,1.552s12.728-13.336,26.958-23.171c12.522-8.655,37.618-8.466,37.618-8.466s2.651-1.552,1.6-5.453A6.1,6.1,0,0,0,1268.108,650.611Z" transform="matrix(0.91, -0.41, 0.41, 0.91, -1202.2, 139.23)" fill="#1b2b3e"/>
      </g>
      <ellipse id="Ellipse_119" data-name="Ellipse 119" cx="8.306" cy="10.862" rx="8.306" ry="10.862" transform="matrix(-0.856, -0.517, 0.517, -0.856, 79.753, 390.848)" fill="#0a1825"/>
      <ellipse id="Ellipse_120" data-name="Ellipse 120" cx="8.306" cy="10.861" rx="8.306" ry="10.861" transform="matrix(-0.85, 0.526, -0.526, -0.85, 284.489, 369.772)" fill="#0a1825"/>
      <g id="Group_48" data-name="Group 48" transform="translate(80.834 105.971)">
        <g transform="matrix(0.91, 0.41, -0.41, 0.91, 48.31, -151.96)" filter="url(#Path_287)">
          <path id="Path_287-2" data-name="Path 287" d="M1427.627,420.356a67.579,67.579,0,0,1-2.736,7.746,16.56,16.56,0,0,1-.93,1.809,56.849,56.849,0,0,0-11.936-26.862,42.992,42.992,0,0,0-17.032-11.945,59.336,59.336,0,0,0-7.414-2.3,38.481,38.481,0,0,1,6.8-3.742c1.075.251,1.871.468,2.228.6a54.675,54.675,0,0,1,23.607,16.623c3.342,4.085,5.04,8.781,6.559,13.757A25.6,25.6,0,0,1,1427.627,420.356Z" transform="matrix(0.91, -0.41, 0.41, 0.91, -1376.74, 357.8)" fill="#1b2b3e"/>
        </g>
        <g transform="matrix(0.91, 0.41, -0.41, 0.91, 48.31, -151.96)" filter="url(#Path_288)">
          <path id="Path_288-2" data-name="Path 288" d="M1417.316,429.509c1.343-1.826,2.691-3.642,4.059-5.423a55.955,55.955,0,0,1,9.8,1.979,44.236,44.236,0,0,1,17.845,10.68,53.037,53.037,0,0,1,12.766,22.225,24.527,24.527,0,0,1,.42,2.458c-2.086,1.792-4.31,3.6-6.6,5.382,0-.046,0-.091,0-.138a33.351,33.351,0,0,0-9.657-21.408c-6.19-6.122-14.573-9.776-22.489-13.281A51.782,51.782,0,0,0,1417.316,429.509Z" transform="matrix(0.91, -0.41, 0.41, 0.91, -1430.02, 360.79)" fill="#1b2b3e"/>
        </g>
        <g transform="matrix(0.91, 0.41, -0.41, 0.91, 48.31, -151.96)" filter="url(#Path_289)">
          <path id="Path_289-2" data-name="Path 289" d="M1486.217,505.063c-2.325-7.46-7.659-12.848-13.672-17.635-5.081-4.046-10.391-7.469-16.409-9.294.959-2.442,1.928-4.847,2.887-7.15.3.075.6.151.91.232a61.485,61.485,0,0,1,21.376,10.926,36.9,36.9,0,0,1,8.562,10.074c1.3,2.187,2.411,4.882,3.681,7.389C1490.931,501.531,1488.445,503.365,1486.217,505.063Z" transform="matrix(0.91, -0.41, 0.41, 0.91, -1486.16, 360.86)" fill="#1b2b3e"/>
        </g>
      </g>
      <path id="Path_290" data-name="Path 290" d="M1466.325,737.37c-.787,2.849.416,5.116,2.981,5.824l80.739,22.852a5.106,5.106,0,0,0,6.069-3.876l14.093-51.022c.787-2.85-.461-6.462-3.026-7.17l-80.694-21.506a5.107,5.107,0,0,0-6.069,3.877Z" transform="translate(-1457.311 -423.376)" fill="#0c1c2b"/>
      <path id="Path_291" data-name="Path 291" d="M1491.4,731.31c-.787,2.849.558,5.707,3.007,6.384l76.812,21.216c2.447.676,5.07-1.086,5.856-3.936l14.092-51.022c.787-2.849-.559-5.707-3.006-6.384l-76.812-21.216c-2.447-.676-5.07,1.086-5.856,3.936Z" transform="translate(-1491.178 -420.412)" fill="#0a1825"/>
      <g id="Group_49" data-name="Group 49" transform="translate(37.281 243.669)">
        <path id="Path_292" data-name="Path 292" d="M1530.855,655.237c1.69-3.211,3.615-2.618,6.969-2.422a61.233,61.233,0,0,1,15.464,2.967,87.366,87.366,0,0,1,8.628,3.626c1.685.765,7.238,1.792,8.169,3.544,1.555,2.925-3.6,22.186-5.378,26.282l-6.6-1.524c1.182-2.68,6.083-18.264,3.437-21.062-2.409-2.548-8.689-2.823-12.1-3.545-3-.636-6.015-1.53-9.045-2.181-3.177-.682-3.729-.164-4.87,2.852-1.789,4.732-2.662,9.619-3.8,14.527C1517.187,679.768,1529.393,658.022,1530.855,655.237Z" transform="translate(-1524.675 -652.642)" fill="#0a1825"/>
        <path id="Path_293" data-name="Path 293" d="M1555.434,719.528l.265.037c-.106.239-.209.481-.324.712A3.2,3.2,0,0,0,1555.434,719.528Z" transform="translate(-1525.799 -685.109)" fill="#0a1825"/>
      </g>
      <path id="Path_294" data-name="Path 294" d="M1520.4,611.369a7.212,7.212,0,0,1-.2,1.684l21.777,6.479c-2.612,5.144,5.636,12.465,7.839,17.3,4.087,8.968-7.6,5.981-12.021,4.088-1.558,7.971-6.109,9.342-13.758,8.732-5.062-.4-13.1-1.673-16.036-6.408C1501.007,631.964,1513.831,618.866,1520.4,611.369Z" transform="translate(-1458.066 -388.939)" fill="#223246"/>
      <g transform="matrix(0.91, 0.41, -0.41, 0.91, 129.15, -45.98)" filter="url(#Path_295)">
        <path id="Path_295-2" data-name="Path 295" d="M1515.685,599.1l27.638,9.24a4.346,4.346,0,0,1,1.142,4.913,4.853,4.853,0,0,1-3.538,3.431l-27.147-8.677s-4.119-1.09-2.7-4.983C1513.21,597.206,1515.685,599.1,1515.685,599.1Z" transform="matrix(0.91, -0.41, 0.41, 0.91, -1583.89, 336.46)" fill="#1b2b3e"/>
      </g>
      <g id="Group_51" data-name="Group 51" transform="translate(31.651 274.682)">
        <ellipse id="Ellipse_121" data-name="Ellipse 121" cx="10.649" cy="10.649" rx="10.649" ry="10.649" transform="translate(5.772 10.998)" fill="#223246"/>
        <g id="Group_50" data-name="Group 50" transform="translate(0)">
          <path id="Path_296" data-name="Path 296" d="M1590.5,742.975c2.188,2.437,4.137,6.217,4.177,9.547.036,2.938-2.957,2.324-4.581,1.247-2.956-1.96-5.306-5.031-7.527-7.739-2.735-3.334-5.3-6.807-7.872-10.267-4.33-5.822-9.07-12.2-11.3-19.186-.75-2.351.215-3.808,2.407-3.657,1.515.1,3,1.371,4.068,2.327a25.74,25.74,0,0,1,4.713,5.641l.276.479c.686,1.2-1.218,2.151-1.9.965-1.551-2.7-4.169-6.238-7.258-7.275-.3-.1-.672.086-1,.067.774.046.414-.577.62.427a16.185,16.185,0,0,0,1.423,3.616,92.9,92.9,0,0,0,9.537,15.18,153.788,153.788,0,0,0,12.1,15.089,22.039,22.039,0,0,0,2.633,2.38,5.872,5.872,0,0,0,1.16.7c.572.25.337.217.367-.122.221-2.571-2-6.18-3.642-8.007a1.065,1.065,0,0,1,1.591-1.415Z" transform="translate(-1563.152 -712.909)" fill="#19283a"/>
        </g>
      </g>
    </g>
  </g>
</svg>
