<svg xmlns="http://www.w3.org/2000/svg" width="173.755" height="272.79" viewBox="0 0 173.755 272.79">
  <g id="Group_2889" data-name="Group 2889" transform="translate(-798.295 -406.923)">
    <g id="Group_54" data-name="Group 54" transform="translate(798.295 237)">
      <path id="Path_297" data-name="Path 297" d="M2323.842,1483c-30.08-9.985-67.644-3.627-85.782,28.594-10.594,18.818-9,38.6.854,57.4,4.14,7.9,22.192,22.193,45.239,18.565l16.431-3.082c6.283-.921,12.66-.7,18.564-3.106,13.323-5.441,33.006-19.758,37.344-34.142C2364.6,1520.34,2348.126,1491.061,2323.842,1483Z" transform="translate(-2212.702 -1279.145)" fill="#cceaff" opacity="0.3"/>
      <path id="Path_298" data-name="Path 298" d="M2450.663,1629.73c-5.754-1.147-13.481,9.1-18.481,8.883-.842-.036-2.795.16-1.837-1.517,7.556-4.973,6.548-14.132,17.759-14.614,1.724.241,2.841-1.994,0-2.352-4.632-.045-8.231.741-11.584,4.225-3.026,3.145-4.453,9.344-8.674,10.319-.481-3.4.63-8.049-.615-9.874-1.2-1.757-2.67-1.965-4,4.2-1.594,7.408-.3,8.693-7.7,12.644a89.645,89.645,0,0,1-32.629,10.4l-7.041,15.363c8.094-8.948,26.814-17.244,39.084-20.449,6.635-1.733,14.392-1.757,20.666-4.908,4.853-2.437,9.949-10.157,15.05-10.583C2452.54,1631.025,2452.062,1629.669,2450.663,1629.73Z" transform="translate(-2278.143 -1342.958)" fill="#4ed86c"/>
      <path id="Path_299" data-name="Path 299" d="M2257.529,1744.037c.182-5.864,8.327-12.026,12.825-16,.632-.558.786-2.687-1.063-2.132-7.845,4.111-15.246,3.189-18.246,14-.153,1.733-2.583,2.318-2.292-.531,1-4.523,2.58-7.851,6.732-10.332a62.838,62.838,0,0,1,12.01-6.12c-3.2-1.234-7.983-1.2-9.48-2.827-1.441-1.563.16-2.979,6.275-1.46,5.981,1.485,7.825,1.423,11.381-1.992,8.36-8.026,15.206-22.882,18.885-33.58l16.556-3.392c-10.543,5.866-21.441,22.756-27.333,33.985a87.153,87.153,0,0,1-10.954,16.075c-3.47,4.178-12.042,9.823-13.609,14.7C2258.368,1746.161,2257.15,1745.387,2257.529,1744.037Z" transform="translate(-2220.793 -1369.818)" fill="#4ed86c"/>
      <path id="Path_300" data-name="Path 300" d="M2357.212,1766.436c-1.5-5.3-.9-12.842-.606-18.6.517-10.235,4.249-48.076,3.841-55.694-.522-9.75-.325-19.289-1.295-28.771-.951-9.3-1.708-18.159-2.546-27.559-.543-6.093.8-24.025-1.921-27.526l-31.367,15.363c2.763,28.256-7.736,56.218-7.157,84.945-.259,12.925,1.406,25.378,2.9,38.46.9,7.868.393,15.954,1.891,23.685,1.464,7.558,7.531,10.094,15.313,9.508,2.813-1.773-6.857-6.987-8.29-12.035-1.5-5.3-.9-12.842-.607-18.6a159.6,159.6,0,0,1,2.643-19.282,26.143,26.143,0,0,0,16.675.817c.491,4.661,1.061,9.352,1.607,14.126.9,7.867.393,15.953,1.89,23.685,1.465,7.557,7.532,10.094,15.313,9.507C2369.81,1777.195,2358.64,1771.486,2357.212,1766.436Z" transform="translate(-2251.199 -1337.617)" fill="#4ed86c"/>
      <path id="Path_301" data-name="Path 301" d="M2314.03,1517.9c-22.008,3.176-45.709,25.179-44.895,46.429.794,20.717,10.858,32.936,30.065,32.789,8.1,1.574,17.163.667,25.768-2.21,19.811-6.623,38.683-21.486,36.823-43.528C2359.864,1528.58,2341.629,1513.919,2314.03,1517.9Z" transform="translate(-2229.989 -1296.552)" fill="#4ed86c"/>
      <path id="Path_306" data-name="Path 306" d="M2396.34,1463.033l14.634-35.465,2.13-.148-11.565,36.535Z" transform="translate(-2287.378 -1256.03)" fill="#51535e"/>
      <circle id="Ellipse_122" data-name="Ellipse 122" cx="2.774" cy="2.774" r="2.774" transform="translate(121.326 169.923)" fill="#51535e"/>
      <path id="Path_307" data-name="Path 307" d="M2230.57,1511.035l-29.971-23.949.456-2.086,31.853,21.3Z" transform="translate(-2199.082 -1282.003)" fill="#51535e"/>
      <circle id="Ellipse_123" data-name="Ellipse 123" cx="2.774" cy="2.774" r="2.774" transform="translate(0 202.144)" fill="#51535e"/>
      <path id="Path_331" data-name="Path 331" d="M2346.345,1578.391s-3.414-9.389-16.5-10.243c-13.029-.85-28.167,7.113-24.469,14.511s15.3,7.858,25.323,5.69C2341.224,1586.07,2346.345,1582.942,2346.345,1578.391Z" transform="translate(-2246.09 -1319.482)" fill="#5e73dd"/>
      <path id="Path_332" data-name="Path 332" d="M2408.908,1541.043c-1.669-3.741-5.986-7.349-10.027-6.188-5.016,1.439-4.691,6.469-5.131,10.8-.228,2.239-.617,7.214.551,10.278.316,2.376,1.533,4.076,4.571,3.949,3.781-.158,6.092-4.182,7.611-7.184C2408.129,1549.452,2410.445,1544.49,2408.908,1541.043Z" transform="translate(-2286.098 -1304.392)" fill="#5e73dd"/>
      <path id="Path_333" data-name="Path 333" d="M2330.513,1573.372a12.25,12.25,0,0,0-5.2,1.2c-3.313.959-7.174,3.7-7.033,6.764a4.193,4.193,0,0,0,4.551,3.7c2.563-.257,3.435-3.125,5.122-4.773C2329.964,1578.3,2338.264,1573.86,2330.513,1573.372Z" transform="translate(-2252.165 -1321.862)" fill="#e3f3fe" opacity="0.3"/>
      <path id="Path_334" data-name="Path 334" d="M2401.935,1539.781a2.75,2.75,0,0,0-.867,1.558c-1.946,2.809-2.132,10.17-.042,11.486,2.057-1.144,1.793-3.513,2.338-5.433.5-1.752,2.245-3.924,2.22-5.683C2405.558,1539.688,2403.906,1538.162,2401.935,1539.781Z" transform="translate(-2288.819 -1306.408)" fill="#e3f3fe" opacity="0.3"/>
      <path id="Path_335" data-name="Path 335" d="M2359.344,1609.5s17.839-.757,28.207-9.913c7.946-7.017,11.519-17.488,11.519-17.488l.994-.058s-4.282,12.078-11.87,18.791c-11.187,9.9-29.075,9.678-29.075,9.678Z" transform="translate(-2270.588 -1325.779)" fill="#263346"/>
      <path id="Path_336" data-name="Path 336" d="M2325.1,1671.964s-4.268,2.134-3.414,4.481a4.345,4.345,0,0,0,2.987,2.775l36.063-7.042s2.987-3.2,2.347-4.7-2.988-1.707-2.988-1.707Z" transform="translate(-2253.653 -1363.549)" fill="#1b2b3e"/>
      <path id="Path_337" data-name="Path 337" d="M2289.738,1516.488c-7.483-6.536-19.437,1.755-24.325,8.725-5.863,5.587-9.841,13.515-9.356,21.091.337,5.267,2.956,12.012,9.021,13.342,7.133,1.564,10.945-7.04,12.7-12.007,1.149-3.253,1.559-6.805,2.879-9.978a48.369,48.369,0,0,1,5.691-9.434C2288.624,1525.089,2293.9,1520.127,2289.738,1516.488Z" transform="translate(-2224.08 -1295.135)" fill="#e3f3fe" opacity="0.3"/>
      <path id="Path_338" data-name="Path 338" d="M2402.764,1480.509c-.443-1.124-3.61-2.4-4.88-1.855-2.508-.725-3.648,1.452-4.548,3.672-.965,2.38.067,4.144,2.312,5.193,1.79.835,4.547,1.044,5.833-.747C2402.292,1485.646,2403.319,1481.914,2402.764,1480.509Z" transform="translate(-2285.861 -1279.076)" fill="#51535e"/>
      <path id="Path_339" data-name="Path 339" d="M2247.768,1515.4c-1.2.18-3.143,2.984-2.9,4.342-1.267,2.283.6,3.88,2.564,5.253,2.1,1.472,4.055.861,5.577-1.093,1.215-1.558,2.034-4.2.575-5.852C2252.669,1517.013,2249.261,1515.179,2247.768,1515.4Z" transform="translate(-2218.865 -1295.71)" fill="#51535e"/>
      <path id="Path_340" data-name="Path 340" d="M2251.657,1525.583c-.388-.864-3.119-3.02-4.107-3.015-1.237.007-1.417.473-1.162,1.065C2244.687,1525.983,2253.414,1529.491,2251.657,1525.583Z" transform="translate(-2219.637 -1298.95)" fill="#e3f3fe" opacity="0.3"/>
      <path id="Path_341" data-name="Path 341" d="M2399.353,1482.085a1.315,1.315,0,0,0-1.73-.6c-1.083.2-1.332,2.208-1.537,3.168-.182.851-.58,1.517.246,2.158,1.054.819,1.452.01,1.911-.6C2398.991,1485.214,2400.116,1483.336,2399.353,1482.085Z" transform="translate(-2287.148 -1280.362)" fill="#e3f3fe" opacity="0.3"/>
    </g>
  </g>
</svg>
