<svg xmlns="http://www.w3.org/2000/svg" xmlns:xlink="http://www.w3.org/1999/xlink" width="1366" height="949" viewBox="0 0 1366 949">
  <defs>
    <filter id="Path_2079" x="-591.686" y="-468.257" width="2346.978" height="2342.036" filterUnits="userSpaceOnUse">
      <feOffset dy="-4" input="SourceAlpha"/>
      <feGaussianBlur stdDeviation="9" result="blur"/>
      <feFlood flood-opacity="0.439"/>
      <feComposite operator="in" in2="blur"/>
      <feComposite in="SourceGraphic"/>
    </filter>
    <filter id="Path_2080" x="-549.775" y="-414.687" width="2268.631" height="2261.399" filterUnits="userSpaceOnUse">
      <feOffset dy="-6" input="SourceAlpha"/>
      <feGaussianBlur stdDeviation="8" result="blur-2"/>
      <feFlood flood-opacity="0.349"/>
      <feComposite operator="in" in2="blur-2"/>
      <feComposite in="SourceGraphic"/>
    </filter>
    <filter id="Path_2081" x="-511.969" y="-362.106" width="2200.698" height="2192.619" filterUnits="userSpaceOnUse">
      <feOffset dy="-6" input="SourceAlpha"/>
      <feGaussianBlur stdDeviation="8" result="blur-3"/>
      <feFlood flood-opacity="0.349"/>
      <feComposite operator="in" in2="blur-3"/>
      <feComposite in="SourceGraphic"/>
    </filter>
    <filter id="Path_2082" x="-445.705" y="-289.331" width="2120.032" height="2107.687" filterUnits="userSpaceOnUse">
      <feOffset dx="24" dy="11" input="SourceAlpha"/>
      <feGaussianBlur stdDeviation="8" result="blur-4"/>
      <feFlood flood-opacity="0.349"/>
      <feComposite operator="in" in2="blur-4"/>
      <feComposite in="SourceGraphic"/>
    </filter>
    <clipPath id="clip-Trang_chủ_3">
      <rect width="1366" height="949"/>
    </clipPath>
  </defs>
  <g id="Trang_chủ_3" data-name="Trang chủ – 3" clip-path="url(#clip-Trang_chủ_3)">
    <g transform="matrix(1, 0, 0, 1, 0, 0)" filter="url(#Path_2079)">
      <path id="Path_2079-2" data-name="Path 2079" d="M739.375,7.168C933.64,27.1,1068.613,183.252,1225.277,294.2c153.565,108.757,380.879,176.9,418.632,353.566,37.9,177.34-132.134,327.454-241.624,474.743-79.577,107.048-185.588,184.313-301.668,256.1-110.521,68.352-224.842,119.165-353.556,149.123-171.078,39.818-362.376,140.248-513.4,52.659C83.506,1493.315,94.68,1286.983,54.27,1125.948c-36.5-145.44-63.036-287-43.76-434.8,23.4-179.416,30.676-377.269,166.257-504.5C320.148,52.094,536.72-13.621,739.375,7.168" transform="translate(714.94 1855.96) rotate(-141)" fill="#213245"/>
    </g>
    <g transform="matrix(1, 0, 0, 1, 0, 0)" filter="url(#Path_2080)">
      <path id="Path_2080-2" data-name="Path 2080" d="M719.7,7.019C908.8,26.374,1040.181,177.97,1192.677,285.684c149.48,105.584,370.743,171.747,407.5,343.248,36.9,172.157-128.6,317.875-235.168,460.852-77.453,103.915-180.637,178.916-293.622,248.6-107.575,66.349-218.848,115.671-344.133,144.748-166.52,38.646-352.719,136.131-499.726,51.1-146.157-84.543-135.289-284.843-174.63-441.171C17.363,951.869-8.475,814.447,10.281,670.964,33.048,496.795,40.124,304.727,172.088,181.223,311.645,50.612,522.446-13.171,719.7,7.019" transform="matrix(-0.8, -0.6, 0.6, -0.8, 754.37, 1833.79)" fill="#1a2a3c"/>
    </g>
    <g transform="matrix(1, 0, 0, 1, 0, 0)" filter="url(#Path_2081)">
      <path id="Path_2081-2" data-name="Path 2081" d="M699.559,6.911c183.79,18.823,311.5,166.107,459.719,270.764,145.292,102.587,360.351,166.887,396.082,333.5,35.867,167.247-124.982,308.787-228.556,447.672-75.277,100.94-175.565,173.789-285.379,241.474C936.87,1364.761,828.718,1412.663,706.948,1440.9,545.1,1478.42,364.126,1573.1,221.239,1490.477c-142.061-82.147-131.506-276.728-169.749-428.6C16.951,924.715-8.168,791.211,10.056,651.826c22.122-169.2,28.993-355.781,157.251-475.745C302.946,49.214,507.833-12.725,699.559,6.911" transform="translate(772.52 1817.53) rotate(-144)" fill="#101b28"/>
    </g>
    <g transform="matrix(1, 0, 0, 1, 0, 0)" filter="url(#Path_2082)">
      <path id="Path_2082-2" data-name="Path 2082" d="M677.649,6.812c178.024,18.072,301.749,159.3,445.339,259.656,140.75,98.374,349.071,160.051,383.712,319.791,34.773,160.352-121,296.03-221.3,429.171-72.895,96.766-170.02,166.595-276.374,231.472-101.261,61.77-206.008,107.681-323.95,134.732-156.76,35.954-332.035,126.705-470.452,47.47C77.01,1350.326,87.2,1163.774,50.125,1018.164,16.644,886.655-7.712,758.656,9.914,625.024c21.4-162.212,28.014-341.1,152.224-456.1C293.494,47.315,491.937-12.041,677.649,6.812" transform="matrix(-0.82, -0.57, 0.57, -0.82, 791.24, 1787.75)" fill="#0a1825" stroke="rgba(0,0,0,0)" stroke-width="1"/>
    </g>
    <circle id="Ellipse_4083" data-name="Ellipse 4083" cx="1" cy="1" r="1" transform="translate(783 231.142)" fill="#fff"/>
    <circle id="Ellipse_4084" data-name="Ellipse 4084" cx="2" cy="2" r="2" transform="translate(677 206.142)" fill="#fff"/>
    <circle id="Ellipse_4085" data-name="Ellipse 4085" cx="2" cy="2" r="2" transform="translate(645 141.142)" fill="#fff"/>
    <circle id="Ellipse_4086" data-name="Ellipse 4086" cx="2" cy="2" r="2" transform="translate(741 174.142)" fill="#fff"/>
    <circle id="Ellipse_4087" data-name="Ellipse 4087" cx="3" cy="3" r="3" transform="translate(794 130.142)" fill="#fff"/>
    <circle id="Ellipse_4088" data-name="Ellipse 4088" cx="2" cy="2" r="2" transform="translate(721 274.142)" fill="#fff"/>
    <circle id="Ellipse_4089" data-name="Ellipse 4089" cx="3" cy="3" r="3" transform="translate(622 270.142)" fill="#fff"/>
    <circle id="Ellipse_4090" data-name="Ellipse 4090" cx="2" cy="2" r="2" transform="translate(511 248.142)" fill="#fff"/>
    <circle id="Ellipse_4091" data-name="Ellipse 4091" cx="2" cy="2" r="2" transform="translate(582 206.142)" fill="#fff"/>
    <circle id="Ellipse_4092" data-name="Ellipse 4092" cx="2" cy="2" r="2" transform="translate(491 170.142)" fill="#fff"/>
    <circle id="Ellipse_4093" data-name="Ellipse 4093" cx="2" cy="2" r="2" transform="translate(381 214.142)" fill="#fff"/>
    <ellipse id="Ellipse_4094" data-name="Ellipse 4094" cx="5.819" cy="5" rx="5.819" ry="5" transform="translate(459 206.142)" fill="#fff"/>
    <circle id="Ellipse_4095" data-name="Ellipse 4095" cx="2" cy="2" r="2" transform="translate(383 151.142)" fill="#fff"/>
    <circle id="Ellipse_4096" data-name="Ellipse 4096" cx="3" cy="3" r="3" transform="translate(211 177.142)" fill="#fff"/>
    <circle id="Ellipse_4097" data-name="Ellipse 4097" cx="2" cy="2" r="2" transform="translate(126 253.142)" fill="#fff"/>
    <circle id="Ellipse_4098" data-name="Ellipse 4098" cx="2" cy="2" r="2" transform="translate(68 218.142)" fill="#fff"/>
    <circle id="Ellipse_4099" data-name="Ellipse 4099" cx="2" cy="2" r="2" transform="translate(130 172.142)" fill="#fff"/>
    <circle id="Ellipse_4100" data-name="Ellipse 4100" cx="2" cy="2" r="2" transform="translate(181 216.142)" fill="#fff"/>
    <circle id="Ellipse_4101" data-name="Ellipse 4101" cx="2" cy="2" r="2" transform="translate(292 202.142)" fill="#fff"/>
    <circle id="Ellipse_4102" data-name="Ellipse 4102" cx="2" cy="2" r="2" transform="translate(924 256.142)" fill="#fff"/>
    <circle id="Ellipse_4103" data-name="Ellipse 4103" cx="2" cy="2" r="2" transform="translate(956 220.142)" fill="#fff"/>
    <circle id="Ellipse_4104" data-name="Ellipse 4104" cx="2" cy="2" r="2" transform="translate(899 168.142)" fill="#fff"/>
    <circle id="Ellipse_4105" data-name="Ellipse 4105" cx="2" cy="2" r="2" transform="translate(820 298.142)" fill="#fff"/>
    <circle id="Ellipse_4106" data-name="Ellipse 4106" cx="2" cy="2" r="2" transform="translate(709 341.142)" fill="#fff"/>
    <circle id="Ellipse_4107" data-name="Ellipse 4107" cx="3.5" cy="3.5" r="3.5" transform="translate(1075 288.142)" fill="#fff"/>
    <circle id="Ellipse_4108" data-name="Ellipse 4108" cx="2" cy="2" r="2" transform="translate(1134 260.142)" fill="#fff"/>
    <circle id="Ellipse_4109" data-name="Ellipse 4109" cx="2" cy="2" r="2" transform="translate(1227 314.142)" fill="#fff"/>
    <circle id="Ellipse_4110" data-name="Ellipse 4110" cx="2" cy="2" r="2" transform="translate(1218 265.142)" fill="#fff"/>
    <circle id="Ellipse_4111" data-name="Ellipse 4111" cx="2" cy="2" r="2" transform="translate(301 126.142)" fill="#fff"/>
    <circle id="Ellipse_4112" data-name="Ellipse 4112" cx="2" cy="2" r="2" transform="translate(508 105.142)" fill="#fff"/>
  </g>
</svg>
