<svg xmlns="http://www.w3.org/2000/svg" xmlns:xlink="http://www.w3.org/1999/xlink" width="171.352" height="368.475" viewBox="0 0 171.352 368.475">
  <defs>
    <radialGradient id="radial-gradient" cx="-0.418" cy="0.352" r="1.163" gradientTransform="matrix(0.369, -0.947, 1.088, 0.321, 40.556, 88.662)" gradientUnits="objectBoundingBox">
      <stop offset="0" stop-color="#7b41c2"/>
      <stop offset="0.22" stop-color="#5e3193"/>
      <stop offset="0.606" stop-color="#502a80"/>
      <stop offset="1" stop-color="#1f1030"/>
    </radialGradient>
    <radialGradient id="radial-gradient-2" cx="-0.148" cy="-0.082" r="1.224" gradientTransform="matrix(0.769, -0.632, 0.627, 0.775, 22.616, 54.987)" gradientUnits="objectBoundingBox">
      <stop offset="0" stop-color="#3a1f5d"/>
      <stop offset="0.22" stop-color="#2d1747"/>
      <stop offset="0.606" stop-color="#26143d"/>
      <stop offset="1" stop-color="#100718"/>
    </radialGradient>
    <radialGradient id="radial-gradient-3" cx="0.584" cy="-0.426" r="1.346" gradientTransform="matrix(0.84, 0.239, -0.206, 0.971, -0.24, 5.082)" xlink:href="#radial-gradient"/>
    <radialGradient id="radial-gradient-4" cx="-0.148" cy="-0.082" r="1.224" gradientTransform="matrix(0.769, -0.632, 0.627, 0.775, 4.299, 9.826)" xlink:href="#radial-gradient"/>
  </defs>
  <g id="Group_2887" data-name="Group 2887" transform="translate(-274.741 -152.993)">
    <g id="Group_514" data-name="Group 514" transform="translate(283.988 385.432)">
      <path id="Path_2363" data-name="Path 2363" d="M66.278,71.7c-2.69-.971-5.156-2.835-8.105-2.927A10.039,10.039,0,0,0,51.5,71.56c-2.1,1.886-2.813,4.677-4.791,6.62a30.433,30.433,0,0,1-3.257,2.2,9.263,9.263,0,0,0-2.615,2.879,11.16,11.16,0,0,0-1.222,6.677c.149,1.3.378,2.571.418,3.881.04,1.292-.193,2.58-.171,3.868a11.408,11.408,0,0,0,1.96,5.965,5.379,5.379,0,0,0,2.277,1.648,4.229,4.229,0,0,1,.462.268c1.451,1.842,2.294,4.066,3.736,5.96a11.856,11.856,0,0,0,7.09,4c2.752.607,5.7-.44,8.171-1.6,1.349-.629,2.752-1.13,4.061-1.837a17.3,17.3,0,0,1,4.07-1.094,5.5,5.5,0,0,0,4.119-5.38c.075-1.363-.092-2.725-.075-4.075A9.75,9.75,0,0,1,77.408,96.6a19.777,19.777,0,0,0,2.8-8.466,22.812,22.812,0,0,0-.374-7.767C78.3,74.469,71.109,73.445,66.278,71.7Z" transform="translate(-39.532 -68.764)" fill="url(#radial-gradient)"/>
      <path id="Path_2364" data-name="Path 2364" d="M66.374,71.736c-2.69-.989-5.147-2.857-8.083-2.967a9.986,9.986,0,0,0-6.708,2.765c-2.11,1.851-2.831,4.646-4.822,6.585a28.115,28.115,0,0,1-3.279,2.18,9.25,9.25,0,0,0-2.62,2.857,11.092,11.092,0,0,0-1.248,6.681c.141,1.292.347,2.58.387,3.877.022,1.292-.207,2.576-.189,3.868a11.441,11.441,0,0,0,1.925,5.982,5.42,5.42,0,0,0,2.277,1.662c.149.075.3.167.457.259,1.429,1.859,2.268,4.079,3.7,5.974a11.785,11.785,0,0,0,7.064,4.044c2.747.629,5.692-.409,8.176-1.556,1.358-.633,2.76-1.116,4.079-1.82a17.4,17.4,0,0,1,4.07-1.064A5.475,5.475,0,0,0,75.7,105.7c.1-1.363-.066-2.716-.048-4.079A9.751,9.751,0,0,1,77.372,96.7a19.83,19.83,0,0,0,2.84-8.453,22.7,22.7,0,0,0-.325-7.767C78.379,74.585,71.187,73.512,66.374,71.736ZM54.361,78.259a3.538,3.538,0,0,1,.58,2.053,4.888,4.888,0,0,0,.993,2.791c.673.857,1.464,1.6,2.2,2.409A5.783,5.783,0,0,1,59.632,87.6c.149.505.154,1.029.29,1.534.193.73.708.927,1.288,1.279a1.5,1.5,0,0,1,.743,1.653A6.633,6.633,0,0,0,63.9,97.89c-.141-1.525-.382-3.178.576-4.466a.17.17,0,0,1,.308.1,7.1,7.1,0,0,0,3.068,5.389c.716.457,2.941,1.257,2.409,2.51a10.46,10.46,0,0,1-1.5,1.89,4.8,4.8,0,0,0-1.077,3.051c.044.563.431,1.248.158,1.776-.352.686-1.473.352-1.732,1.2-.185.62-.211,1.231-.8,1.622a14.586,14.586,0,0,1-1.855.971,36.761,36.761,0,0,1-4.888,2.36,9.211,9.211,0,0,1-6.791-.813,10.994,10.994,0,0,1-1.688-1.059,10.189,10.189,0,0,1-2.84-3.776,14.188,14.188,0,0,1-.708-2.374c-.343-1.2-1.266-1.349-2.33-1.7-.127-.048-.167-.259-.022-.308a4.954,4.954,0,0,1,2.242-.119c-1.218-.69-2.655-1.495-2.835-2.958-.057-.413-.273-1.332.031-1.679a4.671,4.671,0,0,1,1.5-.888c-.778-.009-1.556.035-2.321,0a.178.178,0,0,1-.158-.185c-.009-.765-.8-1.314-.752-2.075a2.946,2.946,0,0,1,.2-.848,4.587,4.587,0,0,0-.593.286c-.11.07-.224-.04-.233-.167a6.41,6.41,0,0,0-.132-1.534c-.1.281-.18.563-.268.853-.066.2-.312.105-.325-.07-.2-2.87-1.007-5.692-.22-8.554.259-.967.774-2.141,1.851-2.409.743-.18,1.943.629,2.475,1.077.119.092.084.33-.1.3a11.047,11.047,0,0,1-1.455-.33,8.012,8.012,0,0,1,1.226.914.167.167,0,0,1-.022.237c-.479.444-.976.866-1.481,1.288.141-.009.281-.026.422-.035s.294.185.141.294c-.58.4-1.653,1.683-1.156,2.466.462.712,1.727.013,2.369-.022a.148.148,0,0,1,.149.127c.149,1.112-.215,2.585.6,3.486A7.68,7.68,0,0,0,46.41,90.33c.079-.527.163-1.055.229-1.6.035-.255.04-.637.255-.826.563-.484,1.42.343,1.749.738a17.973,17.973,0,0,0,1.464,1.7,1.331,1.331,0,0,0,.141.066c-.031-1.305-1.015-2.347-1.38-3.565a.167.167,0,0,1,.171-.2,3.256,3.256,0,0,1,.844.185,5,5,0,0,0,.615.145c.33.04.352-.259.123-.431a12.109,12.109,0,0,1-1.552-1.116c-.22-.246-.426-.571-.149-.862.426-.453.976-.6,1.244-1.169a2.838,2.838,0,0,0-1.033.246.167.167,0,0,1-.141-.3,10.138,10.138,0,0,0,3.13-2.73,9.822,9.822,0,0,1,2.013-2.365A.16.16,0,0,1,54.361,78.259Z" transform="translate(-39.51 -68.765)" fill="#301a4c" opacity="0.2" style="mix-blend-mode: multiply;isolation: isolate"/>
      <path id="Path_2365" data-name="Path 2365" d="M41.1,77.1c.3.914.822,1.714,1.112,2.629a10.82,10.82,0,0,0,.963,2.176,8.35,8.35,0,0,0,4,3.424,8.6,8.6,0,0,0,5.587.418,16.943,16.943,0,0,0,2.919-1.138A10.733,10.733,0,0,0,57.9,83.49c.062-.035-.009-.18-.079-.158-3.191,1.42-6.422,2.822-9.947,1.785a8.021,8.021,0,0,1-4.483-3.424,12.812,12.812,0,0,1-1.068-2.33c-.3-.818-.831-1.494-1.156-2.281C41.14,77.016,41.083,77.047,41.1,77.1Z" transform="translate(-34.218 -40.651)" fill="#6d39ae" opacity="0.6" style="mix-blend-mode: screen;isolation: isolate"/>
      <path id="Path_2366" data-name="Path 2366" d="M40.257,74.764c0,.171-.224.668-.277,1.051-.277.04-.259.668-.255.879a15.984,15.984,0,0,0,.352,3.486,5.97,5.97,0,0,0,.563,1.459A2.948,2.948,0,0,0,41.9,83.331h0a1.431,1.431,0,0,0,.391.119c.189.035.352.167.554.189.075.009.013-.154-.031-.167a2.352,2.352,0,0,1-.475-.317.515.515,0,0,0-.149-.066,2.574,2.574,0,0,0,.062-.7,1.144,1.144,0,0,0,.193.026c.193.026.382.07.576.114a1.794,1.794,0,0,1,.629.163c.1.066.092-.105.053-.149a2.808,2.808,0,0,0-.822-.4,2.494,2.494,0,0,0-.51-.176,1.262,1.262,0,0,1-.149-.053,10,10,0,0,0-.444-2.233l.079-.018a3.069,3.069,0,0,1,.545-.105c.079-.018.031-.163-.04-.163-.176,0-.347.009-.527.031a.41.41,0,0,1-.136.018.647.647,0,0,0-.035-.132c.163-.022.316-.075.462-.092a5.717,5.717,0,0,0,1.09-.189c.066-.022.009-.154-.048-.154-.378-.018-.756-.079-1.143-.062-.127,0-.33,0-.505.026-.062-.171-.119-.338-.176-.51-.053-.149-.11-.3-.167-.444a12.654,12.654,0,0,0-.47-1.24l-.048-.084c.035-.088.07-.18.11-.259.11-.193.237-.36.36-.545.026-.048-.048-.2-.105-.141a3.348,3.348,0,0,0-.585.651l-.022-.053.026-.088a1.727,1.727,0,0,1,.2-.418c.018-.026-.022-.11-.048-.075a3.234,3.234,0,0,0-.264.343,4.044,4.044,0,0,0,.04-1.2C40.358,74.725,40.253,74.659,40.257,74.764Zm-.053,1.6a.058.058,0,0,0,.04.079,20.185,20.185,0,0,0,.549,3.723,12.5,12.5,0,0,0,.835,2.44c-.084-.031-.176-.062-.281-.11l-.018-.026a9,9,0,0,1-1.292-4.2c-.026-.527-.04-1.068-.057-1.6C39.967,76.245,40.064,76.21,40.2,76.369Z" transform="translate(-38.883 -48.584)" fill="#130a20" opacity="0.7"/>
      <path id="Path_2367" data-name="Path 2367" d="M49.5,76.865A2.9,2.9,0,0,0,46.551,79.1v.022c-.242.532-.338,1.108.171,1.336,1.1.479,2.646-1.033,3.2-1.855C50.454,77.836,50.582,76.988,49.5,76.865Z" transform="translate(-16.368 -41.3)" fill="#130a20" opacity="0.7"/>
      <path id="Path_2368" data-name="Path 2368" d="M45.377,70.579c.105,1.873.985,4.185,2.8,5.011a1.212,1.212,0,0,0-.308.105,6.388,6.388,0,0,1-1.424-.7c-.057-.044-.044.07-.009.084a5.068,5.068,0,0,0,1.2.747,2.033,2.033,0,0,0-.7,1.125,4.053,4.053,0,0,0-.273,1.042,3.886,3.886,0,0,1-.985-.189,3.449,3.449,0,0,1-1.662-1.068c-.04-.07-.1-.009-.079.057.237.6,1.011.993,1.538,1.262a4.269,4.269,0,0,0,1.16.4,7.57,7.57,0,0,0,.2,1.758,13.789,13.789,0,0,0,.673,2.325c-.048.022-.1.048-.141.066a5.056,5.056,0,0,1-.47.22,2.383,2.383,0,0,0-.444.233,3.166,3.166,0,0,1-.369.268c-.057.026,0,.154.062.136.114-.044.207-.123.321-.18.18-.083.347-.158.527-.224s.36-.128.532-.2a.875.875,0,0,0,.1-.035,2.184,2.184,0,0,0,.11.229.993.993,0,0,1-.149.079,2.032,2.032,0,0,0-.387.2c-.035.022.013.141.057.114a2.59,2.59,0,0,1,.44-.158l.114-.044c.141.3.3.607.466.9a3.8,3.8,0,0,0-.563,1.327,6.128,6.128,0,0,0-.141,2.765c0,.04.075.075.066.013a6.65,6.65,0,0,1,.413-2.848,3.856,3.856,0,0,1,.457-.875l.04.053a6.129,6.129,0,0,0,2.1,2.035,3.668,3.668,0,0,0,.193,1.569,5.223,5.223,0,0,0,.6,1.138c.189.281.651.532.787.826.013.04.066.057.066.009-.026-.382-.615-.879-.787-1.178a4.019,4.019,0,0,1-.523-2.193,2.559,2.559,0,0,0,.378.132,1.578,1.578,0,0,0,.721.057,1.228,1.228,0,0,0,.132.448c.136.251.316.453.462.7.035.083.11.009.075-.057-.079-.185-.2-.352-.286-.527a1.207,1.207,0,0,1-.145-.3.99.99,0,0,1-.04-.294,1.993,1.993,0,0,0,.563-.3.693.693,0,0,0,.185.36.627.627,0,0,1,.105.127c.026.022.044.075.084.062l0,.009.026-.035a.441.441,0,0,0-.11-.233,2.854,2.854,0,0,1-.189-.387,3.7,3.7,0,0,0,.914-1.49,12.112,12.112,0,0,0,.659-3.371,1.209,1.209,0,0,0,.453-.018,2.826,2.826,0,0,0,.664-.136c.062-.026.013-.163-.044-.154a1.863,1.863,0,0,1-.624-.04,3.237,3.237,0,0,0-.356.009l-.079-.009a5.216,5.216,0,0,0-1.538-4,6.727,6.727,0,0,0-2.083-1.266,1.2,1.2,0,0,1-.026-.22c0-.1.018-.207.022-.308,0-.057-.084-.167-.1-.07a1.478,1.478,0,0,0-.057.532,6.042,6.042,0,0,0-.756-.237h0a1.97,1.97,0,0,1-.119-.629,3.767,3.767,0,0,0-.044-.431,1.208,1.208,0,0,1-.013-.22c0,.053.018-.492.053-.211,0,.009.031.035.022.009a.84.84,0,0,0-.022-.211c-.009-.018-.031-.053-.048-.031-.295.246-.193.87-.18,1.2a3.1,3.1,0,0,0,.066.444c-.237-.048-.479-.088-.721-.123-.053,0-.105-.009-.158,0a8.808,8.808,0,0,1-2.246-1.93A8.639,8.639,0,0,1,45.487,70.6C45.474,70.548,45.373,70.486,45.377,70.579Zm7.261,7.02c2.141,1.582,1.49,4.629.958,6.853-.29,1.174-1.046,2.259-2.347,1.982l.066-.035c.7-.281,1.209-1.56,1.429-2.119a5.519,5.519,0,0,0-.084-3.156A7.891,7.891,0,0,0,51.593,78a5.383,5.383,0,0,0-1.512-1.2c-.435-.259-.989-.426-1.442-.659.185,0,.352,0,.5.018A6.8,6.8,0,0,1,52.639,77.6Z" transform="translate(-24.561 -62.768)" fill="#130a20" opacity="0.7"/>
      <path id="Path_2369" data-name="Path 2369" d="M48.357,69.225a3.451,3.451,0,0,0-1.582.163,6.162,6.162,0,0,0-3.108,1.587,2.583,2.583,0,0,0-.848,1.56,8.036,8.036,0,0,0-.176,1.235,10.067,10.067,0,0,1-.677,1.749c-.013.013.013.1.048.079a3.161,3.161,0,0,0,.967-2.514.694.694,0,0,0,.514.215,11.829,11.829,0,0,1-.022,1.314c-.009.035.044.105.066.066a6.292,6.292,0,0,0,.189-1.38,5.244,5.244,0,0,0,1.055-.229,5.577,5.577,0,0,0,.752-.281c.013.044.035.079.053.127a.143.143,0,0,1,.018.057c0,.009.009.066.009.031,0,.022.009.048.031.053.066,0,.031-.154-.022-.312l.127-.057a1.144,1.144,0,0,1,.066.281c.009.053.105.127.1.031a1.815,1.815,0,0,0-.075-.36c.105-.048.211-.1.312-.154.035.211.1.426.149.633a3.508,3.508,0,0,0,.215.571,3.88,3.88,0,0,1,.259.567c0,.018.035.062.053.022.018-.062,0-.079-.026-.145-.11-.259-.2-.505-.294-.774a5.448,5.448,0,0,1-.207-.971c.211-.119.409-.255.6-.382a.882.882,0,0,1,.048.092,9.339,9.339,0,0,0,.681,1c.053.057.088,0,.062-.053-.2-.295-.391-.593-.563-.9l-.119-.242a6.5,6.5,0,0,0,.633-.505c.18.22.435.413.615.611.053.053.07-.04.035-.079a3.109,3.109,0,0,0-.391-.44c-.048-.062-.1-.132-.149-.2.114-.1.215-.2.321-.308a3.778,3.778,0,0,0,.453-.554,2.989,2.989,0,0,0,1.253,1.046c.07.035.04-.105,0-.127a4.533,4.533,0,0,1-.664-.6,3.543,3.543,0,0,0-.492-.5,1.041,1.041,0,0,0,.114-.347,5.566,5.566,0,0,0,1.89.826c.088.022.048-.11,0-.136a17.814,17.814,0,0,1-2.22-1.354Zm-.044.752-.084-.053c-.031-.018-.053-.022-.075,0l-.018.022c-.475-.2-2.6.853-2.787.963-.286.18-1.943,1.367-1.837,1.846-.237-.075-.378-.251-.154-.651a4,4,0,0,1,1.407-1.446,7.665,7.665,0,0,1,3.16-1.033C48.352,69.577,48.414,69.744,48.313,69.977Z" transform="translate(-31.281 -67.388)" fill="#130a20" opacity="0.7"/>
      <path id="Path_2370" data-name="Path 2370" d="M47.11,71.653c-.668.818-1.358,1.6-1.987,2.435a.651.651,0,0,0-.637.057c0-.053.009-.123.009-.167.075-.778.229-1.534.237-2.321,0-.044-.092-.136-.1-.048-.053.659-.22,1.314-.325,1.965-.04.251-.083.5-.114.738-.242.163-.448.356-.576.457-.031-.114-.079-.229-.092-.3a5.184,5.184,0,0,0-.273-.879c-.031-.057-.092-.04-.066.031a9.072,9.072,0,0,1,.277,1.288,1.321,1.321,0,0,0-.136.167l-.04-.062c-.075-.11-.149-.242-.233-.365-.057-.084-.105.009-.066.07.1.145.171.3.259.453-.044.075-.1.149-.145.224a4.539,4.539,0,0,0-.466.633c-.246-.1-.541-.136-.76-.2a7.879,7.879,0,0,0-1.587-.435c-.057,0-.018.114.022.119a6,6,0,0,1,1.389.514c.246.106.523.189.782.286a5.182,5.182,0,0,0-.233.5,3.138,3.138,0,0,0-.668.053c-.062,0-.013.141.035.136a1.838,1.838,0,0,0,.347,0c.07,0,.145,0,.207,0a4.827,4.827,0,0,0-.255,1,2.02,2.02,0,0,1-.22.154c-.268.2-.563.563-.91.6-.07.009-.026.141.031.136a1.983,1.983,0,0,0,.932-.413.777.777,0,0,1,.158-.088.983.983,0,0,0,.053.294,4.486,4.486,0,0,0-.251.448c-.18.316-.325.651-.532.958-.018.035.022.119.048.079a6.082,6.082,0,0,0,.475-.712c.11-.2.268-.382.378-.589.215.185.567.035.9-.2l0,.136a1.307,1.307,0,0,0,.092.505c.035.057.084.026.079-.035a2.772,2.772,0,0,1,0-.738c.044-.035.079-.07.127-.105.022.316.048.629.057.949a12.97,12.97,0,0,1,.088,2.062c0,.053.083.154.088.066a8.9,8.9,0,0,0,.04-1.534c.009-.585,0-1.182-.026-1.776.053-.057.11-.105.145-.149a5.589,5.589,0,0,0,.7-.954,3.824,3.824,0,0,0,.338.233,8.661,8.661,0,0,0,.989.593c.084.04.057-.123.009-.167a10.384,10.384,0,0,1-1.2-.9,6.192,6.192,0,0,0,.435-.993c.11-.026.215-.066.316-.088.057,0,.013-.123-.035-.123-.066,0-.141.013-.211.018l.026-.079.044-.123a1.747,1.747,0,0,1,.163-.1c.185-.092.369-.2.549-.3.066-.04-.009-.2-.075-.171-.171.075-.343.136-.51.193a1.891,1.891,0,0,0,.106-.585c.2-.33.387-.668.611-.985.4-.593.866-1.156,1.257-1.763C47.211,71.724,47.145,71.609,47.11,71.653Z" transform="translate(-37.049 -59.231)" fill="#130a20" opacity="0.7"/>
      <path id="Path_2371" data-name="Path 2371" d="M48.133,73.635a20.146,20.146,0,0,0,.189,2.123A13.513,13.513,0,0,0,48.735,78a2.62,2.62,0,0,0,.576,1.49c.541.6.866-.532.949-.914a10.481,10.481,0,0,0-.062-3.916,7.1,7.1,0,0,0-1.134-3.138C48.01,70.334,48.111,73.2,48.133,73.635Z" transform="translate(-10.372 -60.369)" fill="#0c0610" opacity="0.7"/>
      <g id="Group_513" data-name="Group 513" transform="translate(9.811 34.544)" opacity="0.7">
        <path id="Path_2372" data-name="Path 2372" d="M45.988,76.659a10.239,10.239,0,0,1-.479,2.7c-.207.567-.44,1.072-.615,1.653a4.958,4.958,0,0,0-1.859-.207,5.422,5.422,0,0,1,.11-.686,8.107,8.107,0,0,0,.092-.87c0-.057-.092-.158-.11-.075-.048.312-.084.624-.154.936a1.675,1.675,0,0,0-.084.725.42.42,0,0,0-.1,0,1.035,1.035,0,0,0,.04-.22.824.824,0,0,0-.013-.343c-.018-.07-.11-.1-.1,0a1.057,1.057,0,0,1-.044.453.408.408,0,0,0-.031.145,1.275,1.275,0,0,0-.259.084,1.029,1.029,0,0,0,.048-.176,3.314,3.314,0,0,0-.084-.9,2.013,2.013,0,0,0-.536-1.24c-.053-.035-.057.044-.035.079a2.648,2.648,0,0,1,.158,2,.943.943,0,0,0-.044.8.691.691,0,0,0,.1.484A3.643,3.643,0,0,0,43,83.13a9.5,9.5,0,0,0,5.261,2.822c.44.066,1.4.145,1.609-.4a4.966,4.966,0,0,0,.519-.576c.246-.273.51-.541.774-.782a3.837,3.837,0,0,1,1.288-.6c.048-.018,0-.127-.04-.127a3.3,3.3,0,0,0-.958.083c-.281.057-.567.422-.752.611a8.547,8.547,0,0,0-.712.831.88.88,0,0,0-.079.119,2.248,2.248,0,0,0-.624-1.191c.084-.11.171-.229.246-.338a4.841,4.841,0,0,1,.664-.611c.04-.048-.026-.176-.084-.132a7.163,7.163,0,0,0-.7.554l-.3.334c-.141-.145-.286-.286-.409-.4a1.062,1.062,0,0,0-.141-.141c.1-.145.18-.3.277-.453a15.027,15.027,0,0,0,.826-1.4c.031-.057-.057-.2-.114-.123a6.936,6.936,0,0,1-.527.659,7.275,7.275,0,0,0-.4.629c-.092.123-.22.286-.325.44a10.224,10.224,0,0,0-1.5-1.073c-.013-.044-.062-.123-.088-.07l-.018.009c-.286-.163-.589-.316-.884-.453a3.645,3.645,0,0,1,.154-.409c.11-.251.277-.483.374-.747.022-.048-.062-.176-.092-.1-.119.246-.295.457-.426.694a2.5,2.5,0,0,0-.207.484c-.119-.048-.233-.1-.347-.141a3.324,3.324,0,0,0,.136-.338,12.6,12.6,0,0,0,.554-1.327,8.5,8.5,0,0,0,.132-2.752C46.071,76.659,45.992,76.576,45.988,76.659Zm-2.809,4.475a17.854,17.854,0,0,0,2.738,2.448,8.283,8.283,0,0,0,3.38.949c.22.44.2.844-.519.91a3.965,3.965,0,0,1-1.521-.264l-.013-.053.009,0a1.952,1.952,0,0,0,.075-.378.176.176,0,0,0-.062-.145.058.058,0,0,0-.075.009l0,0c-.092.136-.123.343-.273.453v0c-.176-.062-.352-.119-.532-.193a2.219,2.219,0,0,0,0-.382c-.009-.079-.132-.18-.123-.048a1.741,1.741,0,0,1-.053.365,11.683,11.683,0,0,1-1.7-.8c.026.013.018-.07,0-.088a16.139,16.139,0,0,1-1.837-1.451c-.844-.756-.2-1.209.479-1.367A.05.05,0,0,0,43.179,81.134Z" transform="translate(-41.764 -76.624)" fill="#130a20"/>
        <path id="Path_2373" data-name="Path 2373" d="M42.771,78.315a.975.975,0,0,1-.066.189c-.022.075-.066.084-.119.141-.035.031,0,.11.035.128.176.132.233-.264.264-.356C42.9,78.354,42.806,78.231,42.771,78.315Z" transform="translate(-39.022 -70.978)" fill="#130a20"/>
      </g>
      <path id="Path_2374" data-name="Path 2374" d="M47.9,75.991h0c-.549-.141-1.187.611-.791,1.134a.413.413,0,0,0,.563.11,1.113,1.113,0,0,0,.549-.312.584.584,0,0,0-.1-.826.762.762,0,0,0-.149-.083C47.949,75.991,47.923,75.965,47.9,75.991Z" transform="translate(-14.236 -44.286)" fill="#130a20" opacity="0.7"/>
      <path id="Path_2375" data-name="Path 2375" d="M46.8,78.021c-.4.185-.888.334-.914.853a.5.5,0,0,0,.514.549.29.29,0,0,0,.185.026c.488-.1,1.305-.738,1.086-1.305C47.521,77.752,47.1,77.88,46.8,78.021Z" transform="translate(-17.961 -37.806)" fill="#130a20" opacity="0.7"/>
      <path id="Path_2376" data-name="Path 2376" d="M46.518,71.177a.878.878,0,0,0,.1.563.815.815,0,0,0,.382.422.129.129,0,0,0,.136-.026.547.547,0,0,0,.075-.479c-.035-.132-.163-.422-.338-.448a.745.745,0,0,0-.145-.119C46.623,71.019,46.544,71.063,46.518,71.177Z" transform="translate(-15.873 -60.988)" fill="#130a20" opacity="0.7"/>
      <path id="Path_2377" data-name="Path 2377" d="M45.863,69.833a.694.694,0,0,0-.4.993,2.268,2.268,0,0,0,.633.787,3.118,3.118,0,0,0,.949.809,1.846,1.846,0,0,0,.716.167.6.6,0,0,0,.119.026.684.684,0,0,0,.791-.8,1.533,1.533,0,0,0-.242-.971A2.577,2.577,0,0,0,45.863,69.833Z" transform="translate(-19.623 -65.305)" fill="#0c0610" opacity="0.7"/>
      <path id="Path_2378" data-name="Path 2378" d="M44.95,69.826c-.079.018-.1.092-.11.167a.3.3,0,0,0,.176.312c.04.018.066.04.1.057a.085.085,0,0,0,.123-.075.252.252,0,0,0-.066-.211l-.018-.031L45.143,70C45.121,69.918,45.055,69.8,44.95,69.826Z" transform="translate(-21.518 -65.175)" fill="#130a20" opacity="0.7"/>
      <path id="Path_2379" data-name="Path 2379" d="M42.415,71.011a.558.558,0,0,0-.3.716c-.009.026.026.1.057.106l.013,0a.211.211,0,0,0,.29.035.282.282,0,0,0,.092-.11.535.535,0,0,0,.3-.312A.345.345,0,0,0,42.415,71.011Z" transform="translate(-30.917 -61.222)" fill="#130a20" opacity="0.7"/>
      <path id="Path_2380" data-name="Path 2380" d="M40.9,72.4c-1.6,2.549-1.283,5.833-.8,8.686.013.07.1.114.11.026.013-1.407-.18-2.813-.167-4.224a10.865,10.865,0,0,1,.927-4.409C41,72.435,40.941,72.347,40.9,72.4Z" transform="translate(-38.925 -56.479)" fill="#6d39ae" opacity="0.6" style="mix-blend-mode: screen;isolation: isolate"/>
    </g>
    <g id="Group_528" data-name="Group 528" transform="translate(295.967 152.993)">
      <path id="Path_2489" data-name="Path 2489" d="M61.859,20.124c-.919-1.174-1.49-2.677-2.76-3.53a5.221,5.221,0,0,0-3.719-.615c-1.442.251-2.527,1.284-3.934,1.6a15.856,15.856,0,0,1-2.044.066,4.9,4.9,0,0,0-1.947.545,5.849,5.849,0,0,0-2.382,2.607c-.29.615-.545,1.235-.888,1.824s-.8,1.081-1.143,1.657a5.969,5.969,0,0,0-.782,3.169,2.757,2.757,0,0,0,.549,1.354c.048.084.088.163.127.246.127,1.209-.11,2.426,0,3.657a6.185,6.185,0,0,0,2.018,3.719A6.905,6.905,0,0,0,49,37.966c.769.1,1.525.264,2.294.316a8.816,8.816,0,0,1,2.1.637,2.855,2.855,0,0,0,3.3-1.231c.409-.58.708-1.226,1.09-1.815a5.067,5.067,0,0,1,2.105-1.71,10.318,10.318,0,0,0,3.569-2.954,11.878,11.878,0,0,0,1.978-3.525C66.387,24.665,63.5,22.225,61.859,20.124Z" transform="translate(-42.258 -15.884)" fill="url(#radial-gradient-2)"/>
      <path id="Path_2490" data-name="Path 2490" d="M61.9,20.151c-.91-1.174-1.477-2.677-2.743-3.534a5.2,5.2,0,0,0-3.714-.637c-1.442.237-2.532,1.266-3.947,1.569a13.761,13.761,0,0,1-2.044.053,4.917,4.917,0,0,0-1.943.536,5.785,5.785,0,0,0-2.4,2.6c-.295.611-.558,1.235-.9,1.815s-.8,1.077-1.152,1.653a5.959,5.959,0,0,0-.8,3.165,2.825,2.825,0,0,0,.541,1.363c.048.075.088.158.132.242.114,1.213-.127,2.422-.022,3.653a6.177,6.177,0,0,0,2,3.732,6.9,6.9,0,0,0,4.031,1.569c.774.1,1.525.273,2.3.33a8.811,8.811,0,0,1,2.084.651,2.84,2.84,0,0,0,3.305-1.218c.418-.571.721-1.218,1.1-1.807A5.031,5.031,0,0,1,59.85,34.19a10.366,10.366,0,0,0,3.582-2.941,11.768,11.768,0,0,0,2-3.512C66.4,24.722,63.529,22.265,61.9,20.151Zm-7.094-.44a1.811,1.811,0,0,1-.308,1.064,2.524,2.524,0,0,0-.334,1.5c.057.563.2,1.112.3,1.67a3.022,3.022,0,0,1,.088,1.327c-.079.268-.22.5-.3.756-.114.374.057.607.215.919a.781.781,0,0,1-.127.932,3.454,3.454,0,0,0-.752,3.1,3.238,3.238,0,0,1,1.486-1.807.089.089,0,0,1,.105.132,3.7,3.7,0,0,0-.136,3.222c.189.4.949,1.363.369,1.771a5.474,5.474,0,0,1-1.182.418,2.465,2.465,0,0,0-1.314,1.046c-.141.259-.158.668-.422.826-.343.2-.747-.255-1.094.048-.255.22-.435.488-.8.5a8.092,8.092,0,0,1-1.081-.088,18.8,18.8,0,0,1-2.809-.308,4.794,4.794,0,0,1-2.76-2.237,5.214,5.214,0,0,1-.453-.932,5.368,5.368,0,0,1-.211-2.448,7.745,7.745,0,0,1,.343-1.24c.18-.62-.185-.945-.558-1.389-.04-.057,0-.158.079-.141a2.571,2.571,0,0,1,1.02.567,2.387,2.387,0,0,1-.431-2.088c.088-.2.246-.659.475-.73a2.417,2.417,0,0,1,.905.022c-.338-.22-.695-.413-1.02-.646a.089.089,0,0,1-.018-.123c.207-.338.009-.8.242-1.121a1.371,1.371,0,0,1,.321-.316,2.22,2.22,0,0,0-.338-.04c-.07,0-.092-.079-.062-.136a3.777,3.777,0,0,0,.369-.712c-.123.092-.237.2-.356.3-.084.07-.167-.04-.123-.119.708-1.319,1.125-2.787,2.264-3.829a1.6,1.6,0,0,1,1.481-.549c.378.123.681.813.8,1.156.026.075-.057.167-.132.11a7.2,7.2,0,0,1-.549-.549,3.621,3.621,0,0,1,.29.743.088.088,0,0,1-.075.1c-.334.062-.668.114-1.007.158l.193.1c.062.031.079.163-.018.167-.369.022-1.2.286-1.191.769,0,.44.756.484,1.051.642a.082.082,0,0,1,.026.1c-.237.532-.8,1.081-.7,1.7a4,4,0,0,0,1.415-1.2c.18-.211.36-.422.541-.642.084-.1.193-.268.338-.29.382-.062.532.541.567.8a8.81,8.81,0,0,0,.176,1.156l.04.066c.352-.585.2-1.314.378-1.952a.088.088,0,0,1,.132-.04,1.658,1.658,0,0,1,.321.312,2.382,2.382,0,0,0,.233.237c.132.105.224-.018.171-.158a5.84,5.84,0,0,1-.374-.919c-.031-.171-.031-.369.171-.422.312-.084.6,0,.87-.171a1.472,1.472,0,0,0-.523-.176.086.086,0,0,1,.022-.171,5.336,5.336,0,0,0,2.132-.338,5.053,5.053,0,0,1,1.543-.488A.08.08,0,0,1,54.8,19.711Z" transform="translate(-42.257 -15.867)" fill="#170d24" opacity="0.2" style="mix-blend-mode: multiply;isolation: isolate"/>
      <path id="Path_2491" data-name="Path 2491" d="M42.941,18.975c-.119.484-.11.985-.237,1.468a5.772,5.772,0,0,0-.176,1.222,4.353,4.353,0,0,0,.818,2.611,4.494,4.494,0,0,0,2.343,1.732,9,9,0,0,0,1.6.3,5.328,5.328,0,0,0,1.288.119c.035,0,.044-.079.009-.088-1.8-.259-3.609-.527-4.875-1.96a4.193,4.193,0,0,1-1.029-2.747,6.57,6.57,0,0,1,.176-1.319c.088-.448.04-.888.119-1.327C42.985,18.949,42.95,18.944,42.941,18.975Z" transform="translate(-41.348 -5.46)" fill="#341b54" opacity="0.6" style="mix-blend-mode: screen;isolation: isolate"/>
      <path id="Path_2492" data-name="Path 2492" d="M44.093,17.6c-.048.079-.286.233-.413.387-.132-.062-.3.224-.356.316a8.411,8.411,0,0,0-.809,1.631,3.244,3.244,0,0,0-.154.8,1.56,1.56,0,0,0,.088,1.094h0a.822.822,0,0,0,.141.158c.075.07.105.171.189.237.035.026.053-.062.035-.084a1.144,1.144,0,0,1-.123-.268l-.044-.07a1.521,1.521,0,0,0,.22-.29l.075.062c.079.066.149.141.224.211a.953.953,0,0,1,.233.246c.022.057.066-.022.062-.053a1.581,1.581,0,0,0-.246-.4,1.392,1.392,0,0,0-.176-.215l-.053-.066a5.4,5.4,0,0,0,.422-1.108l.035.013c.092.031.18.062.273.1.04.018.057-.057.026-.075a2.146,2.146,0,0,0-.242-.136l-.066-.026.022-.07c.079.035.158.057.229.088a3.286,3.286,0,0,0,.532.215c.035.009.048-.062.022-.079a5.339,5.339,0,0,0-.484-.343c-.062-.035-.149-.092-.233-.132l.066-.268c.013-.084.031-.163.044-.246a6.1,6.1,0,0,0,.141-.673V18.5c.04-.026.079-.062.119-.084.1-.053.207-.092.308-.141.026-.013.035-.1-.009-.088a1.822,1.822,0,0,0-.431.123l0-.031.031-.031a.977.977,0,0,1,.2-.127c.018-.009.022-.057,0-.048a2.058,2.058,0,0,0-.211.079,2.135,2.135,0,0,0,.352-.514C44.15,17.607,44.119,17.55,44.093,17.6Zm-.47.69,0,.048a11.018,11.018,0,0,0-.782,1.789,6.338,6.338,0,0,0-.308,1.305c-.026-.035-.057-.07-.092-.123v-.018a4.645,4.645,0,0,1,.593-2.207c.132-.242.273-.479.413-.721C43.556,18.17,43.6,18.183,43.622,18.289Z" transform="translate(-42.086 -10.128)" fill="#09050f" opacity="0.7"/>
      <path id="Path_2493" data-name="Path 2493" d="M47.06,20.724a1.507,1.507,0,0,0-1.916.171l0,.009c-.255.167-.453.391-.29.633.352.519,1.451.277,1.916.07C47.213,21.414,47.5,21.075,47.06,20.724Z" transform="translate(-33.66 -0.348)" fill="#09050f" opacity="0.7"/>
      <path id="Path_2494" data-name="Path 2494" d="M48.832,16.977a3.045,3.045,0,0,0-.145,2.98.768.768,0,0,0-.167-.04,3.577,3.577,0,0,1-.435-.7c-.009-.035-.035.018-.026.031a2.735,2.735,0,0,0,.325.664,1.047,1.047,0,0,0-.62.3,2.265,2.265,0,0,0-.409.382,2.037,2.037,0,0,1-.378-.356,1.771,1.771,0,0,1-.44-.927c0-.044-.04-.031-.048,0a1.611,1.611,0,0,0,.325.98,2.314,2.314,0,0,0,.4.5,4.15,4.15,0,0,0-.4.831,7.6,7.6,0,0,0-.343,1.209l-.079-.009c-.092-.009-.176-.018-.268-.035a1.265,1.265,0,0,0-.259-.022,1.439,1.439,0,0,1-.237.018c-.031,0-.044.07-.009.079a1.329,1.329,0,0,0,.189.009c.1.013.2.026.295.044s.193.044.29.062l.053.013a.662.662,0,0,0-.013.127l-.088,0a.984.984,0,0,0-.229-.018c-.022,0-.031.066,0,.066a1.656,1.656,0,0,1,.237.053l.066.013c-.022.171-.04.347-.048.523a2,2,0,0,0-.615.431,3.229,3.229,0,0,0-.822,1.178c-.009.022.013.057.026.026a3.494,3.494,0,0,1,.963-1.143,2.066,2.066,0,0,1,.448-.255v.031a3.165,3.165,0,0,0,.365,1.477,1.958,1.958,0,0,0-.347.743,2.656,2.656,0,0,0-.048.673c0,.176.136.409.114.576,0,.022.013.044.026.022.1-.176-.026-.554-.022-.734a2.134,2.134,0,0,1,.378-1.112,1.571,1.571,0,0,0,.132.167.775.775,0,0,0,.3.22.669.669,0,0,0-.066.237c-.009.145.013.286.009.435,0,.044.048.031.053,0,.013-.105.009-.207.018-.312a.838.838,0,0,1,.022-.176.8.8,0,0,1,.062-.141.947.947,0,0,0,.334.022.349.349,0,0,0-.018.211l.013.084c0,.018,0,.048.018.053v0l.018-.009a.221.221,0,0,0,.018-.132,1.291,1.291,0,0,1,.022-.224,1.933,1.933,0,0,0,.818-.4A6.28,6.28,0,0,0,49.8,24.4a.6.6,0,0,0,.207.119,1.491,1.491,0,0,0,.33.123c.035,0,.053-.07.022-.079a1.019,1.019,0,0,1-.264-.193c-.044-.035-.106-.057-.158-.092l-.031-.026a2.708,2.708,0,0,0,.426-2.189,3.479,3.479,0,0,0-.567-1.134.529.529,0,0,1,.048-.1,1.383,1.383,0,0,1,.1-.127c.013-.026,0-.1-.026-.062a.679.679,0,0,0-.171.22,3.644,3.644,0,0,0-.268-.316h0a1.015,1.015,0,0,1,.119-.308c.04-.066.066-.132.1-.2l.057-.1c-.013.026.141-.211.079-.079l.009.009.048-.1-.013-.026c-.2.026-.325.33-.413.479a1.161,1.161,0,0,0-.092.215c-.092-.088-.185-.171-.286-.255l-.066-.044a4.532,4.532,0,0,1-.457-1.468,4.472,4.472,0,0,1,.347-1.64C48.885,16.991,48.858,16.933,48.832,16.977Zm1.262,5.094c.51,1.288-.62,2.453-1.468,3.283-.453.44-1.086.708-1.582.229h.04c.387.07.963-.352,1.213-.536a2.878,2.878,0,0,0,.84-1.415,4.2,4.2,0,0,0,.391-1.67,2.709,2.709,0,0,0-.338-.945c-.119-.237-.316-.462-.453-.69.079.048.154.1.22.145A3.535,3.535,0,0,1,50.093,22.072Z" transform="translate(-33.195 -12.228)" fill="#09050f" opacity="0.7"/>
      <path id="Path_2495" data-name="Path 2495" d="M49.343,16.587a1.809,1.809,0,0,0-.743-.365,3.172,3.172,0,0,0-1.807-.158,1.357,1.357,0,0,0-.8.453,4.071,4.071,0,0,0-.422.5,5.382,5.382,0,0,1-.782.58c-.009,0-.022.048,0,.048.457-.009.848-.444,1.121-.84a.36.36,0,0,0,.167.237,5.815,5.815,0,0,1-.374.571c-.013.013-.009.062.013.048a3.344,3.344,0,0,0,.466-.554,2.675,2.675,0,0,0,.527.189,2.4,2.4,0,0,0,.409.084l-.013.07-.009.031,0,.018v.031c.031.022.053-.062.075-.141l.075.009a.611.611,0,0,1-.053.141c-.009.026.013.084.04.04a.728.728,0,0,0,.066-.18c.057.009.119.013.18.018-.044.105-.075.215-.11.325a1.415,1.415,0,0,0-.062.308,1.943,1.943,0,0,1-.044.321l.018.026c.026-.022.026-.035.026-.075.022-.141.053-.277.084-.418a2.832,2.832,0,0,1,.18-.488c.123,0,.251,0,.369,0l0,.057a4.335,4.335,0,0,0,.026.633c0,.035.04.022.04-.009-.009-.185-.009-.369,0-.549l.018-.141a2.586,2.586,0,0,0,.413-.048c.018.149.079.3.105.44.009.04.044,0,.04-.026a2.368,2.368,0,0,0-.053-.3l-.013-.127c.079-.013.149-.031.229-.048a2.551,2.551,0,0,0,.352-.119,1.558,1.558,0,0,0,.259.8c.022.035.048-.031.04-.053a2.357,2.357,0,0,1-.127-.448,1.9,1.9,0,0,0-.079-.356A.568.568,0,0,0,49.326,17a2.971,2.971,0,0,0,.607.888c.031.031.053-.04.035-.066a9.108,9.108,0,0,1-.6-1.209Zm-.224.321L49.1,16.86l-.035-.018-.013,0c-.154-.22-1.38-.347-1.494-.347-.176,0-1.231.066-1.319.308-.084-.1-.1-.215.114-.334a2.152,2.152,0,0,1,1.015-.246,3.921,3.921,0,0,1,1.679.422C49.246,16.741,49.224,16.829,49.119,16.908Z" transform="translate(-33.702 -15.503)" fill="#09050f" opacity="0.7"/>
      <path id="Path_2496" data-name="Path 2496" d="M48.276,17.3c-.519.176-1.037.33-1.543.523a.353.353,0,0,0-.3-.149l.053-.075a12.025,12.025,0,0,0,.747-.949c.013-.022,0-.088-.031-.053-.207.277-.457.519-.686.778-.088.1-.171.2-.255.295-.149,0-.294.031-.378.04.018-.057.026-.123.04-.154a2.8,2.8,0,0,0,.123-.466c0-.035-.026-.044-.035,0a5.663,5.663,0,0,1-.233.646l-.11.031v-.031c0-.075,0-.149,0-.229,0-.053-.048-.026-.048.013,0,.088-.009.18-.009.268l-.132.062A2.364,2.364,0,0,0,45.1,18c-.084-.11-.2-.211-.281-.3a3.954,3.954,0,0,0-.58-.629c-.026-.018-.04.044-.022.057a3.185,3.185,0,0,1,.47.611c.079.114.18.224.264.343a2.728,2.728,0,0,0-.237.154,1.6,1.6,0,0,0-.312-.158c-.026-.018-.044.057-.022.066a1.376,1.376,0,0,0,.158.1l.088.057a2.467,2.467,0,0,0-.391.369c-.044,0-.088.009-.136.009-.171.009-.4.088-.567.009-.035-.018-.053.057-.026.07a1.019,1.019,0,0,0,.527.075l.092,0a.517.517,0,0,0-.057.145c-.079.035-.158.084-.237.127-.167.092-.321.2-.5.277-.018.009-.022.057,0,.048a2.792,2.792,0,0,0,.4-.185c.1-.053.229-.092.33-.154.044.141.242.171.453.158l-.035.062a.655.655,0,0,0-.1.251c0,.035.031.035.044,0a1.5,1.5,0,0,1,.207-.325l.088-.009c-.079.145-.158.29-.237.431a6.762,6.762,0,0,1-.532.936c-.013.022,0,.084.022.053a4.252,4.252,0,0,0,.435-.668c.167-.255.33-.519.484-.787L45,19.17a3.231,3.231,0,0,0,.571-.229,1.9,1.9,0,0,0,.084.2,4.657,4.657,0,0,0,.273.532c.026.044.062-.04.048-.07a6.035,6.035,0,0,1-.281-.725,3.143,3.143,0,0,0,.47-.316l.163.048c.026.013.04-.053.018-.066l-.1-.053.035-.022.057-.044.092,0c.11.009.22.013.325.018.04,0,.053-.088.013-.1l-.277-.053a1.018,1.018,0,0,0,.211-.229c.18-.092.356-.189.541-.268.343-.149.7-.268,1.037-.426C48.3,17.364,48.307,17.293,48.276,17.3Z" transform="translate(-38.648 -13.493)" fill="#09050f" opacity="0.7"/>
      <path id="Path_2497" data-name="Path 2497" d="M48.031,19.3a10.985,10.985,0,0,0-.5.989,6.56,6.56,0,0,0-.44,1.1,1.369,1.369,0,0,0-.158.813c.07.413.527,0,.673-.141a5.424,5.424,0,0,0,1.051-1.741,3.654,3.654,0,0,0,.369-1.7C48.888,17.813,48.141,19.1,48.031,19.3Z" transform="translate(-26.434 -7.472)" fill="#070308" opacity="0.7"/>
      <g id="Group_527" data-name="Group 527" transform="translate(2.022 14.377)" opacity="0.7">
        <path id="Path_2498" data-name="Path 2498" d="M45.955,19.444A5.34,5.34,0,0,1,45,20.5c-.246.193-.492.352-.73.558a2.562,2.562,0,0,0-.765-.607,3.5,3.5,0,0,1,.242-.268c.106-.11.185-.242.281-.36.013-.022,0-.1-.026-.062-.11.123-.211.251-.325.369a.858.858,0,0,0-.237.295l-.048-.022a.793.793,0,0,0,.079-.088.585.585,0,0,0,.088-.154c.013-.04-.022-.075-.044-.026a.453.453,0,0,1-.145.185.215.215,0,0,0-.053.057.689.689,0,0,0-.136-.035.331.331,0,0,0,.07-.066,1.772,1.772,0,0,0,.211-.418,1.06,1.06,0,0,0,.105-.694c-.013-.031-.04,0-.04.026a1.344,1.344,0,0,1-.479.923.5.5,0,0,0-.242.338.39.39,0,0,0-.088.242,1.914,1.914,0,0,0,.132.774,4.93,4.93,0,0,0,1.543,2.694c.176.149.571.453.818.264a1.954,1.954,0,0,0,.387-.11c.185-.053.374-.092.558-.127a1.9,1.9,0,0,1,.734.088c.026,0,.035-.053.018-.066a1.8,1.8,0,0,0-.448-.229,1.016,1.016,0,0,0-.5.062,4.116,4.116,0,0,0-.545.171l-.066.031a1.169,1.169,0,0,0,.053-.7l.2-.079a2.769,2.769,0,0,1,.462-.092c.031-.009.035-.079,0-.075a4,4,0,0,0-.462.048l-.224.066c-.022-.1-.048-.207-.066-.29l-.022-.1c.079-.04.163-.079.242-.123a8.082,8.082,0,0,0,.752-.387c.031-.018.031-.11-.018-.088a3.478,3.478,0,0,1-.409.145,3.294,3.294,0,0,0-.356.167c-.075.031-.176.062-.264.1a5.567,5.567,0,0,0-.365-.888c0-.022,0-.07-.022-.057h-.009c-.079-.149-.171-.3-.264-.44a1.139,1.139,0,0,1,.18-.136c.119-.084.255-.141.374-.229.018-.018.018-.1-.013-.07-.123.079-.259.119-.382.189a1.558,1.558,0,0,0-.224.154l-.114-.154c.044-.026.088-.066.154-.11.2-.145.418-.273.607-.435a4.332,4.332,0,0,0,.822-1.178C45.994,19.471,45.981,19.409,45.955,19.444Zm-2.47,1.2a9.124,9.124,0,0,0,.532,1.833,4.248,4.248,0,0,0,1.226,1.354c-.026.251-.145.426-.479.255a1.984,1.984,0,0,1-.6-.536l.009-.022h0a1,1,0,0,0,.136-.149.083.083,0,0,0,.013-.079l-.035-.018v0c-.079.035-.149.119-.246.127h0c-.057-.07-.119-.149-.18-.233a.844.844,0,0,0,.11-.167c.018-.04-.009-.114-.044-.053a.744.744,0,0,1-.123.145,6.277,6.277,0,0,1-.523-.826l.022-.035a8.09,8.09,0,0,1-.409-1.147c-.163-.567.242-.589.589-.475Z" transform="translate(-42.718 -19.155)" fill="#09050f"/>
        <path id="Path_2499" data-name="Path 2499" d="M43.1,19.927a.535.535,0,0,1-.075.066.244.244,0,0,1-.1.026c-.026,0-.031.048-.022.066.044.105.176-.053.215-.084S43.14,19.9,43.1,19.927Z" transform="translate(-42.088 -16.552)" fill="#09050f"/>
      </g>
      <path id="Path_2500" data-name="Path 2500" d="M46.116,20.243h0c-.2-.215-.695-.062-.664.281a.216.216,0,0,0,.22.2.549.549,0,0,0,.325.013.3.3,0,0,0,.185-.391.562.562,0,0,0-.044-.075Z" transform="translate(-31.415 -1.423)" fill="#09050f" opacity="0.7"/>
      <path id="Path_2501" data-name="Path 2501" d="M45.118,20.743c-.229-.031-.484-.1-.642.123a.265.265,0,0,0,.079.382.158.158,0,0,0,.075.066c.242.088.774.035.835-.277C45.51,20.822,45.29,20.765,45.118,20.743Z" transform="translate(-34.892 0.494)" fill="#09050f" opacity="0.7"/>
      <path id="Path_2502" data-name="Path 2502" d="M46.741,17.841a.471.471,0,0,0-.11.277.4.4,0,0,0,.053.29.063.063,0,0,0,.066.026.271.271,0,0,0,.163-.189c.022-.07.048-.233-.022-.29a.412.412,0,0,0-.031-.1C46.833,17.8,46.785,17.8,46.741,17.841Z" transform="translate(-27.429 -9.334)" fill="#09050f" opacity="0.7"/>
      <path id="Path_2503" data-name="Path 2503" d="M46.915,16.991a.357.357,0,0,0-.444.325,1.225,1.225,0,0,0,.057.523,1.6,1.6,0,0,0,.2.62,1.035,1.035,0,0,0,.268.268l.048.044a.353.353,0,0,0,.567-.132.811.811,0,0,0,.163-.5A1.337,1.337,0,0,0,46.915,16.991Z" transform="translate(-27.981 -12.188)" fill="#070308" opacity="0.7"/>
      <path id="Path_2504" data-name="Path 2504" d="M46.375,16.816c-.035-.013-.066.009-.092.04a.152.152,0,0,0-.009.185l.031.057a.041.041,0,0,0,.07,0,.13.13,0,0,0,.031-.11v-.013l.009-.031C46.428,16.9,46.428,16.829,46.375,16.816Z" transform="translate(-28.712 -12.734)" fill="#09050f" opacity="0.7"/>
      <path id="Path_2505" data-name="Path 2505" d="M45.016,16.581a.283.283,0,0,0-.33.233l0,.062h0c.013.057.044.105.119.1a.146.146,0,0,0,.07-.022.255.255,0,0,0,.215-.057A.175.175,0,0,0,45.016,16.581Z" transform="translate(-34.025 -13.532)" fill="#09050f" opacity="0.7"/>
      <path id="Path_2506" data-name="Path 2506" d="M45.547,16.6c-1.407.681-2.176,2.215-2.752,3.6-.013.035.013.079.04.044.4-.62.7-1.288,1.094-1.908a5.675,5.675,0,0,1,1.626-1.688C45.578,16.639,45.578,16.582,45.547,16.6Z" transform="translate(-40.442 -13.477)" fill="#341b54" opacity="0.6" style="mix-blend-mode: screen;isolation: isolate"/>
    </g>
    <g id="Group_530" data-name="Group 530" transform="translate(274.741 290.182)">
      <path id="Path_2507" data-name="Path 2507" d="M60.647,60.223c.382-1.437,1.24-2.8,1.16-4.33a5.231,5.231,0,0,0-1.749-3.336c-1.068-1-2.549-1.248-3.644-2.185a16.587,16.587,0,0,1-1.284-1.587,4.824,4.824,0,0,0-1.6-1.231,5.841,5.841,0,0,0-3.516-.334c-.664.136-1.314.308-1.991.391s-1.345.013-2.009.084A5.948,5.948,0,0,0,43,48.98a2.754,2.754,0,0,0-.752,1.253c-.035.088-.075.171-.114.251-.892.831-2,1.371-2.923,2.2a6.184,6.184,0,0,0-1.754,3.851,6.942,6.942,0,0,0,1.2,4.167c.391.668.708,1.371,1.134,2.018a9.016,9.016,0,0,1,.752,2.057,2.852,2.852,0,0,0,2.967,1.894c.712-.022,1.407-.167,2.11-.22a5.065,5.065,0,0,1,2.629.651,10.3,10.3,0,0,0,4.51,1.077,12.064,12.064,0,0,0,4-.541C59.751,66.571,59.962,62.8,60.647,60.223Z" transform="translate(-37.429 -47.095)" fill="url(#radial-gradient-3)"/>
      <path id="Path_2508" data-name="Path 2508" d="M60.633,60.271c.391-1.433,1.248-2.791,1.178-4.316A5.231,5.231,0,0,0,60.079,52.6c-1.055-1.011-2.536-1.257-3.626-2.207a13.662,13.662,0,0,1-1.275-1.6,4.912,4.912,0,0,0-1.6-1.226,5.77,5.77,0,0,0-3.512-.352c-.668.127-1.323.295-1.991.374s-1.345.009-2.013.079a5.879,5.879,0,0,0-3.011,1.262,2.832,2.832,0,0,0-.765,1.253,2.418,2.418,0,0,1-.11.251c-.9.822-2.013,1.354-2.932,2.185a6.151,6.151,0,0,0-1.78,3.837,6.891,6.891,0,0,0,1.174,4.163c.387.677.7,1.38,1.125,2.035a9.026,9.026,0,0,1,.734,2.057,2.847,2.847,0,0,0,2.963,1.908c.708-.013,1.4-.154,2.105-.207a5.075,5.075,0,0,1,2.629.673,10.385,10.385,0,0,0,4.5,1.09A11.756,11.756,0,0,0,56.7,67.66C59.693,66.618,59.93,62.847,60.633,60.271Zm-3.916-5.93a1.829,1.829,0,0,1-1.037.4,2.542,2.542,0,0,0-1.4.637c-.413.387-.769.831-1.152,1.248a3,3,0,0,1-1.011.87c-.259.1-.532.123-.782.215-.369.132-.453.409-.607.725a.767.767,0,0,1-.818.453,3.45,3.45,0,0,0-2.932,1.27,3.244,3.244,0,0,1,2.338.1.088.088,0,0,1-.044.163,3.722,3.722,0,0,0-2.655,1.829c-.2.391-.519,1.578-1.191,1.363a5.245,5.245,0,0,1-1.042-.695,2.482,2.482,0,0,0-1.631-.418c-.29.044-.624.277-.91.158-.374-.149-.251-.747-.7-.844-.33-.066-.646-.053-.879-.343a8.23,8.23,0,0,1-.58-.914,18.84,18.84,0,0,1-1.446-2.431,4.8,4.8,0,0,1,.127-3.552,4.9,4.9,0,0,1,.47-.919,5.325,5.325,0,0,1,1.824-1.644,8.458,8.458,0,0,1,1.2-.475c.607-.224.646-.712.778-1.279.018-.066.127-.1.158-.026a2.6,2.6,0,0,1,.163,1.16c.3-.664.655-1.446,1.407-1.6.215-.044.677-.2.87-.057a2.465,2.465,0,0,1,.527.734c-.031-.4-.088-.8-.1-1.2a.092.092,0,0,1,.088-.092c.4-.04.646-.47,1.042-.479a1.358,1.358,0,0,1,.444.066,1.657,1.657,0,0,0-.171-.295c-.044-.057.013-.123.075-.132a3.676,3.676,0,0,0,.791-.132c-.154-.044-.3-.07-.453-.105-.11-.026-.075-.158.018-.171,1.481-.229,2.905-.778,4.426-.5a1.578,1.578,0,0,1,1.323.853c.132.378-.237,1.037-.444,1.332-.044.066-.167.057-.163-.04a6.727,6.727,0,0,1,.105-.769,3.881,3.881,0,0,1-.418.681.089.089,0,0,1-.123,0c-.251-.233-.492-.47-.734-.708l.04.207c.009.075-.084.167-.145.092-.242-.286-.949-.782-1.327-.492-.352.273.066.9.114,1.226a.082.082,0,0,1-.062.084c-.567.132-1.349,0-1.78.466a4.012,4.012,0,0,0,1.807.409c.277.013.554.031.84.044.132,0,.33-.009.435.1.277.264-.11.752-.3.936a9.665,9.665,0,0,0-.813.835l-.026.075c.673-.075,1.169-.633,1.78-.875a.084.084,0,0,1,.11.079,1.715,1.715,0,0,1-.053.448,2.764,2.764,0,0,0-.048.325c0,.171.149.171.233.044a6.182,6.182,0,0,1,.505-.857c.114-.123.273-.242.44-.114.251.2.356.479.659.593a1.493,1.493,0,0,0-.171-.523.087.087,0,0,1,.149-.088,5.284,5.284,0,0,0,1.556,1.5,4.852,4.852,0,0,1,1.31.936A.079.079,0,0,1,56.717,54.341Z" transform="translate(-37.428 -47.086)" fill="#301a4c" opacity="0.2" style="mix-blend-mode: multiply;isolation: isolate"/>
      <path id="Path_2509" data-name="Path 2509" d="M41.82,48.083c-.462.193-.853.5-1.314.694a5.392,5.392,0,0,0-1.081.593,4.375,4.375,0,0,0-1.6,2.224,4.474,4.474,0,0,0,.031,2.914,9,9,0,0,0,.721,1.459,5.531,5.531,0,0,0,.681,1.1c.018.031.092-.013.079-.048-.879-1.591-1.749-3.2-1.367-5.072a4.13,4.13,0,0,1,1.574-2.47,6.425,6.425,0,0,1,1.156-.659c.409-.2.734-.5,1.13-.7C41.864,48.1,41.847,48.07,41.82,48.083Z" transform="translate(-36.847 -43.751)" fill="#6d39ae" opacity="0.6" style="mix-blend-mode: screen;isolation: isolate"/>
      <path id="Path_2510" data-name="Path 2510" d="M43.182,47.485c-.092.009-.356-.084-.558-.1-.035-.141-.36-.105-.47-.092a8.286,8.286,0,0,0-1.789.334,3.414,3.414,0,0,0-.73.356c-.347.18-.734.426-.818.73h0a.758.758,0,0,0-.044.207c-.013.106-.075.193-.079.3,0,.04.084,0,.088-.022a1.289,1.289,0,0,1,.145-.264l.026-.075a1.446,1.446,0,0,0,.365,0l0,.1c0,.1-.022.2-.035.3a.978.978,0,0,1-.057.338c-.026.048.062.035.084.018a1.6,1.6,0,0,0,.171-.444,1.079,1.079,0,0,0,.07-.273.364.364,0,0,1,.022-.079,5.19,5.19,0,0,0,1.134-.33l.013.035a1.893,1.893,0,0,1,.079.281c.013.044.079.009.075-.026a2.013,2.013,0,0,0-.035-.273l-.013-.066.066-.026c.018.084.053.158.07.233a3.356,3.356,0,0,0,.145.558c.013.035.079,0,.079-.031-.009-.2.009-.4-.018-.6a2.208,2.208,0,0,0-.04-.259c.088-.04.171-.075.255-.114s.154-.066.224-.105a6.733,6.733,0,0,0,.62-.3l.044-.031c.048.022.092.026.136.044.106.053.2.11.3.163.026.013.1-.031.066-.057a1.665,1.665,0,0,0-.36-.277l.026-.013.048.009a.678.678,0,0,1,.22.088c.018.009.057-.018.04-.031a1.231,1.231,0,0,0-.189-.119,2.243,2.243,0,0,0,.62-.035C43.208,47.533,43.235,47.476,43.182,47.485Zm-.84.044-.035.022A11.1,11.1,0,0,0,40.4,48a6.515,6.515,0,0,0-1.226.545l.04-.149.018-.013a4.671,4.671,0,0,1,2.119-.853c.268-.04.549-.07.826-.1C42.4,47.4,42.421,47.445,42.342,47.529Z" transform="translate(-33.132 -46.462)" fill="#130a20" opacity="0.7"/>
      <path id="Path_2511" data-name="Path 2511" d="M40.488,52.32A1.505,1.505,0,0,0,39.2,50.9h-.009c-.286-.105-.589-.123-.686.149-.2.593.655,1.323,1.1,1.569C40.027,52.857,40.475,52.887,40.488,52.32Z" transform="translate(-33.885 -34.432)" fill="#130a20" opacity="0.7"/>
      <path id="Path_2512" data-name="Path 2512" d="M49.685,49.791a3.034,3.034,0,0,0-2.466,1.679.906.906,0,0,0-.07-.163,3.4,3.4,0,0,1,.295-.76c.022-.035-.035-.022-.044,0a2.789,2.789,0,0,0-.334.655,1.03,1.03,0,0,0-.611-.308,1.878,1.878,0,0,0-.549-.1,2.152,2.152,0,0,1,.048-.519,1.829,1.829,0,0,1,.479-.91c.04-.022,0-.048-.031-.035a1.593,1.593,0,0,0-.585.848,2.373,2.373,0,0,0-.158.62,4.145,4.145,0,0,0-.9.18,7.3,7.3,0,0,0-1.174.457l-.04-.075a2.484,2.484,0,0,1-.136-.233,1.089,1.089,0,0,0-.141-.22,1.23,1.23,0,0,1-.154-.18c-.018-.022-.084.013-.07.04a1.271,1.271,0,0,0,.11.158c.053.088.1.176.141.264s.084.18.123.268l.022.048-.11.066-.048-.07a1.3,1.3,0,0,0-.123-.193c-.013-.013-.07.013-.053.035a1.675,1.675,0,0,1,.1.22l.026.062c-.149.084-.3.18-.444.277a2.144,2.144,0,0,0-.712-.233,3.3,3.3,0,0,0-1.437.053c-.026,0-.04.044-.009.035a3.419,3.419,0,0,1,1.49.088,1.776,1.776,0,0,1,.479.2l-.031.022a3.2,3.2,0,0,0-.958,1.182,1.832,1.832,0,0,0-.8.167,2.521,2.521,0,0,0-.563.365c-.141.11-.251.356-.4.444-.018,0-.026.031,0,.031.2-.031.426-.356.571-.457a2.113,2.113,0,0,1,1.116-.369,1.515,1.515,0,0,0-.053.2.823.823,0,0,0,0,.374.613.613,0,0,0-.224.088c-.123.084-.224.185-.343.273-.04.026,0,.053.035.035.088-.048.171-.119.255-.171a.915.915,0,0,1,.158-.088.532.532,0,0,1,.149-.035.815.815,0,0,0,.18.277.325.325,0,0,0-.176.114l-.062.062c-.013.013-.044.022-.031.044h0l.018.013a.238.238,0,0,0,.119-.062,1.739,1.739,0,0,1,.189-.123,1.917,1.917,0,0,0,.818.409,6.286,6.286,0,0,0,1.767.193.6.6,0,0,0,.035.233,1.306,1.306,0,0,0,.1.338c.018.031.084,0,.075-.031a.877.877,0,0,1,0-.321c0-.066-.018-.127-.022-.185v-.044a2.691,2.691,0,0,0,2-.976,3.569,3.569,0,0,0,.567-1.134l.11-.022c.048,0,.105,0,.163,0,.031,0,.079-.053.031-.057a.758.758,0,0,0-.281,0,3.01,3.01,0,0,0,.092-.4h0a1.119,1.119,0,0,1,.321-.088,1.3,1.3,0,0,0,.22-.044l.114-.018c-.026.009.255-.013.11.022V52.3a.452.452,0,0,0,.105-.022l.018-.026c-.141-.141-.466-.057-.637-.04a1.391,1.391,0,0,0-.224.057c.009-.123.022-.251.026-.382a.238.238,0,0,0,0-.079,4.646,4.646,0,0,1,.9-1.248,4.465,4.465,0,0,1,1.521-.712C49.707,49.84,49.733,49.787,49.685,49.791Zm-3.31,4.075c-.725,1.178-2.33.976-3.512.8-.615-.092-1.213-.44-1.125-1.125l.018.031c.176.352.862.558,1.16.651a2.907,2.907,0,0,0,1.635-.185,4.179,4.179,0,0,0,1.569-.694,2.912,2.912,0,0,0,.554-.835c.114-.237.176-.532.277-.782.009.1.013.185.018.268A3.6,3.6,0,0,1,46.375,53.866Z" transform="translate(-29.257 -39.52)" fill="#130a20" opacity="0.7"/>
      <path id="Path_2513" data-name="Path 2513" d="M45.509,51.274a1.792,1.792,0,0,0-.154-.813,3.183,3.183,0,0,0-.963-1.543,1.341,1.341,0,0,0-.844-.36,3.615,3.615,0,0,0-.651-.04,5.035,5.035,0,0,1-.932-.277l-.04.031a1.638,1.638,0,0,0,1.345.387.379.379,0,0,0-.092.277,5.98,5.98,0,0,1-.677.048c-.018,0-.053.031-.031.04a3.019,3.019,0,0,0,.721.035,2.5,2.5,0,0,0,.167.536,2.911,2.911,0,0,0,.176.378L43.47,50l-.026.013H43.43l-.026.022c0,.035.079.009.163-.022l.035.062a.553.553,0,0,1-.145.044c-.026.009-.062.066-.013.057a.691.691,0,0,0,.185-.057,1.478,1.478,0,0,0,.1.154c-.11.026-.22.075-.321.11a1.727,1.727,0,0,0-.29.136,2.2,2.2,0,0,1-.281.158c-.009,0-.031.022-.009.031a.084.084,0,0,0,.075-.022c.127-.07.255-.127.382-.189a2.429,2.429,0,0,1,.5-.145c.07.1.149.2.22.29l-.04.031a4.342,4.342,0,0,0-.492.4c-.031.026,0,.04.031.026a5.27,5.27,0,0,1,.44-.334l.119-.066a3.732,3.732,0,0,0,.29.3c-.11.106-.193.246-.29.347-.026.031.026.035.044.018a2.545,2.545,0,0,0,.211-.224l.092-.084c.057.053.119.1.176.149a1.973,1.973,0,0,0,.308.211,1.59,1.59,0,0,0-.488.695c-.013.04.057.018.07,0a2.249,2.249,0,0,1,.277-.369,1.758,1.758,0,0,0,.237-.277.592.592,0,0,0,.185.044,2.916,2.916,0,0,0-.343,1.02c-.009.044.062.018.07-.013a9.055,9.055,0,0,1,.6-1.2Zm-.4.013.026-.048,0-.04,0-.009c.079-.251-.563-1.31-.629-1.4-.105-.145-.8-.945-1.037-.87.026-.127.114-.207.33-.11a2.127,2.127,0,0,1,.813.659,4,4,0,0,1,.673,1.6C45.329,51.287,45.246,51.322,45.114,51.287Z" transform="translate(-22.154 -43.205)" fill="#130a20" opacity="0.7"/>
      <path id="Path_2514" data-name="Path 2514" d="M45.5,50.822c-.457-.308-.888-.633-1.349-.919a.341.341,0,0,0-.066-.33l.092,0a11.113,11.113,0,0,0,1.209.022c.026,0,.07-.057.026-.057-.347,0-.69-.053-1.033-.079-.132-.009-.264-.022-.391-.026-.092-.114-.2-.215-.259-.277.057-.022.114-.053.149-.062a2.541,2.541,0,0,0,.444-.18c.031-.013.018-.048-.022-.031a4.638,4.638,0,0,1-.651.2l-.092-.062.026-.022c.057-.048.123-.092.18-.136.04-.035-.009-.057-.04-.031-.066.053-.149.1-.22.154l-.127-.07a2.013,2.013,0,0,0-.347-.207c.04-.136.048-.29.075-.4a4,4,0,0,0,.149-.844c0-.026-.057,0-.057.018a3.054,3.054,0,0,1-.207.743c-.04.132-.07.281-.114.418-.084-.035-.176-.07-.264-.1a1.826,1.826,0,0,0-.062-.338c0-.035-.075,0-.07.022,0,.062.009.119.018.18l.013.11a2.459,2.459,0,0,0-.532-.092l-.092-.1c-.11-.136-.312-.273-.347-.448-.009-.04-.075-.009-.07.022a1.03,1.03,0,0,0,.259.462l.048.079a.551.551,0,0,0-.149.044,1.57,1.57,0,0,0-.246-.114c-.171-.079-.347-.136-.514-.229-.018-.009-.066.018-.044.026a2.8,2.8,0,0,0,.391.211c.11.053.211.127.321.171-.084.123.009.3.149.457l-.07.009a.7.7,0,0,0-.264.075c-.022.018-.009.04.026.031a1.8,1.8,0,0,1,.378-.031l.066.066c-.163.026-.325.053-.488.075a8.039,8.039,0,0,1-1.073.136c-.022,0-.066.048-.022.048a4.38,4.38,0,0,0,.791-.053c.308-.022.615-.048.919-.092l.088.07a2.8,2.8,0,0,0,.527.316,1.627,1.627,0,0,0-.11.189,4.016,4.016,0,0,0-.259.536c-.022.048.062.026.079,0,.114-.233.277-.44.413-.659a3.518,3.518,0,0,0,.536.185c.018.057.044.105.062.158,0,.031.066,0,.062-.026l-.018-.105.035.009.07.022.057.075c.053.092.119.18.18.273.022.035.1-.009.084-.048-.04-.088-.084-.171-.123-.255a1.076,1.076,0,0,0,.308.031c.18.088.365.167.536.273.33.185.642.4.971.571C45.468,50.879,45.529,50.84,45.5,50.822Z" transform="translate(-27.941 -45.914)" fill="#130a20" opacity="0.7"/>
      <path id="Path_2515" data-name="Path 2515" d="M43.966,51.522c-.365.044-.734.114-1.094.193a6.765,6.765,0,0,0-1.138.316,1.366,1.366,0,0,0-.747.365c-.286.3.312.422.519.453a5.525,5.525,0,0,0,2.022-.211,3.683,3.683,0,0,0,1.578-.725C45.671,51.311,44.194,51.491,43.966,51.522Z" transform="translate(-25.608 -32.231)" fill="#0c0610" opacity="0.7"/>
      <g id="Group_529" data-name="Group 529" transform="translate(1.545 5.858)" opacity="0.7">
        <path id="Path_2516" data-name="Path 2516" d="M42.5,50.52a5.134,5.134,0,0,1-1.42-.123c-.3-.084-.58-.18-.884-.246a2.592,2.592,0,0,0,.022-.971,3.314,3.314,0,0,1,.36.026c.145.018.3,0,.453,0,.031,0,.079-.048.035-.053-.163-.013-.325-.018-.492-.04a.784.784,0,0,0-.378-.009l-.009-.057a.5.5,0,0,0,.114.009.425.425,0,0,0,.18-.022c.04-.009.044-.057,0-.044a.541.541,0,0,1-.237,0,.147.147,0,0,0-.075-.009c-.018-.048-.035-.088-.053-.132a.292.292,0,0,0,.092.013,1.755,1.755,0,0,0,.462-.079,1.069,1.069,0,0,0,.615-.334c.018-.026-.026-.026-.044-.013a1.367,1.367,0,0,1-1.024.171.492.492,0,0,0-.418.013.351.351,0,0,0-.242.07,1.962,1.962,0,0,0-.541.571,4.941,4.941,0,0,0-1.226,2.853c-.013.229-.013.734.286.813a1.722,1.722,0,0,0,.316.242c.154.119.3.246.444.369a2.024,2.024,0,0,1,.365.642c.013.022.066-.009.066-.031a2.024,2.024,0,0,0-.084-.492c-.044-.141-.246-.273-.347-.36a5.009,5.009,0,0,0-.47-.33l-.062-.035a1.184,1.184,0,0,0,.585-.378l.189.114a2.66,2.66,0,0,1,.352.316c.022.018.088-.022.062-.048a2.606,2.606,0,0,0-.321-.338c-.062-.053-.127-.1-.185-.141.066-.079.136-.163.193-.233l.062-.075c.084.04.163.084.251.123.246.119.5.268.76.365.031.013.1-.04.053-.066a3.264,3.264,0,0,1-.36-.246c-.11-.066-.229-.119-.343-.18-.07-.04-.158-.1-.242-.149a5.007,5.007,0,0,0,.488-.822c.022-.013.062-.04.035-.053l-.009-.009c.07-.154.136-.316.193-.475.07.018.145.035.22.057.136.048.264.127.4.163.026,0,.092-.04.048-.048-.132-.053-.255-.136-.382-.193a1.586,1.586,0,0,0-.255-.088l.053-.185a1.481,1.481,0,0,0,.18.057c.237.079.47.171.712.229a4.516,4.516,0,0,0,1.437-.057C42.5,50.569,42.54,50.52,42.5,50.52Zm-2.444-1.253a9,9,0,0,0-1.143,1.53,4.3,4.3,0,0,0-.343,1.793c-.215.132-.431.141-.492-.229a2.034,2.034,0,0,1,.066-.8l.026-.013,0,0a.693.693,0,0,0,.2.022.086.086,0,0,0,.075-.04l-.009-.035,0,0c-.075-.048-.185-.048-.251-.119h0l.079-.286a1.437,1.437,0,0,0,.2-.018c.04-.009.088-.075.018-.066A.582.582,0,0,1,38.285,51a5.917,5.917,0,0,1,.347-.914l.04-.009a9.015,9.015,0,0,1,.673-1.015c.356-.47.615-.158.734.185Z" transform="translate(-37.78 -48.428)" fill="#130a20"/>
        <path id="Path_2517" data-name="Path 2517" d="M38.184,48.992a.384.384,0,0,1-.1-.022c-.044-.013-.053-.035-.084-.062s-.053,0-.062.022c-.062.105.145.114.193.119S38.227,49.01,38.184,48.992Z" transform="translate(-37.269 -46.817)" fill="#130a20"/>
      </g>
      <path id="Path_2518" data-name="Path 2518" d="M39.935,51.532h0c.048-.294-.365-.589-.62-.365a.217.217,0,0,0-.035.3.579.579,0,0,0,.185.268.305.305,0,0,0,.426-.084.382.382,0,0,0,.035-.084Z" transform="translate(-31.305 -33.538)" fill="#130a20" opacity="0.7"/>
      <path id="Path_2519" data-name="Path 2519" d="M38.921,51.042c-.114-.2-.211-.444-.484-.435a.265.265,0,0,0-.259.295.145.145,0,0,0,0,.1c.075.251.44.642.721.505C39.093,51.407,39.009,51.192,38.921,51.042Z" transform="translate(-34.92 -35.171)" fill="#130a20" opacity="0.7"/>
      <path id="Path_2520" data-name="Path 2520" d="M42.272,50.617a.444.444,0,0,0-.281.079.389.389,0,0,0-.2.215.062.062,0,0,0,.018.07.3.3,0,0,0,.255.018c.062-.026.207-.1.211-.2a.378.378,0,0,0,.062-.079C42.36,50.67,42.333,50.626,42.272,50.617Z" transform="translate(-22.64 -35.15)" fill="#130a20" opacity="0.7"/>
      <path id="Path_2521" data-name="Path 2521" d="M43.558,50.2a.364.364,0,0,0-.532-.163,1.251,1.251,0,0,0-.378.365,1.433,1.433,0,0,0-.374.527.962.962,0,0,0-.057.378.162.162,0,0,0,0,.066.352.352,0,0,0,.444.374.8.8,0,0,0,.492-.167A1.349,1.349,0,0,0,43.558,50.2Z" transform="translate(-21.188 -37.269)" fill="#0c0610" opacity="0.7"/>
      <path id="Path_2522" data-name="Path 2522" d="M42.687,49.746c-.013-.04-.053-.048-.092-.048a.147.147,0,0,0-.149.105l-.031.053a.047.047,0,0,0,.048.062.143.143,0,0,0,.105-.044l.013-.009.026-.009C42.652,49.842,42.7,49.8,42.687,49.746Z" transform="translate(-20.505 -38.261)" fill="#130a20" opacity="0.7"/>
      <path id="Path_2523" data-name="Path 2523" d="M42.11,48.477a.289.289,0,0,0-.382-.127l-.053.035v0a.11.11,0,0,0,0,.154l.057.044a.3.3,0,0,0,.18.136A.173.173,0,0,0,42.11,48.477Z" transform="translate(-23.125 -42.94)" fill="#130a20" opacity="0.7"/>
      <path id="Path_2524" data-name="Path 2524" d="M44.462,47.626a6.507,6.507,0,0,0-4.541-.026c-.031.009-.048.057-.009.057.73-.057,1.451-.215,2.185-.277a5.71,5.71,0,0,1,2.325.286C44.444,47.679,44.488,47.644,44.462,47.626Z" transform="translate(-29.072 -46.748)" fill="#6d39ae" opacity="0.6" style="mix-blend-mode: screen;isolation: isolate"/>
    </g>
    <g id="Group_581" data-name="Group 581" transform="translate(325.73 402.085)">
      <path id="Path_3176" data-name="Path 3176" d="M152.7,85.723c-4.725-6.039-7.67-13.758-14.215-18.154C133,63.886,125.7,63.314,119.342,64.4c-7.424,1.275-13,6.6-20.268,8.2-3.451.76-7.033.075-10.523.347a25.048,25.048,0,0,0-10,2.8c-5.363,2.831-9.688,8.035-12.272,13.442-1.5,3.152-2.826,6.36-4.589,9.38-1.745,2.985-4.1,5.574-5.872,8.541a30.586,30.586,0,0,0-4.057,16.312c.053,2.576,1.534,4.87,2.835,6.985.251.413.479.831.681,1.248.651,6.242-.571,12.488,0,18.826.677,7.53,5.143,14,10.391,19.156,5.376,5.283,13.556,7.09,20.809,7.978,3.969.492,7.846,1.345,11.846,1.609,3.785.246,7.2,2.171,10.778,3.3,6.875,2.171,12.9-.646,16.98-6.356,2.11-2.963,3.666-6.277,5.618-9.341,2.633-4.141,6.593-6.58,10.844-8.782a53.466,53.466,0,0,0,18.4-15.231c4.123-5.376,8.136-11.635,10.185-18.145C176.023,109.125,161.166,96.549,152.7,85.723Z" transform="translate(-51.756 -63.911)" fill="url(#radial-gradient-4)"/>
      <path id="Path_3177" data-name="Path 3177" d="M152.908,85.9c-4.694-6.066-7.6-13.806-14.114-18.233-5.472-3.714-12.769-4.325-19.134-3.27-7.428,1.231-13.042,6.527-20.312,8.088-3.451.738-7.037.031-10.523.281a25.108,25.108,0,0,0-10.013,2.752c-5.385,2.8-9.732,7.987-12.347,13.371-1.516,3.143-2.862,6.352-4.642,9.358-1.763,2.967-4.132,5.547-5.921,8.51a30.557,30.557,0,0,0-4.141,16.286c.04,2.576,1.512,4.875,2.8,7.006a13.822,13.822,0,0,1,.681,1.253c.607,6.237-.651,12.483-.119,18.817.637,7.534,5.068,14.026,10.286,19.213,5.354,5.319,13.516,7.169,20.773,8.1,3.96.505,7.828,1.38,11.828,1.666,3.793.273,7.2,2.22,10.76,3.358,6.866,2.211,12.914-.576,17.02-6.259,2.132-2.949,3.7-6.255,5.67-9.314,2.651-4.127,6.624-6.536,10.888-8.721a53.288,53.288,0,0,0,18.479-15.13c4.158-5.354,8.2-11.591,10.29-18.083C176.095,109.426,161.313,96.766,152.908,85.9Zm-36.514-2.286c.281,1.965-.738,3.793-1.6,5.486a13.177,13.177,0,0,0-1.714,7.723c.3,2.892,1.033,5.736,1.574,8.593.409,2.176,1.042,4.672.418,6.875-.391,1.354-1.121,2.554-1.534,3.886-.589,1.921.281,3.1,1.095,4.716.919,1.833.615,3.213-.646,4.8-3.534,4.47-5.609,10.4-3.873,15.982,1.824-3.648,3.653-7.727,7.648-9.3a.451.451,0,0,1,.545.668c-2.866,4.365-2.9,11.938-.708,16.606.963,2.035,4.879,7.029,1.895,9.108-1.78,1.235-4.088,1.358-6.061,2.154-2.712,1.094-5.363,2.708-6.782,5.38-.708,1.323-.8,3.437-2.171,4.255-1.785,1.059-3.842-1.314-5.635.251-1.3,1.138-2.233,2.505-4.136,2.563a42.28,42.28,0,0,1-5.569-.453c-4.747-.479-9.824-.413-14.461-1.587-6.044-1.525-11.081-6.308-14.242-11.534a28,28,0,0,1-2.321-4.774A27.5,27.5,0,0,1,57.037,142.4a39.866,39.866,0,0,1,1.758-6.378c.927-3.209-.941-4.866-2.857-7.16-.233-.277,0-.809.391-.725,2.053.431,3.626,1.688,5.257,2.905-1.793-3.288-3.9-7.152-2.237-10.743.466-1.007,1.3-3.389,2.466-3.749,1.512-.462,3.086,0,4.646.119-1.723-1.143-3.552-2.123-5.24-3.332a.453.453,0,0,1-.1-.624c1.059-1.767.057-4.114,1.24-5.785a7.27,7.27,0,0,1,1.662-1.622,12.054,12.054,0,0,0-1.741-.2.452.452,0,0,1-.316-.7,18.973,18.973,0,0,0,1.908-3.679c-.642.47-1.226,1.007-1.833,1.53-.418.356-.87-.189-.651-.6,3.653-6.8,5.815-14.352,11.666-19.714,1.987-1.82,4.8-3.771,7.626-2.844,1.952.646,3.525,4.211,4.1,5.978.123.374-.3.862-.668.545a35.052,35.052,0,0,1-2.84-2.818,17.94,17.94,0,0,1,1.49,3.82.454.454,0,0,1-.369.51c-1.727.29-3.459.567-5.2.809.334.171.664.347.993.519s.409.826-.088.853c-1.908.1-6.149,1.473-6.127,3.956.026,2.268,3.886,2.492,5.4,3.319a.435.435,0,0,1,.158.519c-1.253,2.73-4.163,5.56-3.613,8.743,2.927-1.086,5.31-3.908,7.275-6.176q1.411-1.622,2.782-3.279c.44-.536.985-1.385,1.749-1.5,1.974-.308,2.734,2.782,2.914,4.145a52.688,52.688,0,0,0,.91,5.947,3.343,3.343,0,0,0,.233.343c1.78-3,1.033-6.774,1.93-10.048a.443.443,0,0,1,.673-.215,9.7,9.7,0,0,1,1.666,1.622A12.249,12.249,0,0,0,95.23,97.9c.7.554,1.174-.084.9-.826C95.542,95.492,94.5,94,94.2,92.336c-.158-.862-.145-1.89.879-2.163,1.613-.422,3.077.031,4.5-.883a7.613,7.613,0,0,0-2.7-.9.445.445,0,0,1,.1-.884,27.373,27.373,0,0,0,10.989-1.741c2.563-1.033,5.121-2.343,7.925-2.519A.45.45,0,0,1,116.394,83.615Z" transform="translate(-51.753 -63.829)" fill="#301a4c" opacity="0.2" style="mix-blend-mode: multiply;isolation: isolate"/>
      <path id="Path_3178" data-name="Path 3178" d="M55.281,79.835c-.62,2.492-.58,5.046-1.226,7.56a28.956,28.956,0,0,0-.9,6.286,22.269,22.269,0,0,0,4.189,13.437,23.234,23.234,0,0,0,12.083,8.905,43.485,43.485,0,0,0,8.25,1.547c2.2.29,4.4.857,6.624.633.171-.018.22-.44.04-.466C75.075,116.4,65.756,115,59.233,107.614a21.461,21.461,0,0,1-5.279-14.141,32.46,32.46,0,0,1,.892-6.782c.444-2.286.2-4.567.615-6.826C55.492,79.685,55.325,79.663,55.281,79.835Z" transform="translate(-47.052 -10.238)" fill="#6d39ae" opacity="0.6" style="mix-blend-mode: screen;isolation: isolate"/>
      <path id="Path_3179" data-name="Path 3179" d="M61.2,72.73c-.242.4-1.464,1.2-2.114,2-.677-.321-1.556,1.156-1.846,1.64a43.99,43.99,0,0,0-4.141,8.4,15.359,15.359,0,0,0-.791,4.114c-.36,1.974-.549,4.325.444,5.626v.009a4.262,4.262,0,0,0,.721.813c.365.352.545.875.958,1.213.18.136.273-.308.189-.422a6.5,6.5,0,0,1-.629-1.389,1.742,1.742,0,0,0-.229-.356,7.413,7.413,0,0,0,1.125-1.5c.114.11.242.215.387.33a15.785,15.785,0,0,1,1.156,1.086,5.651,5.651,0,0,1,1.2,1.261c.123.277.352-.105.308-.277a7.609,7.609,0,0,0-1.262-2.079,6.47,6.47,0,0,0-.905-1.108,2.938,2.938,0,0,1-.273-.33,28.588,28.588,0,0,0,2.167-5.705c.062.018.132.04.2.057.466.167.927.321,1.393.527.189.092.281-.308.136-.4a11.6,11.6,0,0,0-1.24-.673,3.04,3.04,0,0,1-.316-.158l.092-.356c.4.163.826.277,1.165.44a16.5,16.5,0,0,0,2.756,1.13c.18.048.237-.338.11-.422-.853-.567-1.6-1.253-2.5-1.771-.321-.185-.765-.448-1.213-.651.114-.47.224-.945.338-1.407.092-.413.18-.835.251-1.261a29.72,29.72,0,0,0,.7-3.468,1.093,1.093,0,0,0,0-.268c.224-.132.435-.3.637-.413.505-.281,1.055-.484,1.578-.738.149-.062.171-.51-.035-.453a8.437,8.437,0,0,0-2.246.637l.022-.149c.057-.053.119-.114.176-.171a4.792,4.792,0,0,1,1.055-.659c.07-.04.088-.286-.022-.242-.352.141-.743.233-1.081.4a11.1,11.1,0,0,0,1.8-2.646C61.487,72.778,61.351,72.493,61.2,72.73Zm-2.409,3.56c-.057.053-.084.207-.009.233-.47-.2-3.868,8.589-4.053,9.235a34.4,34.4,0,0,0-1.574,6.716,5.541,5.541,0,0,1-.484-.637v-.084a24.072,24.072,0,0,1,3.055-11.371c.686-1.244,1.42-2.475,2.145-3.7C58.454,75.679,58.718,75.754,58.793,76.29Z" transform="translate(-50.863 -34.272)" fill="#130a20" opacity="0.7"/>
      <path id="Path_3180" data-name="Path 3180" d="M76.474,88.812c-2.541-2.018-7.894-1.8-9.842.888l-.022.044c-1.319.875-2.347,2.048-1.512,3.275,1.824,2.677,7.486,1.411,9.872.369C77.282,92.386,78.772,90.641,76.474,88.812Z" transform="translate(-7.476 16.08)" fill="#130a20" opacity="0.7"/>
      <path id="Path_3181" data-name="Path 3181" d="M85.623,69.547c-2.4,4.4-3.71,10.888-.747,15.336a4.744,4.744,0,0,0-.866-.207,17.3,17.3,0,0,1-2.233-3.6c-.07-.167-.193.079-.158.185a14.831,14.831,0,0,0,1.675,3.389,5.4,5.4,0,0,0-3.187,1.591,9.9,9.9,0,0,0-2.092,1.965,11.222,11.222,0,0,1-1.956-1.837c-.866-1.068-2.33-3.288-2.255-4.769.009-.224-.2-.163-.242.009-.33,1.675.862,3.661,1.679,5.046a11.68,11.68,0,0,0,2.044,2.554,20.864,20.864,0,0,0-2.053,4.272,39.448,39.448,0,0,0-1.758,6.229c-.141-.013-.286-.018-.422-.04-.462-.057-.91-.1-1.367-.189a6.641,6.641,0,0,0-1.354-.1,7.938,7.938,0,0,1-1.209.075c-.171-.013-.233.356-.066.4a8.077,8.077,0,0,0,.971.066,10.335,10.335,0,0,1,1.552.237c.488.114.98.207,1.477.312.1.026.193.04.268.053-.035.22-.057.448-.083.668a3.384,3.384,0,0,1-.431-.026,6.611,6.611,0,0,0-1.178-.088c-.119.009-.158.334-.022.343a6.379,6.379,0,0,1,1.2.251c.105.026.229.053.347.07-.11.888-.2,1.789-.233,2.69a10.646,10.646,0,0,0-3.165,2.229,16.412,16.412,0,0,0-4.251,6.075c-.044.1.057.272.136.127a17.919,17.919,0,0,1,4.954-5.872,10.323,10.323,0,0,1,2.316-1.341,1.233,1.233,0,0,0,0,.18,16.358,16.358,0,0,0,1.881,7.618,9.665,9.665,0,0,0-1.789,3.807,14.9,14.9,0,0,0-.259,3.451c.035.919.716,2.132.6,3-.013.092.07.215.141.092.488-.9-.145-2.831-.114-3.785a10.918,10.918,0,0,1,1.952-5.714,10.131,10.131,0,0,0,.655.848,4.258,4.258,0,0,0,1.538,1.143,3.236,3.236,0,0,0-.3,1.231c-.053.738.062,1.473.026,2.211-.013.242.242.2.268-.013.066-.527.057-1.059.084-1.591a5.891,5.891,0,0,1,.105-.91,3.616,3.616,0,0,1,.334-.738,4.677,4.677,0,0,0,1.7.123,1.857,1.857,0,0,0-.07,1.077,2.559,2.559,0,0,1,.062.448c.009.1-.022.237.088.277l.009,0c.035.013.079-.022.1-.048.141-.167.1-.466.088-.673a5.281,5.281,0,0,1,.119-1.143,9.758,9.758,0,0,0,4.189-2.1,32.434,32.434,0,0,0,6.29-6.681,3.154,3.154,0,0,0,1.059.589,6.8,6.8,0,0,0,1.7.637c.167.022.251-.356.105-.413a5.227,5.227,0,0,1-1.358-.963,8.837,8.837,0,0,0-.8-.506c-.066-.044-.123-.092-.176-.132,2.154-3.429,3.327-7.327,2.2-11.275a18.215,18.215,0,0,0-2.914-5.833,2.943,2.943,0,0,1,.246-.519c.141-.229.325-.448.488-.673.079-.119.044-.514-.136-.316a3.986,3.986,0,0,0-.879,1.138,20.157,20.157,0,0,0-1.376-1.613h0a4.395,4.395,0,0,1,.624-1.591c.18-.334.343-.69.514-1.037a4.424,4.424,0,0,1,.29-.527c-.079.132.712-1.1.4-.4-.018.035.022.1.053.044a2.777,2.777,0,0,0,.233-.519c.013-.04.009-.141-.057-.132-1.015.136-1.67,1.71-2.114,2.5a6.964,6.964,0,0,0-.5,1.1c-.466-.457-.949-.888-1.446-1.305-.123-.1-.237-.18-.356-.268-1.033-2.51-2.2-4.725-2.36-7.53-.176-3.024.914-5.657,1.8-8.466C85.891,69.595,85.75,69.3,85.623,69.547Zm6.5,26.22c2.6,6.633-3.191,12.633-7.582,16.914-2.321,2.264-5.556,3.657-8.119,1.178.062,0,.127-.009.18-.013,2,.36,4.958-1.789,6.264-2.752,2.29-1.675,3.393-4.716,4.325-7.283.892-2.466,2.3-5.934,2-8.611a14.706,14.706,0,0,0-1.727-4.857c-.615-1.226-1.626-2.365-2.334-3.552.413.246.791.505,1.108.738A18.273,18.273,0,0,1,92.12,95.766Z" transform="translate(-5.078 -45.088)" fill="#130a20" opacity="0.7"/>
      <path id="Path_3182" data-name="Path 3182" d="M88.238,67.526c-.787-1.029-2.822-1.5-3.811-1.873a16.584,16.584,0,0,0-9.314-.831c-1.218.268-3.4,1.059-4.132,2.36a22.726,22.726,0,0,0-2.18,2.532,24.974,24.974,0,0,1-4,2.993c-.053.035-.11.251,0,.246,2.325-.044,4.352-2.3,5.767-4.321a1.841,1.841,0,0,0,.862,1.235,29.337,29.337,0,0,1-1.943,2.941c-.053.057-.035.316.07.233a15.321,15.321,0,0,0,2.4-2.848,13.852,13.852,0,0,0,2.712.976,15.4,15.4,0,0,0,2.105.44c-.018.123-.031.237-.057.36a1,1,0,0,1-.053.163s-.062.141-.026.07c-.026.044-.035.123.009.154.141.11.29-.3.4-.716.119.018.242.026.365.044a3.5,3.5,0,0,1-.251.721c-.066.145.062.453.171.224a4.629,4.629,0,0,0,.356-.919c.3.031.6.057.91.07-.207.549-.374,1.116-.541,1.657a11.9,11.9,0,0,0-.352,1.6,7.514,7.514,0,0,1-.211,1.662c-.013.035,0,.2.084.136.154-.114.136-.176.171-.387.105-.721.268-1.433.418-2.145a14.347,14.347,0,0,1,.927-2.51c.629.013,1.266,0,1.9-.031,0,.105-.013.215-.018.308a22.164,22.164,0,0,0,.127,3.24c.018.189.193.11.189-.048-.026-.949-.044-1.886.022-2.831.018-.242.048-.475.083-.7.721-.057,1.433-.145,2.132-.264.092.769.4,1.556.536,2.268.04.215.22,0,.207-.132-.066-.523-.167-1.029-.264-1.538a5.753,5.753,0,0,1-.075-.668c.391-.079.782-.154,1.16-.242a9.459,9.459,0,0,0,1.824-.624,8.068,8.068,0,0,0,1.349,4.167c.105.176.242-.176.2-.286a12.151,12.151,0,0,1-.673-2.316,8.2,8.2,0,0,0-.4-1.82,3.261,3.261,0,0,0,.76-.629,15.357,15.357,0,0,0,3.108,4.576c.158.167.273-.211.185-.33a46.575,46.575,0,0,1-3.1-6.22A.289.289,0,0,0,88.238,67.526Zm-1.169,1.661c-.044-.083-.083-.185-.11-.251a.16.16,0,0,0-.18-.11l-.07.018c-.791-1.125-7.1-1.776-7.675-1.776-.91,0-6.356.33-6.791,1.587-.448-.519-.5-1.112.58-1.719a10.949,10.949,0,0,1,5.226-1.257,20.219,20.219,0,0,1,8.646,2.154C87.728,68.317,87.613,68.787,87.068,69.187Z" transform="translate(-7.675 -61.951)" fill="#130a20" opacity="0.7"/>
      <path id="Path_3183" data-name="Path 3183" d="M82.748,71.216c-2.664.905-5.341,1.688-7.947,2.7a1.773,1.773,0,0,0-1.552-.774c.1-.149.193-.281.273-.391,1.266-1.635,2.725-3.138,3.829-4.892.079-.114-.013-.448-.149-.273-1.051,1.433-2.356,2.686-3.543,4.009-.444.492-.87,1.007-1.3,1.516a17.349,17.349,0,0,0-1.938.207c.084-.308.132-.611.185-.8a12.391,12.391,0,0,0,.659-2.378c.022-.185-.158-.224-.193-.035a28.858,28.858,0,0,1-1.209,3.319c-.185.044-.369.114-.554.176,0-.057,0-.114,0-.176,0-.391.013-.782,0-1.174-.018-.264-.255-.141-.255.066.009.462-.04.932-.044,1.4-.229.1-.448.2-.668.316a10.241,10.241,0,0,0-1.934.76c-.435-.576-1.033-1.09-1.455-1.552a20.119,20.119,0,0,0-2.985-3.213c-.123-.088-.189.207-.1.286a16.575,16.575,0,0,1,2.4,3.134c.431.6.923,1.165,1.367,1.754-.422.246-.831.523-1.231.8a9.974,9.974,0,0,0-1.582-.818c-.163-.092-.259.286-.127.369.255.171.519.325.787.475.163.088.321.2.479.294a12.01,12.01,0,0,0-2.018,1.908c-.229.009-.466.022-.7.04-.879.062-2.075.453-2.923.048-.167-.075-.255.286-.123.369a5.332,5.332,0,0,0,2.712.378,4.392,4.392,0,0,1,.466.026,3.182,3.182,0,0,0-.286.747c-.413.185-.818.448-1.209.659-.866.47-1.662,1.024-2.571,1.424-.092.035-.11.294,0,.251a16.194,16.194,0,0,0,2.084-.949c.536-.286,1.16-.479,1.705-.778.211.716,1.222.87,2.312.809-.057.105-.119.2-.171.308a3.18,3.18,0,0,0-.514,1.279c0,.176.154.176.22.031A8.545,8.545,0,0,1,64,81.2c.154-.018.308-.035.453-.066-.4.752-.787,1.521-1.209,2.242a39.172,39.172,0,0,1-2.738,4.818c-.084.105-.04.426.11.268a23,23,0,0,0,2.242-3.429c.862-1.332,1.714-2.677,2.479-4.07.2-.048.391-.092.554-.136a16.559,16.559,0,0,0,2.932-1.165c.127.339.281.668.44,1a26.579,26.579,0,0,0,1.4,2.756c.127.211.321-.211.251-.36a32.1,32.1,0,0,1-1.437-3.736,19.1,19.1,0,0,0,2.4-1.631c.281.1.58.158.844.246.136.053.207-.281.088-.343-.171-.088-.334-.171-.505-.255.062-.048.119-.1.18-.149l.273-.22c.176.013.347.018.5.035.558.04,1.112.07,1.67.088.2.009.281-.44.075-.479-.479-.083-.963-.18-1.437-.29a4.979,4.979,0,0,0,1.086-1.182c.927-.47,1.842-.963,2.778-1.371,1.767-.774,3.613-1.376,5.354-2.2C82.893,71.515,82.9,71.159,82.748,71.216Z" transform="translate(-33.152 -51.602)" fill="#130a20" opacity="0.7"/>
      <path id="Path_3184" data-name="Path 3184" d="M81.486,81.51c-.949,1.653-1.8,3.363-2.585,5.1a37.1,37.1,0,0,0-2.242,5.675,7.117,7.117,0,0,0-.84,4.207c.4,2.119,2.73.013,3.481-.752a28.387,28.387,0,0,0,5.429-8.962c.98-2.374,2.338-6.127,1.9-8.721C85.908,73.836,82.062,80.486,81.486,81.51Z" transform="translate(29.73 -20.595)" fill="#0c0610" opacity="0.7"/>
      <g id="Group_580" data-name="Group 580" transform="translate(10.423 74.035)" opacity="0.7">
        <path id="Path_3185" data-name="Path 3185" d="M70.808,82.219a26.985,26.985,0,0,1-4.9,5.477c-1.284.985-2.549,1.8-3.763,2.857a13.256,13.256,0,0,0-3.93-3.1,12.378,12.378,0,0,1,1.235-1.4,20.258,20.258,0,0,0,1.424-1.851c.092-.114.035-.5-.132-.316-.549.624-1.077,1.288-1.666,1.886A4.307,4.307,0,0,0,57.858,87.3c-.079-.04-.167-.066-.242-.11.127-.141.264-.281.387-.44a2.817,2.817,0,0,0,.462-.813c.079-.189-.11-.382-.215-.145a2.62,2.62,0,0,1-.752.967,1.236,1.236,0,0,0-.268.281,3.651,3.651,0,0,0-.7-.163,3.146,3.146,0,0,0,.352-.334A8.568,8.568,0,0,0,57.955,84.4a5.342,5.342,0,0,0,.549-3.591c-.048-.154-.18.035-.176.119A7.18,7.18,0,0,1,55.85,85.7a2.48,2.48,0,0,0-1.244,1.741,1.9,1.9,0,0,0-.47,1.248,9.947,9.947,0,0,0,.69,3.965,25.4,25.4,0,0,0,7.938,13.886c.914.765,2.963,2.325,4.215,1.363a9.8,9.8,0,0,0,2-.549,26.922,26.922,0,0,1,2.87-.677c1.42-.277,2.431.242,3.776.462.141.031.189-.277.084-.343a10.034,10.034,0,0,0-2.3-1.2,5.68,5.68,0,0,0-2.545.325,22.084,22.084,0,0,0-2.835.892c-.048.013-.163.07-.3.136a6.312,6.312,0,0,0,.255-3.574c.352-.132.7-.281,1.046-.409a13.821,13.821,0,0,1,2.378-.479c.154-.035.185-.418,0-.391a15.961,15.961,0,0,0-2.374.272c-.391.105-.782.215-1.165.338-.105-.549-.233-1.068-.338-1.516-.035-.163-.088-.334-.127-.505.426-.207.848-.422,1.27-.637,1.27-.659,2.681-1.235,3.868-2,.154-.1.158-.558-.079-.44-.668.334-1.446.457-2.141.734-.624.246-1.213.563-1.811.84-.391.18-.9.338-1.371.549a27.813,27.813,0,0,0-1.873-4.593c.022-.11.031-.343-.11-.281l-.04,0a25.01,25.01,0,0,0-1.385-2.281c.308-.233.611-.484.936-.694.629-.413,1.323-.721,1.916-1.174.114-.092.11-.484-.066-.36-.611.391-1.319.62-1.956.971a7.507,7.507,0,0,0-1.156.8c-.193-.268-.391-.532-.593-.787.229-.136.462-.334.787-.567,1.042-.738,2.171-1.415,3.147-2.242,1.7-1.446,3.16-4.123,4.22-6.048C71.01,82.373,70.931,82.043,70.808,82.219ZM58.056,88.4c.884,3.213,1.253,6.4,2.756,9.433,1.341,2.69,3.969,5.147,6.334,6.967-.132,1.306-.76,2.207-2.492,1.323a10.239,10.239,0,0,1-3.072-2.774.181.181,0,0,0,.057-.123l0-.013a3.835,3.835,0,0,0,.708-.73.449.449,0,0,0,.075-.426c-.04-.088-.105-.123-.176-.1l0-.013c-.418.185-.769.62-1.253.655l-.026.009c-.312-.374-.629-.774-.941-1.187a5.038,5.038,0,0,0,.549-.879c.092-.185-.04-.58-.224-.29a3.134,3.134,0,0,1-.629.76,34.248,34.248,0,0,1-2.712-4.242c.07.057.145-.127.114-.2a46.519,46.519,0,0,1-2.1-5.9c-.835-2.91,1.257-3.033,3.024-2.426A.368.368,0,0,0,58.056,88.4Z" transform="translate(-54.127 -80.754)" fill="#130a20"/>
        <path id="Path_3186" data-name="Path 3186" d="M56.113,84.725c-.136.11-.264.242-.4.343a1.021,1.021,0,0,1-.5.149c-.127.031-.149.237-.105.338.215.549.91-.268,1.121-.457C56.332,85,56.288,84.589,56.113,84.725Z" transform="translate(-50.874 -67.361)" fill="#130a20"/>
      </g>
      <path id="Path_3187" data-name="Path 3187" d="M71.623,86.357h-.009c-1.051-1.116-3.556-.321-3.4,1.424a1.109,1.109,0,0,0,1.13,1.059A2.756,2.756,0,0,0,71,88.906a1.538,1.538,0,0,0,.945-2.013,1.842,1.842,0,0,0-.215-.391C71.733,86.418,71.707,86.335,71.623,86.357Z" transform="translate(4.1 10.554)" fill="#130a20" opacity="0.7"/>
      <path id="Path_3188" data-name="Path 3188" d="M66.5,88.917c-1.187-.145-2.5-.5-3.3.651a1.351,1.351,0,0,0,.382,1.96.813.813,0,0,0,.4.33c1.253.457,3.978.176,4.294-1.415C68.49,89.331,67.361,89.027,66.5,88.917Z" transform="translate(-13.813 20.432)" fill="#130a20" opacity="0.7"/>
      <path id="Path_3189" data-name="Path 3189" d="M74.856,73.985A2.381,2.381,0,0,0,74.28,75.4a2.15,2.15,0,0,0,.251,1.5.338.338,0,0,0,.369.141,1.484,1.484,0,0,0,.831-.971c.119-.369.242-1.187-.123-1.494a2.155,2.155,0,0,0-.163-.492C75.313,73.792,75.076,73.779,74.856,73.985Z" transform="translate(24.616 -30.178)" fill="#130a20" opacity="0.7"/>
      <path id="Path_3190" data-name="Path 3190" d="M75.754,69.608a1.832,1.832,0,0,0-2.3,1.679,6.153,6.153,0,0,0,.3,2.668,8.175,8.175,0,0,0,1.015,3.209,4.913,4.913,0,0,0,1.376,1.389c.079.07.154.145.237.211a1.809,1.809,0,0,0,2.923-.686,3.96,3.96,0,0,0,.844-2.541A6.86,6.86,0,0,0,75.754,69.608Z" transform="translate(21.771 -44.881)" fill="#0c0610" opacity="0.7"/>
      <path id="Path_3191" data-name="Path 3191" d="M72.972,68.7c-.211-.062-.36.07-.484.224a.755.755,0,0,0-.035.945c.044.1.088.193.149.3a.231.231,0,0,0,.374-.018.706.706,0,0,0,.149-.571l-.013-.083.053-.123C73.235,69.157,73.244,68.779,72.972,68.7Z" transform="translate(18.008 -47.701)" fill="#130a20" opacity="0.7"/>
      <path id="Path_3192" data-name="Path 3192" d="M65.99,67.493a1.461,1.461,0,0,0-1.684,1.2.225.225,0,0,0-.026.3l.026.022a.513.513,0,0,0,.6.5,1.767,1.767,0,0,0,.369-.1,1.467,1.467,0,0,0,1.13-.295A.926.926,0,0,0,65.99,67.493Z" transform="translate(-9.388 -51.804)" fill="#130a20" opacity="0.7"/>
      <path id="Path_3193" data-name="Path 3193" d="M68.7,67.575c-7.253,3.5-11.213,11.406-14.171,18.571-.057.154.07.391.2.193,2.018-3.174,3.6-6.615,5.648-9.8a28.966,28.966,0,0,1,8.374-8.686C68.844,67.786,68.849,67.5,68.7,67.575Z" transform="translate(-42.391 -51.513)" fill="#6d39ae" opacity="0.6" style="mix-blend-mode: screen;isolation: isolate"/>
    </g>
  </g>
</svg>
