<svg xmlns="http://www.w3.org/2000/svg" xmlns:xlink="http://www.w3.org/1999/xlink" width="78" height="78" viewBox="0 0 78 78">
  <defs>
    <filter id="Rectangle_267" x="0" y="0" width="78" height="78" filterUnits="userSpaceOnUse">
      <feOffset dy="3" input="SourceAlpha"/>
      <feGaussianBlur stdDeviation="3" result="blur"/>
      <feFlood flood-opacity="0.161"/>
      <feComposite operator="in" in2="blur"/>
      <feComposite in="SourceGraphic"/>
    </filter>
    <clipPath id="clip-path">
      <rect id="Rectangle_268" data-name="Rectangle 268" width="30" height="30" transform="translate(1271 2255)" fill="#fff" stroke="#707070" stroke-width="1"/>
    </clipPath>
  </defs>
  <g id="Group_2876" data-name="Group 2876" transform="translate(-309 -2909)">
    <g transform="matrix(1, 0, 0, 1, 309, 2909)" filter="url(#Rectangle_267)">
      <rect id="Rectangle_267-2" data-name="Rectangle 267" width="60" height="60" rx="10" transform="translate(9 6)" fill="#1e2b3b"/>
    </g>
    <g id="Mask_Group_18" data-name="Mask Group 18" transform="translate(-938 675)" clip-path="url(#clip-path)">
      <g id="rocket_1_" data-name="rocket (1)" transform="translate(1271.001 2255)">
        <g id="Group_2710" data-name="Group 2710">
          <path id="Path_5090" data-name="Path 5090" d="M20.8,19.526v-3.81c0-8.5-3.6-13.635-5.1-15.411A.858.858,0,0,0,14.4.3C12.866,2.071,9.2,7.207,9.2,15.716v3.811l-.7.474a4.925,4.925,0,0,0-2.17,4.082v4.548a.737.737,0,0,0,.386.647.729.729,0,0,0,.751-.038l2.286-1.522a3.913,3.913,0,0,1,2.166-.655h1.681v2.2a.733.733,0,0,0,.733.734h1.346a.733.733,0,0,0,.733-.734v-2.2h1.68a3.9,3.9,0,0,1,2.168.656l2.284,1.521a.729.729,0,0,0,.751.038.737.737,0,0,0,.386-.647V24.083A4.933,4.933,0,0,0,21.5,20ZM15,13.556a2.528,2.528,0,1,1,2.528-2.528A2.53,2.53,0,0,1,15,13.556Z" fill="#fff"/>
        </g>
      </g>
    </g>
  </g>
</svg>
