<svg xmlns="http://www.w3.org/2000/svg" xmlns:xlink="http://www.w3.org/1999/xlink" width="21" height="21" viewBox="0 0 21 21">
  <defs>
    <clipPath id="clip-path">
      <rect id="Rectangle_305" data-name="Rectangle 305" width="21" height="21" transform="translate(50 212.057)" fill="#fff" stroke="#707070" stroke-width="1"/>
    </clipPath>
  </defs>
  <g id="Mask_Group_32" data-name="Mask Group 32" transform="translate(-50 -212.057)" clip-path="url(#clip-path)">
    <g id="astronaut" transform="translate(50 212)">
      <g id="Group_2738" data-name="Group 2738" transform="translate(0.311 0.31)">
        <g id="Group_2737" data-name="Group 2737" transform="translate(0 1.721)">
          <circle id="Ellipse_4382" data-name="Ellipse 4382" cx="0.813" cy="0.813" r="0.813" transform="translate(18.809)" fill="#eaeaf0"/>
          <path id="Path_5126" data-name="Path 5126" d="M26.991,12.66h2.642v4.974H26.991Z" transform="translate(-9.204 -6.649)" fill="#eaeaf0"/>
          <path id="Path_5127" data-name="Path 5127" d="M0,0H2.642V4.974H0Z" transform="translate(2.642 10.984) rotate(180)" fill="#eaeaf0"/>
          <path id="Path_5128" data-name="Path 5128" d="M20.1,27.04c-.714.267-1.437.5-2.162.687a18.244,18.244,0,0,1-4.635.647,18.294,18.294,0,0,1-4.633-.645c-.727-.192-1.449-.423-2.164-.689l1.846-4.283h9.9Z" transform="translate(-3.099 -9.659)" fill="#eaeaf0"/>
        </g>
        <path id="Path_5129" data-name="Path 5129" d="M21.175,10.288V15.78a2.132,2.132,0,0,1-1.247,1.941,21.351,21.351,0,0,1-3.379,1.211,15.98,15.98,0,0,1-4.016.567,15.98,15.98,0,0,1-4.016-.567,21.351,21.351,0,0,1-3.378-1.211A2.132,2.132,0,0,1,3.891,15.78V10.44A8.784,8.784,0,0,1,12.6,1.645a8.643,8.643,0,0,1,8.576,8.642Z" transform="translate(-2.318 -1.645)" fill="#eaeaf0"/>
        <path id="Path_5130" data-name="Path 5130" d="M20.251,12.476v3.38a2.138,2.138,0,0,1-1.3,1.963,14.37,14.37,0,0,1-11.479,0,2.138,2.138,0,0,1-1.3-1.963v-3.38A5.413,5.413,0,0,1,8.242,8.31a7.739,7.739,0,0,1,4.924-1.725h.1A7.739,7.739,0,0,1,18.186,8.31a5.413,5.413,0,0,1,2.065,4.165Z" transform="translate(-3 -3.118)" fill="#eaeaf0"/>
      </g>
      <g id="Group_2739" data-name="Group 2739" transform="translate(0 0)">
        <path id="Path_5131" data-name="Path 5131" d="M21.947,8.934h-.5V5.127a1.124,1.124,0,1,0-.622,0V8.934H20.6a8.883,8.883,0,0,0-2.538-5.109c-.036-.037-.073-.073-.111-.109a.311.311,0,0,0-.433.446c.036.034.069.067.1.1a8.276,8.276,0,0,1,2.44,5.891v5.492A1.827,1.827,0,0,1,19,17.306q-.794.362-1.609.655l-.008,0,0,0c-.566.2-1.137.382-1.709.533a15.584,15.584,0,0,1-3.936.557A15.581,15.581,0,0,1,7.8,18.5a20.9,20.9,0,0,1-3.329-1.193A1.826,1.826,0,0,1,3.4,15.648v-5.34A8.6,8.6,0,0,1,5.942,4.247,8.183,8.183,0,0,1,11.8,1.825a8.286,8.286,0,0,1,3.111.626.311.311,0,1,0,.236-.575A8.831,8.831,0,0,0,5.5,3.806,9.27,9.27,0,0,0,2.887,8.934H1.519a.311.311,0,0,0-.311.311v4.974a.311.311,0,0,0,.311.311H2.78v1.118a2.45,2.45,0,0,0,1.429,2.224A21.532,21.532,0,0,0,7.637,19.1a16.2,16.2,0,0,0,4.1.577,16.2,16.2,0,0,0,4.1-.577c.5-.133,1.005-.29,1.5-.462l.774,1.8c-.6.213-1.212.4-1.826.567a17.926,17.926,0,0,1-4.555.636A17.985,17.985,0,0,1,7.172,21c-.607-.16-1.22-.351-1.828-.569l.194-.449a.311.311,0,0,0-.571-.246l-.324.752a.311.311,0,0,0,.177.415c.727.271,1.465.506,2.194.7a18.6,18.6,0,0,0,4.712.655A18.54,18.54,0,0,0,16.44,21.6c.74-.2,1.477-.43,2.192-.7a.311.311,0,0,0,.177-.414l-.89-2.067c.45-.17.9-.352,1.338-.553a2.45,2.45,0,0,0,1.429-2.224V14.53h1.262a.311.311,0,0,0,.31-.311V9.245a.311.311,0,0,0-.311-.311ZM20.638,4.048a.5.5,0,1,1,.5.5.5.5,0,0,1-.5-.5ZM1.83,13.908V9.556h.985c-.021.25-.034.5-.034.751v3.6Zm19.806,0h-.95V10.156c0-.2-.009-.4-.022-.6h.972Z" transform="translate(-1.208 -1.203)" fill="#fff"/>
        <path id="Path_5132" data-name="Path 5132" d="M22.3,3.562c.189.115.377.239.557.37a.311.311,0,1,0,.364-.5c-.194-.14-.4-.274-.6-.4a.311.311,0,1,0-.323.532Z" transform="translate(-7.449 -1.734)" fill="#fff"/>
        <path id="Path_5133" data-name="Path 5133" d="M6.045,14.67a.311.311,0,0,0-.311.311v.743A2.447,2.447,0,0,0,7.22,17.973a14.681,14.681,0,0,0,11.724,0,2.447,2.447,0,0,0,1.486-2.249V12.343a5.721,5.721,0,0,0-2.176-4.4,8.058,8.058,0,0,0-5.124-1.8h-.1a8.055,8.055,0,0,0-5.121,1.8,5.72,5.72,0,0,0-2.177,4.4v.638a.311.311,0,0,0,.622,0v-.638A5.109,5.109,0,0,1,8.31,8.416a7.429,7.429,0,0,1,4.724-1.653h.094a7.432,7.432,0,0,1,4.727,1.653,5.109,5.109,0,0,1,1.953,3.927v3.381A1.826,1.826,0,0,1,18.7,17.4a14.057,14.057,0,0,1-11.233,0,1.825,1.825,0,0,1-1.109-1.677v-.743a.311.311,0,0,0-.311-.311Z" transform="translate(-2.557 -2.675)" fill="#0d0614"/>
        <path id="Path_5134" data-name="Path 5134" d="M21.132,9.845a5.01,5.01,0,0,1,.608.6.311.311,0,1,0,.475-.4,5.652,5.652,0,0,0-.683-.676,6.494,6.494,0,0,0-2.1-1.163.311.311,0,1,0-.2.589,5.875,5.875,0,0,1,1.9,1.051Z" transform="translate(-6.519 -3.285)" fill="#0d0614"/>
      </g>
    </g>
  </g>
</svg>
