<svg xmlns="http://www.w3.org/2000/svg" xmlns:xlink="http://www.w3.org/1999/xlink" width="238" height="44" viewBox="0 0 238 44">
  <defs>
    <clipPath id="clip-path">
      <rect id="Rectangle_365" data-name="Rectangle 365" width="47" height="44" fill="#fff" stroke="#707070" stroke-width="1"/>
    </clipPath>
  </defs>
  <g id="Group_2852" data-name="Group 2852" transform="translate(-50 -45)">
    <g id="Mask_Group_77" data-name="Mask Group 77" transform="translate(50 45)" clip-path="url(#clip-path)">
      <g id="ufo-flying" transform="translate(0 8.091)">
        <g id="Group_2846" data-name="Group 2846" transform="translate(0)">
          <path id="Path_5289" data-name="Path 5289" d="M.314,14.565C-1.739,19.819,6.5,27.947,18.71,32.72s23.778,4.383,25.831-.871c1.278-3.269-1.429-7.651-6.6-11.646a14.141,14.141,0,0,1-.975,4.861,3.749,3.749,0,0,1-2.217,2.12,8.024,8.024,0,0,1-2.949.478,32.2,32.2,0,0,1-11.492-2.875,35.836,35.836,0,0,1-5.4-2.834,13.437,13.437,0,0,1-3.781-3.4,3.992,3.992,0,0,1-.645-3.842,14.193,14.193,0,0,1,2.579-4.235C6.552,9.91,1.592,11.3.314,14.565ZM40.075,29.507a1.647,1.647,0,0,1,1.9,2.582,1.647,1.647,0,0,1-1.9-2.582Zm-21.84-.414a1.613,1.613,0,0,1,2.151-.664,1.613,1.613,0,0,1,1.131,1.946,1.613,1.613,0,0,1-2.151.664A1.613,1.613,0,0,1,18.236,29.093ZM3.761,17.383a1.464,1.464,0,0,1-1.814-.937A1.464,1.464,0,0,1,3.279,14.9a1.464,1.464,0,0,1,1.814.937A1.464,1.464,0,0,1,3.761,17.383Z" transform="translate(0 -7.388)" fill="#d8e1ec"/>
          <path id="Path_5290" data-name="Path 5290" d="M31.039,26.131c1.825,0,3.151-.448,3.564-1.5a12.5,12.5,0,1,0-23.282-9.1C9.741,19.574,24.051,26.131,31.039,26.131Z" transform="translate(0.761 -7.577)" fill="#d8e1ec"/>
        </g>
      </g>
    </g>
    <text id="alien_designer" data-name="alien designer" transform="translate(113 75)" fill="#d8e1ec" font-size="20" font-family="SegoeUI-Bold, Segoe UI" font-weight="700" letter-spacing="0.06em"><tspan x="0" y="0">ALIEN DESIGNER</tspan></text>
  </g>
</svg>
