<svg xmlns="http://www.w3.org/2000/svg" xmlns:xlink="http://www.w3.org/1999/xlink" width="433.222" height="321.282" viewBox="0 0 433.222 321.282">
  <defs>
    <filter id="Path_119" x="305.39" y="137.627" width="37.531" height="58.474" filterUnits="userSpaceOnUse">
      <feOffset dy="3" input="SourceAlpha"/>
      <feGaussianBlur stdDeviation="3" result="blur"/>
      <feFlood flood-opacity="0.161"/>
      <feComposite operator="in" in2="blur"/>
      <feComposite in="SourceGraphic"/>
    </filter>
    <filter id="Path_120" x="304.706" y="129.441" width="30.099" height="38.214" filterUnits="userSpaceOnUse">
      <feOffset dy="3" input="SourceAlpha"/>
      <feGaussianBlur stdDeviation="3" result="blur-2"/>
      <feFlood flood-opacity="0.161"/>
      <feComposite operator="in" in2="blur-2"/>
      <feComposite in="SourceGraphic"/>
    </filter>
    <filter id="Path_124" x="72.991" y="186.22" width="61.564" height="47.25" filterUnits="userSpaceOnUse">
      <feOffset dy="3" input="SourceAlpha"/>
      <feGaussianBlur stdDeviation="3" result="blur-3"/>
      <feFlood flood-opacity="0.161"/>
      <feComposite operator="in" in2="blur-3"/>
      <feComposite in="SourceGraphic"/>
    </filter>
    <filter id="Path_130" x="123.6" y="273.696" width="60.744" height="47.586" filterUnits="userSpaceOnUse">
      <feOffset dy="3" input="SourceAlpha"/>
      <feGaussianBlur stdDeviation="3" result="blur-4"/>
      <feFlood flood-opacity="0.161"/>
      <feComposite operator="in" in2="blur-4"/>
      <feComposite in="SourceGraphic"/>
    </filter>
    <filter id="Path_140" x="285.258" y="20.506" width="97.964" height="63.646" filterUnits="userSpaceOnUse">
      <feOffset dy="3" input="SourceAlpha"/>
      <feGaussianBlur stdDeviation="3" result="blur-5"/>
      <feFlood flood-opacity="0.161"/>
      <feComposite operator="in" in2="blur-5"/>
      <feComposite in="SourceGraphic"/>
    </filter>
    <filter id="Path_142" x="336.482" y="46.584" width="39.856" height="53.745" filterUnits="userSpaceOnUse">
      <feOffset dy="3" input="SourceAlpha"/>
      <feGaussianBlur stdDeviation="3" result="blur-6"/>
      <feFlood flood-opacity="0.639"/>
      <feComposite operator="in" in2="blur-6"/>
      <feComposite in="SourceGraphic"/>
    </filter>
    <filter id="Path_143" x="236.153" y="60.868" width="97.673" height="147.99" filterUnits="userSpaceOnUse">
      <feOffset dy="3" input="SourceAlpha"/>
      <feGaussianBlur stdDeviation="3" result="blur-7"/>
      <feFlood flood-opacity="0.161"/>
      <feComposite operator="in" in2="blur-7"/>
      <feComposite in="SourceGraphic"/>
    </filter>
    <filter id="Path_144" x="139.657" y="132.982" width="49.889" height="102.079" filterUnits="userSpaceOnUse">
      <feOffset dy="3" input="SourceAlpha"/>
      <feGaussianBlur stdDeviation="3" result="blur-8"/>
      <feFlood flood-opacity="0.161"/>
      <feComposite operator="in" in2="blur-8"/>
      <feComposite in="SourceGraphic"/>
    </filter>
    <filter id="Path_145" x="160.346" y="212.187" width="84.112" height="49.109" filterUnits="userSpaceOnUse">
      <feOffset dy="3" input="SourceAlpha"/>
      <feGaussianBlur stdDeviation="3" result="blur-9"/>
      <feFlood flood-opacity="0.161"/>
      <feComposite operator="in" in2="blur-9"/>
      <feComposite in="SourceGraphic"/>
    </filter>
    <filter id="Path_147" x="382.947" y="152.903" width="32.266" height="51.576" filterUnits="userSpaceOnUse">
      <feOffset dy="3" input="SourceAlpha"/>
      <feGaussianBlur stdDeviation="3" result="blur-10"/>
      <feFlood flood-opacity="0.161"/>
      <feComposite operator="in" in2="blur-10"/>
      <feComposite in="SourceGraphic"/>
    </filter>
    <filter id="Ellipse_100" x="21.767" y="138.482" width="38.889" height="39.061" filterUnits="userSpaceOnUse">
      <feOffset dy="3" input="SourceAlpha"/>
      <feGaussianBlur stdDeviation="3" result="blur-11"/>
      <feFlood flood-opacity="0.161"/>
      <feComposite operator="in" in2="blur-11"/>
      <feComposite in="SourceGraphic"/>
    </filter>
    <filter id="Ellipse_101" x="62.889" y="261.491" width="38.298" height="37.219" filterUnits="userSpaceOnUse">
      <feOffset dy="3" input="SourceAlpha"/>
      <feGaussianBlur stdDeviation="3" result="blur-12"/>
      <feFlood flood-opacity="0.161"/>
      <feComposite operator="in" in2="blur-12"/>
      <feComposite in="SourceGraphic"/>
    </filter>
    <filter id="Path_150" x="212.458" y="51.503" width="31.111" height="67.881" filterUnits="userSpaceOnUse">
      <feOffset dy="3" input="SourceAlpha"/>
      <feGaussianBlur stdDeviation="3" result="blur-13"/>
      <feFlood flood-opacity="0.161"/>
      <feComposite operator="in" in2="blur-13"/>
      <feComposite in="SourceGraphic"/>
    </filter>
    <filter id="Path_151" x="196.093" y="50.711" width="28.576" height="62.514" filterUnits="userSpaceOnUse">
      <feOffset dy="3" input="SourceAlpha"/>
      <feGaussianBlur stdDeviation="3" result="blur-14"/>
      <feFlood flood-opacity="0.161"/>
      <feComposite operator="in" in2="blur-14"/>
      <feComposite in="SourceGraphic"/>
    </filter>
    <filter id="Path_152" x="234.79" y="56.617" width="29.009" height="65.407" filterUnits="userSpaceOnUse">
      <feOffset dy="3" input="SourceAlpha"/>
      <feGaussianBlur stdDeviation="3" result="blur-15"/>
      <feFlood flood-opacity="0.161"/>
      <feComposite operator="in" in2="blur-15"/>
      <feComposite in="SourceGraphic"/>
    </filter>
    <filter id="Path_154" x="124.527" y="53.871" width="28.684" height="50.333" filterUnits="userSpaceOnUse">
      <feOffset dy="3" input="SourceAlpha"/>
      <feGaussianBlur stdDeviation="3" result="blur-16"/>
      <feFlood flood-opacity="0.161"/>
      <feComposite operator="in" in2="blur-16"/>
      <feComposite in="SourceGraphic"/>
    </filter>
  </defs>
  <g id="_6290" data-name="6290" transform="translate(0 0)">
    <g id="Group_28" data-name="Group 28" transform="translate(0 0)">
      <path id="Path_117" data-name="Path 117" d="M35.962,5.682c-.969,17.075,22.782,32.164,36.823,36.189,15.679,4.494,35.478,8.529,50.809,4.164,2.5,4.364,3.366,9.385,3.717,14.261.519,7.219-1.058,8.763-7.567,12.328a73.006,73.006,0,0,1-34.21,8.3c-34.7-.731-69.691-11.05-82.921-46.85-8.646-23.4,5-38.477,28.728-32.922.057.767-.268,1.372-.269,2.119Z" transform="translate(283.307 115.08)" fill="#223246"/>
      <path id="Path_118" data-name="Path 118" d="M31.339,1.152c.058.767-.267,1.373-.269,2.119L36.3,5.552c-.643,11.34,9.306,21.892,20.384,28.821C52.914,47.5,52.274,61.186,42.057,72.807c-.105.12-.212.225-.317.343C24.42,66.313,10.064,54.24,2.612,34.074-6.034,10.681,7.614-4.4,31.339,1.152Z" transform="translate(283.087 115.002)" fill="#223246"/>
      <g transform="matrix(1, 0, 0, 1, 0, 0)" filter="url(#Path_119)">
        <path id="Path_119-2" data-name="Path 119" d="M19.531,1.648A60.085,60.085,0,0,1,16.042,16.33C13.188,23.678,2.278,40.474,2.278,40.474L0,39.046S10.553,24.215,13.564,17.4,17.513,0,17.513,0Z" transform="translate(314.39 143.63)" fill="#1b2b3e"/>
      </g>
      <g transform="matrix(1, 0, 0, 1, 0, 0)" filter="url(#Path_120)">
        <path id="Path_120-2" data-name="Path 120" d="M12.1,1.967C10.872,4.535,0,20.214,0,20.214l.042-5.828L10.6,0Z" transform="translate(313.71 135.44)" fill="#1b2b3e"/>
      </g>
      <path id="Path_121" data-name="Path 121" d="M158.122,33.193c-4.882,14.337-26.873,60.076-60.895,71.414S0,81.148,0,81.148L13.9,56.267s27.451,17.915,56.779-1.123S100.968,0,100.968,0s50.04,5.265,51.849,7.877,5.305,25.316,5.305,25.316Z" transform="translate(70.159 207.443)" fill="#223246"/>
      <path id="Path_122" data-name="Path 122" d="M148.91,74.339c-8.438,4.559-37.168,16.1-81.85,6.474S0,19.692,0,19.692L16.892.682S37.756,19.94,62.608,21.4C98.687,23.521,125.092,0,125.092,0l45.3,35.611Z" transform="translate(29.076 141.449)" fill="#223246"/>
      <path id="Path_123" data-name="Path 123" d="M170.66,50.576c-1.939,6.5-2.253,46.019-35.391,81.872-24.149,26.128-62.6,47.257-62.6,47.257s-15.35-20.288-26.4-22.292-30.88-1.793-30.88-1.793,8.454-18.258,9.428-31.018C26.472,102.831,0,76.722,0,76.722S31.539,58.083,52.965,40.656,112.09,0,112.09,0l42.544,17.226,16.027,33.35Z" transform="translate(153.967 65.832)" fill="#19283a"/>
      <g id="Group_22" data-name="Group 22" transform="translate(81.991 192.221)">
        <g transform="matrix(1, 0, 0, 1, -81.99, -192.22)" filter="url(#Path_124)">
          <path id="Path_124-2" data-name="Path 124" d="M43.5,14.982c-.5,4.21-2.623,9.387-6.256,11.587-5.039,3.051-10.761,2.979-16.135,2.29C12.663,27.777-.424,23.148.01,12.111A13.066,13.066,0,0,1,6.124,2.043C10.086-.632,15.159-.006,19.555.254,26.859.689,44.729,4.606,43.5,14.982Z" transform="translate(81.99 192.22)" fill="#19283a"/>
        </g>
        <path id="Path_125" data-name="Path 125" d="M6.522.04A2.006,2.006,0,0,0,4.234,1.7L.058,20.45a2.007,2.007,0,0,0,1.367,2.475h0a2.007,2.007,0,0,0,2.288-1.661L7.889,2.515A2,2,0,0,0,6.522.04Z" transform="translate(18.445 2.628)" fill="#223246"/>
        <path id="Path_126" data-name="Path 126" d="M5.97.045a1.872,1.872,0,0,0-2.235,1.42L.045,18.034a1.872,1.872,0,0,0,1.42,2.234h0A1.873,1.873,0,0,0,3.7,18.848L7.39,2.279A1.873,1.873,0,0,0,5.97.045Z" transform="translate(25.363 5.583)" fill="#223246"/>
        <path id="Path_127" data-name="Path 127" d="M4.981.058a1.7,1.7,0,0,0-2.139.988L.027,13.69c-.172.77.508,1.577,1.517,1.8h0A1.7,1.7,0,0,0,3.682,14.5L6.5,1.86c.173-.77-.509-1.576-1.517-1.8Z" transform="translate(32.714 9.238)" fill="#223246"/>
        <path id="Path_128" data-name="Path 128" d="M5.806.047A1.837,1.837,0,0,0,3.587,1.4L.042,17.314a1.836,1.836,0,0,0,1.436,2.163h0A1.836,1.836,0,0,0,3.7,18.128L7.242,2.21A1.837,1.837,0,0,0,5.806.047Z" transform="translate(11.138 2.4)" fill="#223246"/>
        <path id="Path_129" data-name="Path 129" d="M4.627.065C3.618-.159,2.676.213,2.523.9L.021,12.13c-.153.684.542,1.421,1.551,1.646h0c1.009.225,1.951-.147,2.1-.832l2.5-11.233C6.33,1.028,5.635.291,4.627.065Z" transform="translate(4.275 4.126)" fill="#223246"/>
      </g>
      <g id="Group_23" data-name="Group 23" transform="translate(132.6 279.696)">
        <g transform="matrix(1, 0, 0, 1, -132.6, -279.7)" filter="url(#Path_130)">
          <path id="Path_130-2" data-name="Path 130" d="M42.035,7c1.122,4.088,1.1,9.685-1.441,13.089-3.523,4.722-8.851,6.805-14.091,8.188-8.238,2.174-22.1,2.8-25.85-7.587A13.065,13.065,0,0,1,2.533,9.061c2.665-3.967,7.6-5.3,11.773-6.706C21.238.008,39.269-3.076,42.035,7Z" transform="translate(132.6 279.7)" fill="#19283a"/>
        </g>
        <path id="Path_131" data-name="Path 131" d="M1.53.024a2.006,2.006,0,0,0-1.5,2.4L3.211,21.368a2.008,2.008,0,0,0,2.2,1.78h0a2.008,2.008,0,0,0,1.5-2.4L3.726,1.8A2,2,0,0,0,1.53.024Z" transform="translate(18.7 2.534)" fill="#223246"/>
        <path id="Path_132" data-name="Path 132" d="M1.563.027A1.872,1.872,0,0,0,.026,2.183L2.834,18.925A1.873,1.873,0,0,0,4.99,20.461h0a1.872,1.872,0,0,0,1.537-2.156L3.719,1.564A1.87,1.87,0,0,0,1.563.027Z" transform="translate(25.677 2.881)" fill="#223246"/>
        <path id="Path_133" data-name="Path 133" d="M1.625.034C.606.205-.115.974.015,1.752L2.158,14.527a1.7,1.7,0,0,0,2.082,1.1h0c1.02-.171,1.741-.941,1.61-1.718L3.708,1.133A1.7,1.7,0,0,0,1.625.034Z" transform="translate(32.888 3.878)" fill="#223246"/>
        <path id="Path_134" data-name="Path 134" d="M1.573.027A1.837,1.837,0,0,0,.024,2.11l2.7,16.083a1.836,1.836,0,0,0,2.144,1.465h0a1.836,1.836,0,0,0,1.549-2.083L3.717,1.491A1.841,1.841,0,0,0,1.573.027Z" transform="translate(11.139 5.339)" fill="#223246"/>
        <path id="Path_135" data-name="Path 135" d="M1.648.04C.629.21-.1.91.012,1.6l1.9,11.35c.116.691,1.037,1.113,2.057.942h0c1.02-.171,1.752-.87,1.636-1.562L3.705.981C3.591.288,2.67-.135,1.648.04Z" transform="translate(4.265 9.966)" fill="#223246"/>
      </g>
      <path id="Path_136" data-name="Path 136" d="M52.373,18.974C51.717,15.519,49.544,1.683,42.36.01c-1.195-.278-15.3,5.507-25.8,12.223C1.551,21.827,0,25.909,0,25.909c5.605,8.931,29.37,8.643,29.37,8.643Z" transform="translate(0 128.326)" fill="#19283a"/>
      <path id="Path_137" data-name="Path 137" d="M46.419,14.183C44.569,11.191,37.586-.949,30.279.059,29.065.228,17.963,10.68,10.562,20.711-.013,35.041,0,39.407,0,39.407c8.431,6.333,30.517-2.445,30.517-2.445Z" transform="translate(43.996 253.087)" fill="#19283a"/>
      <path id="Path_138" data-name="Path 138" d="M.8,62.5s-3.959-17.981,5.77-35.535C19.788,3.111,51.28-14,88.41,16.036,128.689,48.623,114.568,72,99.988,90.865,83.433,112.287,58.71,111.031,58.71,111.031Z" transform="translate(267.067 0)" fill="#223246"/>
      <g id="Group_24" data-name="Group 24" transform="translate(294.077 26.506)">
        <path id="Path_139" data-name="Path 139" d="M79.911,46.249c.286-5.282.092-10.54-19.026-27.36C40.166.659,26.71-1.571,21.314.76,14.469,3.718-1.817,26.017.166,33.155,1.382,37.529,12.6,42.932,31,58.467,45.255,70.51,46.874,76.977,50.915,76.385S62.463,71.935,68.746,64.5,79.741,49.384,79.911,46.249Z" transform="translate(0 0.212)" fill="#19283a"/>
        <g transform="matrix(1, 0, 0, 1, -294.08, -26.51)" filter="url(#Path_140)">
          <path id="Path_140-2" data-name="Path 140" d="M21.678,5.073c5.4-2.331,18.852-.1,39.571,18.128,13.53,11.9,17.58,18.017,18.691,22.445.214-5.095-.663-10.577-19.055-26.758C40.166.659,26.71-1.571,21.315.76,14.469,3.719-1.817,26.017.166,33.155a4.178,4.178,0,0,0,.425.976C2.487,25.037,15.689,7.66,21.678,5.073Z" transform="translate(294.26 26.51)" fill="#1b2b3e"/>
        </g>
      </g>
      <path id="Path_141" data-name="Path 141" d="M.447,1.533C-2.339,4.576,7.684,5.721,36.434,30c22.46,18.972,25.09,25.425,25.09,25.425,5.366-3.164,5.442-7.918-19.439-28.6C16.052,5.2,5.414-3.89.447,1.533Z" transform="translate(263.311 61.731)" fill="#1b2b3e"/>
      <g id="Group_25" data-name="Group 25" transform="translate(345.482 52.584)">
        <g transform="matrix(1, 0, 0, 1, -345.48, -52.58)" filter="url(#Path_142)">
          <path id="Path_142-2" data-name="Path 142" d="M21.836,18.937c.433-6.209-6.043-10.559-10.571-14.378-9-7.593-15.589-5.084-7.826,2.971.61.633,1.219,1.277,1.807,1.933,0,0,7.356,4.213,5.956,11.536-.016.084-11.156,16.722-1.657,14.55C15.483,34.193,21.421,24.88,21.836,18.937Z" transform="translate(345.48 52.58)" fill="#0a1825" opacity="0.3"/>
        </g>
      </g>
      <g transform="matrix(1, 0, 0, 1, 0, 0)" filter="url(#Path_143)">
        <path id="Path_143-2" data-name="Path 143" d="M24.52,0c.972.937,10.857,13.424,4.174,39.953C21.91,66.884,0,118.473,0,118.473L8.948,129.99s43.214-21.4,53.937-35.128C78.247,75.194,79.673,48.434,79.673,48.434l-3.017-4.352S72.663,75.869,60.939,88.8c-18.075,19.937-48.612,33.048-48.612,33.048l-5.764-5.992s25.866-57.691,29.3-73.463c4.544-20.868-.923-34.8-.923-34.8L24.52,0Z" transform="translate(245.15 66.87)" fill="#1b2b3e"/>
      </g>
      <g id="Group_26" data-name="Group 26" transform="translate(199.747 147.338)">
        <ellipse id="Ellipse_98" data-name="Ellipse 98" cx="8.867" cy="12.356" rx="8.867" ry="12.356" transform="matrix(-0.738, -0.675, 0.675, -0.738, 13.081, 30.203)" fill="#0a1825"/>
        <ellipse id="Ellipse_99" data-name="Ellipse 99" cx="8.867" cy="12.357" rx="8.867" ry="12.357" transform="matrix(-0.738, -0.675, 0.675, -0.738, 15.631, 32.957)" fill="#223246"/>
      </g>
      <g transform="matrix(1, 0, 0, 1, 0, 0)" filter="url(#Path_144)">
        <path id="Path_144-2" data-name="Path 144" d="M31.856,46.061C30.468,18.029,9.661.557,9.661.557A6.787,6.787,0,0,0,2.628,1.565C-.921,4.347.152,6.825.152,6.825s21.781,22.6,23.736,45.4c.5,5.847-3.768,31.283-3.768,31.283l1.039.569S32.579,60.607,31.856,46.061Z" transform="translate(148.66 138.98)" fill="#1b2b3e"/>
      </g>
      <g transform="matrix(1, 0, 0, 1, 0, 0)" filter="url(#Path_145)">
        <path id="Path_145-2" data-name="Path 145" d="M56.012,30.164s-.065-13.4-24.259-21.523C12.023,2.021.47,4.873.47,4.873L0,3.266s11.652-5.5,29.706-2.226C58.212,6.208,64.984,22.657,64.984,22.657s2.747,1.64-.331,6.029S56.012,30.164,56.012,30.164Z" transform="translate(169.35 218.19)" fill="#1b2b3e"/>
      </g>
      <path id="Path_146" data-name="Path 146" d="M7.6,19.55c1.458-3.616,7.051-8.109,7.873-16.84.447-4.748,5.58-2.794,6.945,2.274,1.253,4.653,1.113,8.377-.923,12.226,8.139-3.053,17.218-.3,13.6,9.056C39.609,29.058,39.14,38.7,32.9,38.634c5.966,1.553,3.734,7.687.9,9.611-6.229,4.234-23.951,3.39-28.979,4.8L.432,26.877C.269,26.586.07,26.622,0,26.292,2.113,24.637,6.085,23.3,7.6,19.55Z" transform="translate(395.131 136.257)" fill="#223246"/>
      <g transform="matrix(1, 0, 0, 1, 0, 0)" filter="url(#Path_147)">
        <path id="Path_147-2" data-name="Path 147" d="M8.633,2.171l5.633,26.766s-.05,3.939-3.253,4.525a4.779,4.779,0,0,1-4.667-1.279l-6.2-27.2S-.984.973,3.018.24C9-.858,8.633,2.171,8.633,2.171Z" transform="translate(391.95 158.9)" fill="#1b2b3e"/>
      </g>
      <g transform="matrix(1, 0, 0, 1, 0, 0)" filter="url(#Ellipse_100)">
        <ellipse id="Ellipse_100-2" data-name="Ellipse 100" cx="6.865" cy="7.988" rx="6.865" ry="7.988" transform="matrix(-0.74, 0.67, -0.67, -0.74, 51.66, 156.37)" fill="#0a1825"/>
      </g>
      <g transform="matrix(1, 0, 0, 1, 0, 0)" filter="url(#Ellipse_101)">
        <ellipse id="Ellipse_101-2" data-name="Ellipse 101" cx="6.866" cy="7.989" rx="6.866" ry="7.989" transform="translate(92.19 274.28) rotate(115.14)" fill="#0a1825"/>
      </g>
      <path id="Path_148" data-name="Path 148" d="M37,2.069C50.338.381,63.768.378,77.155.063c19.322-.456,52.308,1.008,60.29,23.064,3.266,6.9,2.816,15.759-2.266,22.126-9.36,11.725-32.563,9.321-45.06,4.571-16.671-6.336-32.27-13.448-49.942-17.559C26.338,29.046,14.93,31.628,2.247,31.2A125.577,125.577,0,0,0,0,10.829C9.975,3.11,24.935,3.6,37,2.069Z" transform="translate(131.89 56.812)" fill="#223246"/>
      <path id="Path_149" data-name="Path 149" d="M74.418,22.024c3.265,6.9,2.22,16.45-2.862,22.816C62.2,56.565,38.992,54.161,26.5,49.412,17.915,46.151,9.6,42.66,1.16,39.5-1.049,28.412-.116,15.751,4.071,5.948A30.508,30.508,0,0,1,7.171.326C21.646.039,65.17-3.533,74.418,22.024Z" transform="translate(194.082 56.711)" fill="#223246"/>
      <g id="Group_27" data-name="Group 27" transform="translate(205.093 56.711)">
        <g transform="matrix(1, 0, 0, 1, -205.09, -56.71)" filter="url(#Path_150)">
          <path id="Path_150-2" data-name="Path 150" d="M6.515,22.484C4.726,34.8,3.309,46.611,2.892,49.881c-1.011-.3-1.974-.614-2.892-.942.04-5.094,3.5-22.827,4.035-28.173C4.62,14.913,9.694,1.59,10.3,0q1.4.156,2.806.35C12.122,3.224,7.219,17.641,6.515,22.484Z" transform="translate(221.46 57.5)" fill="#1b2b3e"/>
        </g>
        <g transform="matrix(1, 0, 0, 1, -205.09, -56.71)" filter="url(#Path_151)">
          <path id="Path_151-2" data-name="Path 151" d="M2.492,19.58A110.087,110.087,0,0,1,7.652.021Q9.076,0,10.576,0C10.01,2.145,7.638,10.35,5.461,18.6c-1.489,5.64-2.343,23.5-2.453,25.918L0,43.318C.3,39.848,1.612,24.648,2.492,19.58Z" transform="translate(205.09 56.71)" fill="#1b2b3e"/>
        </g>
        <g transform="matrix(1, 0, 0, 1, -205.09, -56.71)" filter="url(#Path_152)">
          <path id="Path_152-2" data-name="Path 152" d="M3.125,47.241q-1.55.131-3.125.166L8.6,0q1.233.554,2.413,1.175Z" transform="translate(243.79 62.62)" fill="#1b2b3e"/>
        </g>
      </g>
      <path id="Path_153" data-name="Path 153" d="M11.354,15.885a18.045,18.045,0,0,0,2.7-.85c-2.193-1.583-6.1.349-8.71-.39A3.837,3.837,0,0,1,3.614,8.177C7.169,4.55,15.045,2.039,19.485,1.706,26.127,1.207,32.816.765,39.356,0c-.052.4.223.684.234,1.014l2.532,23.823c-3.038,1.251-4.939,3.1-7.164,5.932-1.625,2.067-2.112,5.035-3.413,7.277-1.678,2.892-4.958,2.124-5.694-.835-.694-2.79.62-5.563.267-8.264-2.492,1.55-5.2,2.639-7.724,4.189-2.342,1.435-5.07,3.3-7.794,2.9-3.1-.46-4.473-3.652-2.782-6.4,1.236-2.01,4.2-2.885,6.144-3.95a24.172,24.172,0,0,0,2.547-1.671c-1.718-1.211-5.87,1.508-7.56,2.453-2.131,1.191-5.685,2.654-7.526.372C-3.957,20.166,7.381,16.949,11.354,15.885Z" transform="translate(97.616 63.954)" fill="#223246"/>
      <g transform="matrix(1, 0, 0, 1, 0, 0)" filter="url(#Path_154)">
        <path id="Path_154-2" data-name="Path 154" d="M8.342,2.476,10.684,28.4s-.484,3.718-3.565,3.92A4.52,4.52,0,0,1,2.864,30.6L.037,4.206S-.585.288,3.267.034C9.018-.341,8.342,2.476,8.342,2.476Z" transform="translate(133.53 59.87)" fill="#1b2b3e"/>
      </g>
      <path id="Path_155" data-name="Path 155" d="M30.383.059S20.23-1.59,8.693,12.526C-4.519,28.689,1.257,38.187,1.257,38.187s6.214-.523,18.615-14.294C33.454,8.814,30.383.059,30.383.059Z" transform="translate(266.279 5.567)" fill="#1b2b3e"/>
    </g>
  </g>
</svg>
